('D:\\Users\\Desktop\\JK_apkcheck\\build\\main_ui\\PKG-00.pkg',
 {'BINARY': 1,
  'DATA': 1,
  'EXECUTABLE': 1,
  'EXTENSION': 1,
  'PYMODULE': 1,
  'PYSOURCE': 1,
  'PYZ': 0},
 [('PYZ-00.pyz',
   'D:\\Users\\Desktop\\JK_apkcheck\\build\\main_ui\\PYZ-00.pyz',
   'PYZ'),
  ('struct', 'd:\\python37\\lib\\struct.pyo', 'PYMODULE'),
  ('pyimod01_os_path',
   'd:\\python37\\lib\\site-packages\\PyInstaller\\loader\\pyimod01_os_path.pyc',
   'PYMODULE'),
  ('pyimod02_archive',
   'd:\\python37\\lib\\site-packages\\PyInstaller\\loader\\pyimod02_archive.pyc',
   'PYMODULE'),
  ('pyimod03_importers',
   'd:\\python37\\lib\\site-packages\\PyInstaller\\loader\\pyimod03_importers.pyc',
   'PYMODULE'),
  ('pyiboot01_bootstrap',
   'd:\\python37\\lib\\site-packages\\PyInstaller\\loader\\pyiboot01_bootstrap.py',
   'PYSOURCE'),
  ('pyi_rth__tkinter',
   'd:\\python37\\lib\\site-packages\\PyInstaller\\loader\\rthooks\\pyi_rth__tkinter.py',
   'PYSOURCE'),
  ('main_ui', 'D:\\Users\\Desktop\\JK_apkcheck\\main_ui.py', 'PYSOURCE'),
  ('api-ms-win-crt-locale-l1-1-0.dll',
   'C:\\Windows\\system32\\api-ms-win-crt-locale-l1-1-0.dll',
   'BINARY'),
  ('VCRUNTIME140.dll', 'd:\\python37\\VCRUNTIME140.dll', 'BINARY'),
  ('api-ms-win-crt-runtime-l1-1-0.dll',
   'C:\\Windows\\system32\\api-ms-win-crt-runtime-l1-1-0.dll',
   'BINARY'),
  ('api-ms-win-crt-heap-l1-1-0.dll',
   'C:\\Windows\\system32\\api-ms-win-crt-heap-l1-1-0.dll',
   'BINARY'),
  ('api-ms-win-crt-math-l1-1-0.dll',
   'C:\\Windows\\system32\\api-ms-win-crt-math-l1-1-0.dll',
   'BINARY'),
  ('api-ms-win-crt-stdio-l1-1-0.dll',
   'C:\\Windows\\system32\\api-ms-win-crt-stdio-l1-1-0.dll',
   'BINARY'),
  ('python37.dll', 'd:\\python37\\python37.dll', 'BINARY'),
  ('ucrtbase.dll', 'C:\\Windows\\system32\\ucrtbase.dll', 'BINARY'),
  ('api-ms-win-crt-string-l1-1-0.dll',
   'C:\\Windows\\system32\\api-ms-win-crt-string-l1-1-0.dll',
   'BINARY'),
  ('api-ms-win-crt-convert-l1-1-0.dll',
   'C:\\Windows\\system32\\api-ms-win-crt-convert-l1-1-0.dll',
   'BINARY'),
  ('api-ms-win-crt-time-l1-1-0.dll',
   'C:\\Windows\\system32\\api-ms-win-crt-time-l1-1-0.dll',
   'BINARY'),
  ('api-ms-win-crt-filesystem-l1-1-0.dll',
   'C:\\Windows\\system32\\api-ms-win-crt-filesystem-l1-1-0.dll',
   'BINARY'),
  ('api-ms-win-crt-conio-l1-1-0.dll',
   'C:\\Windows\\system32\\api-ms-win-crt-conio-l1-1-0.dll',
   'BINARY'),
  ('api-ms-win-crt-environment-l1-1-0.dll',
   'C:\\Windows\\system32\\api-ms-win-crt-environment-l1-1-0.dll',
   'BINARY'),
  ('api-ms-win-crt-process-l1-1-0.dll',
   'C:\\Windows\\system32\\api-ms-win-crt-process-l1-1-0.dll',
   'BINARY'),
  ('api-ms-win-core-handle-l1-1-0.dll',
   'C:\\Windows\\system32\\api-ms-win-core-handle-l1-1-0.dll',
   'BINARY'),
  ('api-ms-win-core-heap-l1-1-0.dll',
   'C:\\Windows\\system32\\api-ms-win-core-heap-l1-1-0.dll',
   'BINARY'),
  ('api-ms-win-core-localization-l1-2-0.dll',
   'C:\\Windows\\system32\\api-ms-win-core-localization-l1-2-0.dll',
   'BINARY'),
  ('api-ms-win-core-synch-l1-2-0.dll',
   'C:\\Windows\\system32\\api-ms-win-core-synch-l1-2-0.dll',
   'BINARY'),
  ('api-ms-win-core-namedpipe-l1-1-0.dll',
   'C:\\Windows\\system32\\api-ms-win-core-namedpipe-l1-1-0.dll',
   'BINARY'),
  ('api-ms-win-core-processthreads-l1-1-0.dll',
   'C:\\Windows\\system32\\api-ms-win-core-processthreads-l1-1-0.dll',
   'BINARY'),
  ('api-ms-win-core-console-l1-1-0.dll',
   'C:\\Windows\\system32\\api-ms-win-core-console-l1-1-0.dll',
   'BINARY'),
  ('api-ms-win-core-file-l2-1-0.dll',
   'C:\\Windows\\system32\\api-ms-win-core-file-l2-1-0.dll',
   'BINARY'),
  ('api-ms-win-core-errorhandling-l1-1-0.dll',
   'C:\\Windows\\system32\\api-ms-win-core-errorhandling-l1-1-0.dll',
   'BINARY'),
  ('api-ms-win-core-datetime-l1-1-0.dll',
   'C:\\Windows\\system32\\api-ms-win-core-datetime-l1-1-0.dll',
   'BINARY'),
  ('api-ms-win-core-profile-l1-1-0.dll',
   'C:\\Windows\\system32\\api-ms-win-core-profile-l1-1-0.dll',
   'BINARY'),
  ('api-ms-win-core-debug-l1-1-0.dll',
   'C:\\Windows\\system32\\api-ms-win-core-debug-l1-1-0.dll',
   'BINARY'),
  ('api-ms-win-core-processenvironment-l1-1-0.dll',
   'C:\\Windows\\system32\\api-ms-win-core-processenvironment-l1-1-0.dll',
   'BINARY'),
  ('api-ms-win-core-synch-l1-1-0.dll',
   'C:\\Windows\\system32\\api-ms-win-core-synch-l1-1-0.dll',
   'BINARY'),
  ('api-ms-win-core-util-l1-1-0.dll',
   'C:\\Windows\\system32\\api-ms-win-core-util-l1-1-0.dll',
   'BINARY'),
  ('api-ms-win-core-libraryloader-l1-1-0.dll',
   'C:\\Windows\\system32\\api-ms-win-core-libraryloader-l1-1-0.dll',
   'BINARY'),
  ('api-ms-win-core-processthreads-l1-1-1.dll',
   'C:\\Windows\\system32\\api-ms-win-core-processthreads-l1-1-1.dll',
   'BINARY'),
  ('api-ms-win-core-rtlsupport-l1-1-0.dll',
   'C:\\Windows\\system32\\api-ms-win-core-rtlsupport-l1-1-0.dll',
   'BINARY'),
  ('api-ms-win-core-memory-l1-1-0.dll',
   'C:\\Windows\\system32\\api-ms-win-core-memory-l1-1-0.dll',
   'BINARY'),
  ('api-ms-win-core-file-l1-2-0.dll',
   'C:\\Windows\\system32\\api-ms-win-core-file-l1-2-0.dll',
   'BINARY'),
  ('api-ms-win-core-timezone-l1-1-0.dll',
   'C:\\Windows\\system32\\api-ms-win-core-timezone-l1-1-0.dll',
   'BINARY'),
  ('api-ms-win-core-string-l1-1-0.dll',
   'C:\\Windows\\system32\\api-ms-win-core-string-l1-1-0.dll',
   'BINARY'),
  ('api-ms-win-core-sysinfo-l1-1-0.dll',
   'C:\\Windows\\system32\\api-ms-win-core-sysinfo-l1-1-0.dll',
   'BINARY'),
  ('api-ms-win-core-interlocked-l1-1-0.dll',
   'C:\\Windows\\system32\\api-ms-win-core-interlocked-l1-1-0.dll',
   'BINARY'),
  ('api-ms-win-core-file-l1-1-0.dll',
   'C:\\Windows\\system32\\api-ms-win-core-file-l1-1-0.dll',
   'BINARY'),
  ('_socket', 'd:\\python37\\DLLs\\_socket.pyd', 'EXTENSION'),
  ('_lzma', 'd:\\python37\\DLLs\\_lzma.pyd', 'EXTENSION'),
  ('_bz2', 'd:\\python37\\DLLs\\_bz2.pyd', 'EXTENSION'),
  ('select', 'd:\\python37\\DLLs\\select.pyd', 'EXTENSION'),
  ('_ssl', 'd:\\python37\\DLLs\\_ssl.pyd', 'EXTENSION'),
  ('unicodedata', 'd:\\python37\\DLLs\\unicodedata.pyd', 'EXTENSION'),
  ('pyexpat', 'd:\\python37\\DLLs\\pyexpat.pyd', 'EXTENSION'),
  ('_hashlib', 'd:\\python37\\DLLs\\_hashlib.pyd', 'EXTENSION'),
  ('_decimal', 'd:\\python37\\DLLs\\_decimal.pyd', 'EXTENSION'),
  ('_cffi_backend',
   'd:\\python37\\lib\\site-packages\\_cffi_backend.cp37-win_amd64.pyd',
   'EXTENSION'),
  ('cryptography.hazmat.bindings._openssl',
   'd:\\python37\\lib\\site-packages\\cryptography\\hazmat\\bindings\\_openssl.pyd',
   'EXTENSION'),
  ('_tkinter', 'd:\\python37\\DLLs\\_tkinter.pyd', 'EXTENSION'),
  ('libcrypto-1_1.dll', 'd:\\python37\\DLLs\\libcrypto-1_1.dll', 'BINARY'),
  ('libssl-1_1.dll', 'd:\\python37\\DLLs\\libssl-1_1.dll', 'BINARY'),
  ('api-ms-win-crt-utility-l1-1-0.dll',
   'C:\\Windows\\system32\\api-ms-win-crt-utility-l1-1-0.dll',
   'BINARY'),
  ('python3.dll', 'd:\\python37\\python3.dll', 'BINARY'),
  ('tk86t.dll', 'd:\\python37\\DLLs\\tk86t.dll', 'BINARY'),
  ('tcl86t.dll', 'd:\\python37\\DLLs\\tcl86t.dll', 'BINARY'),
  ('base_library.zip',
   'D:\\Users\\Desktop\\JK_apkcheck\\build\\main_ui\\base_library.zip',
   'DATA'),
  ('tk\\ttk\\classicTheme.tcl',
   'd:\\python37\\tcl\\tk8.6\\ttk\\classicTheme.tcl',
   'DATA'),
  ('tcl\\tzdata\\Atlantic\\Canary',
   'd:\\python37\\tcl\\tcl8.6\\tzdata\\Atlantic\\Canary',
   'DATA'),
  ('tcl\\encoding\\iso8859-2.enc',
   'd:\\python37\\tcl\\tcl8.6\\encoding\\iso8859-2.enc',
   'DATA'),
  ('tk\\msgs\\cs.msg', 'd:\\python37\\tcl\\tk8.6\\msgs\\cs.msg', 'DATA'),
  ('tcl\\tzdata\\Asia\\Aden',
   'd:\\python37\\tcl\\tcl8.6\\tzdata\\Asia\\Aden',
   'DATA'),
  ('tk\\images\\README', 'd:\\python37\\tcl\\tk8.6\\images\\README', 'DATA'),
  ('tcl\\tzdata\\Pacific\\Fiji',
   'd:\\python37\\tcl\\tcl8.6\\tzdata\\Pacific\\Fiji',
   'DATA'),
  ('tcl\\tzdata\\America\\Mexico_City',
   'd:\\python37\\tcl\\tcl8.6\\tzdata\\America\\Mexico_City',
   'DATA'),
  ('tcl\\tzdata\\Africa\\Banjul',
   'd:\\python37\\tcl\\tcl8.6\\tzdata\\Africa\\Banjul',
   'DATA'),
  ('tcl\\msgs\\en_sg.msg',
   'd:\\python37\\tcl\\tcl8.6\\msgs\\en_sg.msg',
   'DATA'),
  ('tcl\\tzdata\\Etc\\UCT',
   'd:\\python37\\tcl\\tcl8.6\\tzdata\\Etc\\UCT',
   'DATA'),
  ('tcl\\tzdata\\America\\Guatemala',
   'd:\\python37\\tcl\\tcl8.6\\tzdata\\America\\Guatemala',
   'DATA'),
  ('tcl\\msgs\\sv.msg', 'd:\\python37\\tcl\\tcl8.6\\msgs\\sv.msg', 'DATA'),
  ('tcl\\tzdata\\Hongkong',
   'd:\\python37\\tcl\\tcl8.6\\tzdata\\Hongkong',
   'DATA'),
  ('tcl\\tzdata\\WET', 'd:\\python37\\tcl\\tcl8.6\\tzdata\\WET', 'DATA'),
  ('tcl\\msgs\\zh_cn.msg',
   'd:\\python37\\tcl\\tcl8.6\\msgs\\zh_cn.msg',
   'DATA'),
  ('tcl\\tzdata\\Europe\\Tallinn',
   'd:\\python37\\tcl\\tcl8.6\\tzdata\\Europe\\Tallinn',
   'DATA'),
  ('tcl\\tzdata\\America\\Toronto',
   'd:\\python37\\tcl\\tcl8.6\\tzdata\\America\\Toronto',
   'DATA'),
  ('tcl\\tzdata\\America\\Rio_Branco',
   'd:\\python37\\tcl\\tcl8.6\\tzdata\\America\\Rio_Branco',
   'DATA'),
  ('tk\\bgerror.tcl', 'd:\\python37\\tcl\\tk8.6\\bgerror.tcl', 'DATA'),
  ('tcl\\encoding\\iso2022-jp.enc',
   'd:\\python37\\tcl\\tcl8.6\\encoding\\iso2022-jp.enc',
   'DATA'),
  ('tk\\listbox.tcl', 'd:\\python37\\tcl\\tk8.6\\listbox.tcl', 'DATA'),
  ('tcl\\tzdata\\America\\Recife',
   'd:\\python37\\tcl\\tcl8.6\\tzdata\\America\\Recife',
   'DATA'),
  ('tcl\\tzdata\\Etc\\GMT-0',
   'd:\\python37\\tcl\\tcl8.6\\tzdata\\Etc\\GMT-0',
   'DATA'),
  ('tk\\tearoff.tcl', 'd:\\python37\\tcl\\tk8.6\\tearoff.tcl', 'DATA'),
  ('tcl\\tzdata\\Asia\\Jerusalem',
   'd:\\python37\\tcl\\tcl8.6\\tzdata\\Asia\\Jerusalem',
   'DATA'),
  ('tcl\\tzdata\\US\\East-Indiana',
   'd:\\python37\\tcl\\tcl8.6\\tzdata\\US\\East-Indiana',
   'DATA'),
  ('tcl\\msgs\\kok_in.msg',
   'd:\\python37\\tcl\\tcl8.6\\msgs\\kok_in.msg',
   'DATA'),
  ('tk\\safetk.tcl', 'd:\\python37\\tcl\\tk8.6\\safetk.tcl', 'DATA'),
  ('tcl\\tzdata\\Africa\\Lagos',
   'd:\\python37\\tcl\\tcl8.6\\tzdata\\Africa\\Lagos',
   'DATA'),
  ('tcl\\tzdata\\Asia\\Sakhalin',
   'd:\\python37\\tcl\\tcl8.6\\tzdata\\Asia\\Sakhalin',
   'DATA'),
  ('tcl\\tzdata\\Pacific\\Chatham',
   'd:\\python37\\tcl\\tcl8.6\\tzdata\\Pacific\\Chatham',
   'DATA'),
  ('tcl\\tzdata\\America\\Vancouver',
   'd:\\python37\\tcl\\tcl8.6\\tzdata\\America\\Vancouver',
   'DATA'),
  ('tcl\\tzdata\\Europe\\Sofia',
   'd:\\python37\\tcl\\tcl8.6\\tzdata\\Europe\\Sofia',
   'DATA'),
  ('tcl\\tzdata\\Asia\\Pontianak',
   'd:\\python37\\tcl\\tcl8.6\\tzdata\\Asia\\Pontianak',
   'DATA'),
  ('tcl\\tzdata\\Atlantic\\Bermuda',
   'd:\\python37\\tcl\\tcl8.6\\tzdata\\Atlantic\\Bermuda',
   'DATA'),
  ('tcl\\tzdata\\Asia\\Almaty',
   'd:\\python37\\tcl\\tcl8.6\\tzdata\\Asia\\Almaty',
   'DATA'),
  ('tcl\\tzdata\\Africa\\Ouagadougou',
   'd:\\python37\\tcl\\tcl8.6\\tzdata\\Africa\\Ouagadougou',
   'DATA'),
  ('tcl\\tzdata\\America\\Fort_Wayne',
   'd:\\python37\\tcl\\tcl8.6\\tzdata\\America\\Fort_Wayne',
   'DATA'),
  ('tcl\\tzdata\\Etc\\GMT-6',
   'd:\\python37\\tcl\\tcl8.6\\tzdata\\Etc\\GMT-6',
   'DATA'),
  ('tcl\\tzdata\\America\\Indiana\\Knox',
   'd:\\python37\\tcl\\tcl8.6\\tzdata\\America\\Indiana\\Knox',
   'DATA'),
  ('tcl\\tzdata\\Asia\\Chita',
   'd:\\python37\\tcl\\tcl8.6\\tzdata\\Asia\\Chita',
   'DATA'),
  ('tcl\\tzdata\\America\\St_Vincent',
   'd:\\python37\\tcl\\tcl8.6\\tzdata\\America\\St_Vincent',
   'DATA'),
  ('tcl\\tzdata\\Iceland',
   'd:\\python37\\tcl\\tcl8.6\\tzdata\\Iceland',
   'DATA'),
  ('tcl\\tzdata\\Asia\\Makassar',
   'd:\\python37\\tcl\\tcl8.6\\tzdata\\Asia\\Makassar',
   'DATA'),
  ('tcl\\msgs\\eu_es.msg',
   'd:\\python37\\tcl\\tcl8.6\\msgs\\eu_es.msg',
   'DATA'),
  ('tcl\\encoding\\big5.enc',
   'd:\\python37\\tcl\\tcl8.6\\encoding\\big5.enc',
   'DATA'),
  ('tk\\ttk\\entry.tcl', 'd:\\python37\\tcl\\tk8.6\\ttk\\entry.tcl', 'DATA'),
  ('tcl\\tzdata\\Pacific\\Guadalcanal',
   'd:\\python37\\tcl\\tcl8.6\\tzdata\\Pacific\\Guadalcanal',
   'DATA'),
  ('tcl\\msgs\\ga_ie.msg',
   'd:\\python37\\tcl\\tcl8.6\\msgs\\ga_ie.msg',
   'DATA'),
  ('tcl\\tzdata\\Australia\\Sydney',
   'd:\\python37\\tcl\\tcl8.6\\tzdata\\Australia\\Sydney',
   'DATA'),
  ('tcl\\tzdata\\Etc\\GMT+6',
   'd:\\python37\\tcl\\tcl8.6\\tzdata\\Etc\\GMT+6',
   'DATA'),
  ('tcl\\tzdata\\Europe\\Astrakhan',
   'd:\\python37\\tcl\\tcl8.6\\tzdata\\Europe\\Astrakhan',
   'DATA'),
  ('tk\\images\\pwrdLogo175.gif',
   'd:\\python37\\tcl\\tk8.6\\images\\pwrdLogo175.gif',
   'DATA'),
  ('tcl\\tzdata\\America\\Inuvik',
   'd:\\python37\\tcl\\tcl8.6\\tzdata\\America\\Inuvik',
   'DATA'),
  ('tcl\\msgs\\da.msg', 'd:\\python37\\tcl\\tcl8.6\\msgs\\da.msg', 'DATA'),
  ('tcl\\msgs\\uk.msg', 'd:\\python37\\tcl\\tcl8.6\\msgs\\uk.msg', 'DATA'),
  ('tcl\\tzdata\\America\\Ensenada',
   'd:\\python37\\tcl\\tcl8.6\\tzdata\\America\\Ensenada',
   'DATA'),
  ('tcl\\tzdata\\Asia\\Damascus',
   'd:\\python37\\tcl\\tcl8.6\\tzdata\\Asia\\Damascus',
   'DATA'),
  ('tcl\\encoding\\koi8-r.enc',
   'd:\\python37\\tcl\\tcl8.6\\encoding\\koi8-r.enc',
   'DATA'),
  ('tcl\\tzdata\\SystemV\\YST9',
   'd:\\python37\\tcl\\tcl8.6\\tzdata\\SystemV\\YST9',
   'DATA'),
  ('tcl\\encoding\\iso8859-4.enc',
   'd:\\python37\\tcl\\tcl8.6\\encoding\\iso8859-4.enc',
   'DATA'),
  ('tcl\\tzdata\\Africa\\Luanda',
   'd:\\python37\\tcl\\tcl8.6\\tzdata\\Africa\\Luanda',
   'DATA'),
  ('tcl\\tzdata\\Asia\\Krasnoyarsk',
   'd:\\python37\\tcl\\tcl8.6\\tzdata\\Asia\\Krasnoyarsk',
   'DATA'),
  ('tcl\\tzdata\\US\\Arizona',
   'd:\\python37\\tcl\\tcl8.6\\tzdata\\US\\Arizona',
   'DATA'),
  ('tcl\\tzdata\\Antarctica\\Mawson',
   'd:\\python37\\tcl\\tcl8.6\\tzdata\\Antarctica\\Mawson',
   'DATA'),
  ('tcl\\tzdata\\America\\Indianapolis',
   'd:\\python37\\tcl\\tcl8.6\\tzdata\\America\\Indianapolis',
   'DATA'),
  ('tcl\\word.tcl', 'd:\\python37\\tcl\\tcl8.6\\word.tcl', 'DATA'),
  ('tcl\\tzdata\\America\\Manaus',
   'd:\\python37\\tcl\\tcl8.6\\tzdata\\America\\Manaus',
   'DATA'),
  ('tcl\\tzdata\\America\\Montevideo',
   'd:\\python37\\tcl\\tcl8.6\\tzdata\\America\\Montevideo',
   'DATA'),
  ('tcl\\tzdata\\Africa\\Sao_Tome',
   'd:\\python37\\tcl\\tcl8.6\\tzdata\\Africa\\Sao_Tome',
   'DATA'),
  ('tcl\\http1.0\\pkgIndex.tcl',
   'd:\\python37\\tcl\\tcl8.6\\http1.0\\pkgIndex.tcl',
   'DATA'),
  ('tcl\\encoding\\cp775.enc',
   'd:\\python37\\tcl\\tcl8.6\\encoding\\cp775.enc',
   'DATA'),
  ('tcl\\encoding\\cp852.enc',
   'd:\\python37\\tcl\\tcl8.6\\encoding\\cp852.enc',
   'DATA'),
  ('tcl\\encoding\\cp874.enc',
   'd:\\python37\\tcl\\tcl8.6\\encoding\\cp874.enc',
   'DATA'),
  ('cryptography-3.3.1-py3.7.egg-info\\AUTHORS.rst',
   'd:\\python37\\lib\\site-packages\\cryptography-3.3.1.dist-info\\AUTHORS.rst',
   'DATA'),
  ('tcl\\tzdata\\Africa\\Kigali',
   'd:\\python37\\tcl\\tcl8.6\\tzdata\\Africa\\Kigali',
   'DATA'),
  ('tk\\images\\pwrdLogo.eps',
   'd:\\python37\\tcl\\tk8.6\\images\\pwrdLogo.eps',
   'DATA'),
  ('tcl\\encoding\\cp850.enc',
   'd:\\python37\\tcl\\tcl8.6\\encoding\\cp850.enc',
   'DATA'),
  ('tcl\\tzdata\\Africa\\Freetown',
   'd:\\python37\\tcl\\tcl8.6\\tzdata\\Africa\\Freetown',
   'DATA'),
  ('tcl\\msgs\\es_ve.msg',
   'd:\\python37\\tcl\\tcl8.6\\msgs\\es_ve.msg',
   'DATA'),
  ('tcl\\tzdata\\Atlantic\\South_Georgia',
   'd:\\python37\\tcl\\tcl8.6\\tzdata\\Atlantic\\South_Georgia',
   'DATA'),
  ('tcl\\tzdata\\Asia\\Yekaterinburg',
   'd:\\python37\\tcl\\tcl8.6\\tzdata\\Asia\\Yekaterinburg',
   'DATA'),
  ('tcl\\tzdata\\Asia\\Oral',
   'd:\\python37\\tcl\\tcl8.6\\tzdata\\Asia\\Oral',
   'DATA'),
  ('tcl\\msgs\\ca.msg', 'd:\\python37\\tcl\\tcl8.6\\msgs\\ca.msg', 'DATA'),
  ('tcl\\msgs\\kok.msg', 'd:\\python37\\tcl\\tcl8.6\\msgs\\kok.msg', 'DATA'),
  ('tk\\msgs\\da.msg', 'd:\\python37\\tcl\\tk8.6\\msgs\\da.msg', 'DATA'),
  ('tcl\\tzdata\\America\\Argentina\\Mendoza',
   'd:\\python37\\tcl\\tcl8.6\\tzdata\\America\\Argentina\\Mendoza',
   'DATA'),
  ('tcl\\tzdata\\US\\Pacific',
   'd:\\python37\\tcl\\tcl8.6\\tzdata\\US\\Pacific',
   'DATA'),
  ('tcl\\tzdata\\NZ', 'd:\\python37\\tcl\\tcl8.6\\tzdata\\NZ', 'DATA'),
  ('tcl\\tzdata\\SystemV\\MST7MDT',
   'd:\\python37\\tcl\\tcl8.6\\tzdata\\SystemV\\MST7MDT',
   'DATA'),
  ('tcl\\tzdata\\America\\Menominee',
   'd:\\python37\\tcl\\tcl8.6\\tzdata\\America\\Menominee',
   'DATA'),
  ('tcl\\tzdata\\America\\Indiana\\Tell_City',
   'd:\\python37\\tcl\\tcl8.6\\tzdata\\America\\Indiana\\Tell_City',
   'DATA'),
  ('tcl\\tzdata\\America\\Curacao',
   'd:\\python37\\tcl\\tcl8.6\\tzdata\\America\\Curacao',
   'DATA'),
  ('tcl\\msgs\\en_bw.msg',
   'd:\\python37\\tcl\\tcl8.6\\msgs\\en_bw.msg',
   'DATA'),
  ('tcl\\tzdata\\Africa\\Dar_es_Salaam',
   'd:\\python37\\tcl\\tcl8.6\\tzdata\\Africa\\Dar_es_Salaam',
   'DATA'),
  ('tk\\ttk\\progress.tcl',
   'd:\\python37\\tcl\\tk8.6\\ttk\\progress.tcl',
   'DATA'),
  ('tk\\images\\logo.eps',
   'd:\\python37\\tcl\\tk8.6\\images\\logo.eps',
   'DATA'),
  ('tcl\\tzdata\\America\\Buenos_Aires',
   'd:\\python37\\tcl\\tcl8.6\\tzdata\\America\\Buenos_Aires',
   'DATA'),
  ('tk\\images\\logo100.gif',
   'd:\\python37\\tcl\\tk8.6\\images\\logo100.gif',
   'DATA'),
  ('tcl\\tzdata\\Etc\\GMT-1',
   'd:\\python37\\tcl\\tcl8.6\\tzdata\\Etc\\GMT-1',
   'DATA'),
  ('tcl\\tzdata\\America\\Phoenix',
   'd:\\python37\\tcl\\tcl8.6\\tzdata\\America\\Phoenix',
   'DATA'),
  ('tcl\\tzdata\\Asia\\Dhaka',
   'd:\\python37\\tcl\\tcl8.6\\tzdata\\Asia\\Dhaka',
   'DATA'),
  ('tcl\\tzdata\\America\\Guadeloupe',
   'd:\\python37\\tcl\\tcl8.6\\tzdata\\America\\Guadeloupe',
   'DATA'),
  ('tk\\ttk\\utils.tcl', 'd:\\python37\\tcl\\tk8.6\\ttk\\utils.tcl', 'DATA'),
  ('tcl\\msgs\\es_cr.msg',
   'd:\\python37\\tcl\\tcl8.6\\msgs\\es_cr.msg',
   'DATA'),
  ('tcl\\tzdata\\Africa\\Cairo',
   'd:\\python37\\tcl\\tcl8.6\\tzdata\\Africa\\Cairo',
   'DATA'),
  ('tcl\\encoding\\iso8859-1.enc',
   'd:\\python37\\tcl\\tcl8.6\\encoding\\iso8859-1.enc',
   'DATA'),
  ('tcl\\encoding\\macJapan.enc',
   'd:\\python37\\tcl\\tcl8.6\\encoding\\macJapan.enc',
   'DATA'),
  ('tcl\\tzdata\\Antarctica\\Davis',
   'd:\\python37\\tcl\\tcl8.6\\tzdata\\Antarctica\\Davis',
   'DATA'),
  ('tk\\images\\logoLarge.gif',
   'd:\\python37\\tcl\\tk8.6\\images\\logoLarge.gif',
   'DATA'),
  ('tcl\\tzdata\\Pacific\\Bougainville',
   'd:\\python37\\tcl\\tcl8.6\\tzdata\\Pacific\\Bougainville',
   'DATA'),
  ('tcl\\tzdata\\Atlantic\\Jan_Mayen',
   'd:\\python37\\tcl\\tcl8.6\\tzdata\\Atlantic\\Jan_Mayen',
   'DATA'),
  ('tcl\\auto.tcl', 'd:\\python37\\tcl\\tcl8.6\\auto.tcl', 'DATA'),
  ('tcl\\tzdata\\Etc\\GMT-9',
   'd:\\python37\\tcl\\tcl8.6\\tzdata\\Etc\\GMT-9',
   'DATA'),
  ('tcl\\msgs\\es_co.msg',
   'd:\\python37\\tcl\\tcl8.6\\msgs\\es_co.msg',
   'DATA'),
  ('tk\\palette.tcl', 'd:\\python37\\tcl\\tk8.6\\palette.tcl', 'DATA'),
  ('tcl\\tzdata\\Egypt', 'd:\\python37\\tcl\\tcl8.6\\tzdata\\Egypt', 'DATA'),
  ('tcl\\tzdata\\Mexico\\BajaSur',
   'd:\\python37\\tcl\\tcl8.6\\tzdata\\Mexico\\BajaSur',
   'DATA'),
  ('tcl\\tzdata\\America\\Goose_Bay',
   'd:\\python37\\tcl\\tcl8.6\\tzdata\\America\\Goose_Bay',
   'DATA'),
  ('tcl\\tzdata\\Etc\\GMT+8',
   'd:\\python37\\tcl\\tcl8.6\\tzdata\\Etc\\GMT+8',
   'DATA'),
  ('tcl\\encoding\\symbol.enc',
   'd:\\python37\\tcl\\tcl8.6\\encoding\\symbol.enc',
   'DATA'),
  ('tcl\\tzdata\\America\\Cayenne',
   'd:\\python37\\tcl\\tcl8.6\\tzdata\\America\\Cayenne',
   'DATA'),
  ('tcl\\tzdata\\America\\Marigot',
   'd:\\python37\\tcl\\tcl8.6\\tzdata\\America\\Marigot',
   'DATA'),
  ('tcl\\tzdata\\America\\Eirunepe',
   'd:\\python37\\tcl\\tcl8.6\\tzdata\\America\\Eirunepe',
   'DATA'),
  ('tcl\\parray.tcl', 'd:\\python37\\tcl\\tcl8.6\\parray.tcl', 'DATA'),
  ('tcl\\tzdata\\Etc\\GMT+9',
   'd:\\python37\\tcl\\tcl8.6\\tzdata\\Etc\\GMT+9',
   'DATA'),
  ('tcl\\tzdata\\America\\Monterrey',
   'd:\\python37\\tcl\\tcl8.6\\tzdata\\America\\Monterrey',
   'DATA'),
  ('tcl\\tzdata\\Europe\\Ljubljana',
   'd:\\python37\\tcl\\tcl8.6\\tzdata\\Europe\\Ljubljana',
   'DATA'),
  ('tcl\\tzdata\\Libya', 'd:\\python37\\tcl\\tcl8.6\\tzdata\\Libya', 'DATA'),
  ('Include\\pyconfig.h', 'd:\\python37\\Include\\pyconfig.h', 'DATA'),
  ('tcl\\tzdata\\Europe\\Andorra',
   'd:\\python37\\tcl\\tcl8.6\\tzdata\\Europe\\Andorra',
   'DATA'),
  ('tcl\\tzdata\\Africa\\Blantyre',
   'd:\\python37\\tcl\\tcl8.6\\tzdata\\Africa\\Blantyre',
   'DATA'),
  ('tcl\\tzdata\\US\\Hawaii',
   'd:\\python37\\tcl\\tcl8.6\\tzdata\\US\\Hawaii',
   'DATA'),
  ('tcl\\tclIndex', 'd:\\python37\\tcl\\tcl8.6\\tclIndex', 'DATA'),
  ('tcl\\tzdata\\America\\Boise',
   'd:\\python37\\tcl\\tcl8.6\\tzdata\\America\\Boise',
   'DATA'),
  ('tcl\\tzdata\\Africa\\Accra',
   'd:\\python37\\tcl\\tcl8.6\\tzdata\\Africa\\Accra',
   'DATA'),
  ('tcl\\msgs\\nl.msg', 'd:\\python37\\tcl\\tcl8.6\\msgs\\nl.msg', 'DATA'),
  ('tcl\\tzdata\\America\\Antigua',
   'd:\\python37\\tcl\\tcl8.6\\tzdata\\America\\Antigua',
   'DATA'),
  ('tk\\images\\logo64.gif',
   'd:\\python37\\tcl\\tk8.6\\images\\logo64.gif',
   'DATA'),
  ('tcl\\tzdata\\Pacific\\Tahiti',
   'd:\\python37\\tcl\\tcl8.6\\tzdata\\Pacific\\Tahiti',
   'DATA'),
  ('tcl\\tzdata\\Brazil\\Acre',
   'd:\\python37\\tcl\\tcl8.6\\tzdata\\Brazil\\Acre',
   'DATA'),
  ('tcl\\msgs\\sl.msg', 'd:\\python37\\tcl\\tcl8.6\\msgs\\sl.msg', 'DATA'),
  ('tcl\\tzdata\\America\\North_Dakota\\New_Salem',
   'd:\\python37\\tcl\\tcl8.6\\tzdata\\America\\North_Dakota\\New_Salem',
   'DATA'),
  ('tcl\\tzdata\\Europe\\Mariehamn',
   'd:\\python37\\tcl\\tcl8.6\\tzdata\\Europe\\Mariehamn',
   'DATA'),
  ('tk\\unsupported.tcl', 'd:\\python37\\tcl\\tk8.6\\unsupported.tcl', 'DATA'),
  ('tcl\\tzdata\\Etc\\GMT+0',
   'd:\\python37\\tcl\\tcl8.6\\tzdata\\Etc\\GMT+0',
   'DATA'),
  ('tcl\\tzdata\\Etc\\GMT-13',
   'd:\\python37\\tcl\\tcl8.6\\tzdata\\Etc\\GMT-13',
   'DATA'),
  ('tcl\\tzdata\\Jamaica',
   'd:\\python37\\tcl\\tcl8.6\\tzdata\\Jamaica',
   'DATA'),
  ('tcl\\tzdata\\Etc\\GMT+11',
   'd:\\python37\\tcl\\tcl8.6\\tzdata\\Etc\\GMT+11',
   'DATA'),
  ('tcl\\tzdata\\Africa\\Juba',
   'd:\\python37\\tcl\\tcl8.6\\tzdata\\Africa\\Juba',
   'DATA'),
  ('tcl\\tzdata\\Pacific\\Midway',
   'd:\\python37\\tcl\\tcl8.6\\tzdata\\Pacific\\Midway',
   'DATA'),
  ('tcl\\tzdata\\Etc\\GMT+10',
   'd:\\python37\\tcl\\tcl8.6\\tzdata\\Etc\\GMT+10',
   'DATA'),
  ('tcl\\tzdata\\Brazil\\West',
   'd:\\python37\\tcl\\tcl8.6\\tzdata\\Brazil\\West',
   'DATA'),
  ('tcl\\encoding\\cp865.enc',
   'd:\\python37\\tcl\\tcl8.6\\encoding\\cp865.enc',
   'DATA'),
  ('tk\\msgs\\el.msg', 'd:\\python37\\tcl\\tk8.6\\msgs\\el.msg', 'DATA'),
  ('tcl\\tzdata\\Pacific\\Yap',
   'd:\\python37\\tcl\\tcl8.6\\tzdata\\Pacific\\Yap',
   'DATA'),
  ('tcl\\tzdata\\Pacific\\Wallis',
   'd:\\python37\\tcl\\tcl8.6\\tzdata\\Pacific\\Wallis',
   'DATA'),
  ('tcl\\tzdata\\Africa\\Bamako',
   'd:\\python37\\tcl\\tcl8.6\\tzdata\\Africa\\Bamako',
   'DATA'),
  ('tcl\\tzdata\\America\\Regina',
   'd:\\python37\\tcl\\tcl8.6\\tzdata\\America\\Regina',
   'DATA'),
  ('tcl\\opt0.4\\optparse.tcl',
   'd:\\python37\\tcl\\tcl8.6\\opt0.4\\optparse.tcl',
   'DATA'),
  ('tcl\\tzdata\\US\\Indiana-Starke',
   'd:\\python37\\tcl\\tcl8.6\\tzdata\\US\\Indiana-Starke',
   'DATA'),
  ('tcl\\tzdata\\America\\North_Dakota\\Beulah',
   'd:\\python37\\tcl\\tcl8.6\\tzdata\\America\\North_Dakota\\Beulah',
   'DATA'),
  ('tcl\\tzdata\\Africa\\Dakar',
   'd:\\python37\\tcl\\tcl8.6\\tzdata\\Africa\\Dakar',
   'DATA'),
  ('tcl\\tzdata\\America\\Merida',
   'd:\\python37\\tcl\\tcl8.6\\tzdata\\America\\Merida',
   'DATA'),
  ('tcl\\msgs\\ms_my.msg',
   'd:\\python37\\tcl\\tcl8.6\\msgs\\ms_my.msg',
   'DATA'),
  ('tk\\tk.tcl', 'd:\\python37\\tcl\\tk8.6\\tk.tcl', 'DATA'),
  ('tcl\\tzdata\\America\\Matamoros',
   'd:\\python37\\tcl\\tcl8.6\\tzdata\\America\\Matamoros',
   'DATA'),
  ('tcl\\tzdata\\Asia\\Yangon',
   'd:\\python37\\tcl\\tcl8.6\\tzdata\\Asia\\Yangon',
   'DATA'),
  ('tcl\\tzdata\\Poland', 'd:\\python37\\tcl\\tcl8.6\\tzdata\\Poland', 'DATA'),
  ('cryptography-3.3.1-py3.7.egg-info\\LICENSE.APACHE',
   'd:\\python37\\lib\\site-packages\\cryptography-3.3.1.dist-info\\LICENSE.APACHE',
   'DATA'),
  ('tcl\\encoding\\macDingbats.enc',
   'd:\\python37\\tcl\\tcl8.6\\encoding\\macDingbats.enc',
   'DATA'),
  ('tk\\msgbox.tcl', 'd:\\python37\\tcl\\tk8.6\\msgbox.tcl', 'DATA'),
  ('tcl\\tzdata\\Europe\\Tiraspol',
   'd:\\python37\\tcl\\tcl8.6\\tzdata\\Europe\\Tiraspol',
   'DATA'),
  ('tcl\\tzdata\\Pacific\\Honolulu',
   'd:\\python37\\tcl\\tcl8.6\\tzdata\\Pacific\\Honolulu',
   'DATA'),
  ('tcl\\tzdata\\America\\Iqaluit',
   'd:\\python37\\tcl\\tcl8.6\\tzdata\\America\\Iqaluit',
   'DATA'),
  ('tcl\\encoding\\gb12345.enc',
   'd:\\python37\\tcl\\tcl8.6\\encoding\\gb12345.enc',
   'DATA'),
  ('tcl\\tzdata\\America\\Aruba',
   'd:\\python37\\tcl\\tcl8.6\\tzdata\\America\\Aruba',
   'DATA'),
  ('tcl\\tzdata\\America\\Cambridge_Bay',
   'd:\\python37\\tcl\\tcl8.6\\tzdata\\America\\Cambridge_Bay',
   'DATA'),
  ('tcl\\tzdata\\America\\Porto_Acre',
   'd:\\python37\\tcl\\tcl8.6\\tzdata\\America\\Porto_Acre',
   'DATA'),
  ('tcl\\msgs\\gv.msg', 'd:\\python37\\tcl\\tcl8.6\\msgs\\gv.msg', 'DATA'),
  ('tcl\\tzdata\\Europe\\Simferopol',
   'd:\\python37\\tcl\\tcl8.6\\tzdata\\Europe\\Simferopol',
   'DATA'),
  ('tcl\\tzdata\\Europe\\Berlin',
   'd:\\python37\\tcl\\tcl8.6\\tzdata\\Europe\\Berlin',
   'DATA'),
  ('tcl\\encoding\\iso2022-kr.enc',
   'd:\\python37\\tcl\\tcl8.6\\encoding\\iso2022-kr.enc',
   'DATA'),
  ('tcl\\tzdata\\Atlantic\\Azores',
   'd:\\python37\\tcl\\tcl8.6\\tzdata\\Atlantic\\Azores',
   'DATA'),
  ('tcl\\tzdata\\America\\Indiana\\Indianapolis',
   'd:\\python37\\tcl\\tcl8.6\\tzdata\\America\\Indiana\\Indianapolis',
   'DATA'),
  ('tk\\images\\pwrdLogo100.gif',
   'd:\\python37\\tcl\\tk8.6\\images\\pwrdLogo100.gif',
   'DATA'),
  ('tcl\\tzdata\\America\\Tijuana',
   'd:\\python37\\tcl\\tcl8.6\\tzdata\\America\\Tijuana',
   'DATA'),
  ('tcl\\tzdata\\Asia\\Irkutsk',
   'd:\\python37\\tcl\\tcl8.6\\tzdata\\Asia\\Irkutsk',
   'DATA'),
  ('tcl\\tzdata\\Israel', 'd:\\python37\\tcl\\tcl8.6\\tzdata\\Israel', 'DATA'),
  ('tcl\\tzdata\\Asia\\Atyrau',
   'd:\\python37\\tcl\\tcl8.6\\tzdata\\Asia\\Atyrau',
   'DATA'),
  ('tcl\\tzdata\\America\\Argentina\\San_Luis',
   'd:\\python37\\tcl\\tcl8.6\\tzdata\\America\\Argentina\\San_Luis',
   'DATA'),
  ('tcl\\tzdata\\Etc\\GMT-8',
   'd:\\python37\\tcl\\tcl8.6\\tzdata\\Etc\\GMT-8',
   'DATA'),
  ('tcl\\tzdata\\Asia\\Famagusta',
   'd:\\python37\\tcl\\tcl8.6\\tzdata\\Asia\\Famagusta',
   'DATA'),
  ('tk\\ttk\\altTheme.tcl',
   'd:\\python37\\tcl\\tk8.6\\ttk\\altTheme.tcl',
   'DATA'),
  ('tcl\\tzdata\\Europe\\Guernsey',
   'd:\\python37\\tcl\\tcl8.6\\tzdata\\Europe\\Guernsey',
   'DATA'),
  ('tcl\\tzdata\\Africa\\Khartoum',
   'd:\\python37\\tcl\\tcl8.6\\tzdata\\Africa\\Khartoum',
   'DATA'),
  ('tcl\\tzdata\\America\\Argentina\\La_Rioja',
   'd:\\python37\\tcl\\tcl8.6\\tzdata\\America\\Argentina\\La_Rioja',
   'DATA'),
  ('tcl\\msgs\\zh_tw.msg',
   'd:\\python37\\tcl\\tcl8.6\\msgs\\zh_tw.msg',
   'DATA'),
  ('tcl\\tzdata\\America\\Maceio',
   'd:\\python37\\tcl\\tcl8.6\\tzdata\\America\\Maceio',
   'DATA'),
  ('tcl\\msgs\\en_nz.msg',
   'd:\\python37\\tcl\\tcl8.6\\msgs\\en_nz.msg',
   'DATA'),
  ('tcl\\tzdata\\Europe\\Zagreb',
   'd:\\python37\\tcl\\tcl8.6\\tzdata\\Europe\\Zagreb',
   'DATA'),
  ('tcl\\tzdata\\America\\St_Thomas',
   'd:\\python37\\tcl\\tcl8.6\\tzdata\\America\\St_Thomas',
   'DATA'),
  ('tcl\\msgs\\kw_gb.msg',
   'd:\\python37\\tcl\\tcl8.6\\msgs\\kw_gb.msg',
   'DATA'),
  ('tcl\\encoding\\iso2022.enc',
   'd:\\python37\\tcl\\tcl8.6\\encoding\\iso2022.enc',
   'DATA'),
  ('tk\\msgs\\pt.msg', 'd:\\python37\\tcl\\tk8.6\\msgs\\pt.msg', 'DATA'),
  ('tcl\\tzdata\\Asia\\Chungking',
   'd:\\python37\\tcl\\tcl8.6\\tzdata\\Asia\\Chungking',
   'DATA'),
  ('tcl\\tzdata\\Africa\\Windhoek',
   'd:\\python37\\tcl\\tcl8.6\\tzdata\\Africa\\Windhoek',
   'DATA'),
  ('tcl\\msgs\\zh_sg.msg',
   'd:\\python37\\tcl\\tcl8.6\\msgs\\zh_sg.msg',
   'DATA'),
  ('tcl\\msgs\\en_be.msg',
   'd:\\python37\\tcl\\tcl8.6\\msgs\\en_be.msg',
   'DATA'),
  ('tk\\ttk\\menubutton.tcl',
   'd:\\python37\\tcl\\tk8.6\\ttk\\menubutton.tcl',
   'DATA'),
  ('tcl\\msgs\\ko.msg', 'd:\\python37\\tcl\\tcl8.6\\msgs\\ko.msg', 'DATA'),
  ('tcl\\msgs\\es_pr.msg',
   'd:\\python37\\tcl\\tcl8.6\\msgs\\es_pr.msg',
   'DATA'),
  ('tcl\\tzdata\\Africa\\Tunis',
   'd:\\python37\\tcl\\tcl8.6\\tzdata\\Africa\\Tunis',
   'DATA'),
  ('tcl\\tzdata\\Africa\\El_Aaiun',
   'd:\\python37\\tcl\\tcl8.6\\tzdata\\Africa\\El_Aaiun',
   'DATA'),
  ('tk\\entry.tcl', 'd:\\python37\\tcl\\tk8.6\\entry.tcl', 'DATA'),
  ('tcl\\tzdata\\Etc\\UTC',
   'd:\\python37\\tcl\\tcl8.6\\tzdata\\Etc\\UTC',
   'DATA'),
  ('tcl\\tzdata\\Asia\\Beirut',
   'd:\\python37\\tcl\\tcl8.6\\tzdata\\Asia\\Beirut',
   'DATA'),
  ('tcl\\msgs\\en_ph.msg',
   'd:\\python37\\tcl\\tcl8.6\\msgs\\en_ph.msg',
   'DATA'),
  ('tcl\\tzdata\\Asia\\Thimphu',
   'd:\\python37\\tcl\\tcl8.6\\tzdata\\Asia\\Thimphu',
   'DATA'),
  ('tcl\\tzdata\\America\\Yellowknife',
   'd:\\python37\\tcl\\tcl8.6\\tzdata\\America\\Yellowknife',
   'DATA'),
  ('tcl\\msgs\\sw.msg', 'd:\\python37\\tcl\\tcl8.6\\msgs\\sw.msg', 'DATA'),
  ('tcl\\tzdata\\SystemV\\AST4ADT',
   'd:\\python37\\tcl\\tcl8.6\\tzdata\\SystemV\\AST4ADT',
   'DATA'),
  ('tcl\\tzdata\\America\\Nipigon',
   'd:\\python37\\tcl\\tcl8.6\\tzdata\\America\\Nipigon',
   'DATA'),
  ('tcl\\tzdata\\America\\Shiprock',
   'd:\\python37\\tcl\\tcl8.6\\tzdata\\America\\Shiprock',
   'DATA'),
  ('tcl\\tzdata\\Asia\\Tehran',
   'd:\\python37\\tcl\\tcl8.6\\tzdata\\Asia\\Tehran',
   'DATA'),
  ('tcl\\tzdata\\Atlantic\\Faeroe',
   'd:\\python37\\tcl\\tcl8.6\\tzdata\\Atlantic\\Faeroe',
   'DATA'),
  ('tcl\\tzdata\\Europe\\Kirov',
   'd:\\python37\\tcl\\tcl8.6\\tzdata\\Europe\\Kirov',
   'DATA'),
  ('tcl\\tzdata\\Indian\\Kerguelen',
   'd:\\python37\\tcl\\tcl8.6\\tzdata\\Indian\\Kerguelen',
   'DATA'),
  ('tcl\\tzdata\\America\\Chicago',
   'd:\\python37\\tcl\\tcl8.6\\tzdata\\America\\Chicago',
   'DATA'),
  ('tcl\\msgs\\gl_es.msg',
   'd:\\python37\\tcl\\tcl8.6\\msgs\\gl_es.msg',
   'DATA'),
  ('tcl\\tzdata\\Europe\\Busingen',
   'd:\\python37\\tcl\\tcl8.6\\tzdata\\Europe\\Busingen',
   'DATA'),
  ('tcl\\tzdata\\America\\Jamaica',
   'd:\\python37\\tcl\\tcl8.6\\tzdata\\America\\Jamaica',
   'DATA'),
  ('tcl\\tzdata\\Australia\\Queensland',
   'd:\\python37\\tcl\\tcl8.6\\tzdata\\Australia\\Queensland',
   'DATA'),
  ('tk\\choosedir.tcl', 'd:\\python37\\tcl\\tk8.6\\choosedir.tcl', 'DATA'),
  ('tcl\\tzdata\\Australia\\Brisbane',
   'd:\\python37\\tcl\\tcl8.6\\tzdata\\Australia\\Brisbane',
   'DATA'),
  ('tcl\\tzdata\\Africa\\Bissau',
   'd:\\python37\\tcl\\tcl8.6\\tzdata\\Africa\\Bissau',
   'DATA'),
  ('tcl\\tzdata\\Asia\\Aqtobe',
   'd:\\python37\\tcl\\tcl8.6\\tzdata\\Asia\\Aqtobe',
   'DATA'),
  ('tcl\\tzdata\\Europe\\Kiev',
   'd:\\python37\\tcl\\tcl8.6\\tzdata\\Europe\\Kiev',
   'DATA'),
  ('tcl\\tzdata\\Pacific\\Wake',
   'd:\\python37\\tcl\\tcl8.6\\tzdata\\Pacific\\Wake',
   'DATA'),
  ('tcl\\tzdata\\Antarctica\\Rothera',
   'd:\\python37\\tcl\\tcl8.6\\tzdata\\Antarctica\\Rothera',
   'DATA'),
  ('tcl\\msgs\\fo.msg', 'd:\\python37\\tcl\\tcl8.6\\msgs\\fo.msg', 'DATA'),
  ('tcl\\msgs\\es_ni.msg',
   'd:\\python37\\tcl\\tcl8.6\\msgs\\es_ni.msg',
   'DATA'),
  ('tk\\obsolete.tcl', 'd:\\python37\\tcl\\tk8.6\\obsolete.tcl', 'DATA'),
  ('tcl\\tzdata\\Asia\\Hovd',
   'd:\\python37\\tcl\\tcl8.6\\tzdata\\Asia\\Hovd',
   'DATA'),
  ('tcl\\tzdata\\Etc\\GMT-11',
   'd:\\python37\\tcl\\tcl8.6\\tzdata\\Etc\\GMT-11',
   'DATA'),
  ('tcl\\msgs\\hr.msg', 'd:\\python37\\tcl\\tcl8.6\\msgs\\hr.msg', 'DATA'),
  ('tk\\ttk\\button.tcl', 'd:\\python37\\tcl\\tk8.6\\ttk\\button.tcl', 'DATA'),
  ('tcl\\tzdata\\Africa\\Abidjan',
   'd:\\python37\\tcl\\tcl8.6\\tzdata\\Africa\\Abidjan',
   'DATA'),
  ('tcl\\tzdata\\GMT+0', 'd:\\python37\\tcl\\tcl8.6\\tzdata\\GMT+0', 'DATA'),
  ('tcl\\msgs\\en_ie.msg',
   'd:\\python37\\tcl\\tcl8.6\\msgs\\en_ie.msg',
   'DATA'),
  ('tcl\\tzdata\\America\\Glace_Bay',
   'd:\\python37\\tcl\\tcl8.6\\tzdata\\America\\Glace_Bay',
   'DATA'),
  ('tcl\\encoding\\iso8859-15.enc',
   'd:\\python37\\tcl\\tcl8.6\\encoding\\iso8859-15.enc',
   'DATA'),
  ('tcl\\tzdata\\US\\Central',
   'd:\\python37\\tcl\\tcl8.6\\tzdata\\US\\Central',
   'DATA'),
  ('tcl\\tzdata\\America\\El_Salvador',
   'd:\\python37\\tcl\\tcl8.6\\tzdata\\America\\El_Salvador',
   'DATA'),
  ('tk\\ttk\\scale.tcl', 'd:\\python37\\tcl\\tk8.6\\ttk\\scale.tcl', 'DATA'),
  ('tcl\\tzdata\\America\\Montserrat',
   'd:\\python37\\tcl\\tcl8.6\\tzdata\\America\\Montserrat',
   'DATA'),
  ('tcl\\tzdata\\ROC', 'd:\\python37\\tcl\\tcl8.6\\tzdata\\ROC', 'DATA'),
  ('tcl\\msgs\\hi.msg', 'd:\\python37\\tcl\\tcl8.6\\msgs\\hi.msg', 'DATA'),
  ('tcl\\tzdata\\Africa\\Brazzaville',
   'd:\\python37\\tcl\\tcl8.6\\tzdata\\Africa\\Brazzaville',
   'DATA'),
  ('tcl\\tzdata\\America\\Araguaina',
   'd:\\python37\\tcl\\tcl8.6\\tzdata\\America\\Araguaina',
   'DATA'),
  ('tcl\\tzdata\\America\\Rainy_River',
   'd:\\python37\\tcl\\tcl8.6\\tzdata\\America\\Rainy_River',
   'DATA'),
  ('tk\\images\\pwrdLogo150.gif',
   'd:\\python37\\tcl\\tk8.6\\images\\pwrdLogo150.gif',
   'DATA'),
  ('tcl\\tzdata\\Europe\\Paris',
   'd:\\python37\\tcl\\tcl8.6\\tzdata\\Europe\\Paris',
   'DATA'),
  ('tcl\\msgs\\fa_in.msg',
   'd:\\python37\\tcl\\tcl8.6\\msgs\\fa_in.msg',
   'DATA'),
  ('tcl\\msgs\\th.msg', 'd:\\python37\\tcl\\tcl8.6\\msgs\\th.msg', 'DATA'),
  ('tk\\focus.tcl', 'd:\\python37\\tcl\\tk8.6\\focus.tcl', 'DATA'),
  ('tcl\\msgs\\hu.msg', 'd:\\python37\\tcl\\tcl8.6\\msgs\\hu.msg', 'DATA'),
  ('tcl\\tzdata\\Brazil\\East',
   'd:\\python37\\tcl\\tcl8.6\\tzdata\\Brazil\\East',
   'DATA'),
  ('cryptography-3.3.1-py3.7.egg-info\\METADATA',
   'd:\\python37\\lib\\site-packages\\cryptography-3.3.1.dist-info\\METADATA',
   'DATA'),
  ('tcl\\tzdata\\PRC', 'd:\\python37\\tcl\\tcl8.6\\tzdata\\PRC', 'DATA'),
  ('tcl\\tzdata\\Europe\\Chisinau',
   'd:\\python37\\tcl\\tcl8.6\\tzdata\\Europe\\Chisinau',
   'DATA'),
  ('tcl\\tzdata\\America\\Cayman',
   'd:\\python37\\tcl\\tcl8.6\\tzdata\\America\\Cayman',
   'DATA'),
  ('tcl\\tzdata\\Asia\\Kuala_Lumpur',
   'd:\\python37\\tcl\\tcl8.6\\tzdata\\Asia\\Kuala_Lumpur',
   'DATA'),
  ('tcl\\tzdata\\America\\Argentina\\ComodRivadavia',
   'd:\\python37\\tcl\\tcl8.6\\tzdata\\America\\Argentina\\ComodRivadavia',
   'DATA'),
  ('tcl\\msgs\\tr.msg', 'd:\\python37\\tcl\\tcl8.6\\msgs\\tr.msg', 'DATA'),
  ('tcl\\tzdata\\Europe\\Skopje',
   'd:\\python37\\tcl\\tcl8.6\\tzdata\\Europe\\Skopje',
   'DATA'),
  ('tcl\\tzdata\\Atlantic\\Stanley',
   'd:\\python37\\tcl\\tcl8.6\\tzdata\\Atlantic\\Stanley',
   'DATA'),
  ('tcl\\tzdata\\America\\Argentina\\Salta',
   'd:\\python37\\tcl\\tcl8.6\\tzdata\\America\\Argentina\\Salta',
   'DATA'),
  ('tcl\\tzdata\\Asia\\Karachi',
   'd:\\python37\\tcl\\tcl8.6\\tzdata\\Asia\\Karachi',
   'DATA'),
  ('tcl\\tzdata\\Africa\\Asmara',
   'd:\\python37\\tcl\\tcl8.6\\tzdata\\Africa\\Asmara',
   'DATA'),
  ('tcl\\tzdata\\Antarctica\\Palmer',
   'd:\\python37\\tcl\\tcl8.6\\tzdata\\Antarctica\\Palmer',
   'DATA'),
  ('tcl\\tzdata\\America\\Anchorage',
   'd:\\python37\\tcl\\tcl8.6\\tzdata\\America\\Anchorage',
   'DATA'),
  ('tcl\\tzdata\\America\\Lower_Princes',
   'd:\\python37\\tcl\\tcl8.6\\tzdata\\America\\Lower_Princes',
   'DATA'),
  ('tcl\\tzdata\\Asia\\Ust-Nera',
   'd:\\python37\\tcl\\tcl8.6\\tzdata\\Asia\\Ust-Nera',
   'DATA'),
  ('tcl\\tzdata\\America\\Metlakatla',
   'd:\\python37\\tcl\\tcl8.6\\tzdata\\America\\Metlakatla',
   'DATA'),
  ('tcl\\tzdata\\MST', 'd:\\python37\\tcl\\tcl8.6\\tzdata\\MST', 'DATA'),
  ('tcl\\tzdata\\America\\Belem',
   'd:\\python37\\tcl\\tcl8.6\\tzdata\\America\\Belem',
   'DATA'),
  ('tcl\\tzdata\\America\\Sao_Paulo',
   'd:\\python37\\tcl\\tcl8.6\\tzdata\\America\\Sao_Paulo',
   'DATA'),
  ('tcl\\msgs\\ja.msg', 'd:\\python37\\tcl\\tcl8.6\\msgs\\ja.msg', 'DATA'),
  ('tcl\\tzdata\\America\\Havana',
   'd:\\python37\\tcl\\tcl8.6\\tzdata\\America\\Havana',
   'DATA'),
  ('tcl\\msgs\\nl_be.msg',
   'd:\\python37\\tcl\\tcl8.6\\msgs\\nl_be.msg',
   'DATA'),
  ('tcl\\encoding\\cp1258.enc',
   'd:\\python37\\tcl\\tcl8.6\\encoding\\cp1258.enc',
   'DATA'),
  ('tcl\\tzdata\\Europe\\Vatican',
   'd:\\python37\\tcl\\tcl8.6\\tzdata\\Europe\\Vatican',
   'DATA'),
  ('tcl\\tzdata\\Asia\\Yerevan',
   'd:\\python37\\tcl\\tcl8.6\\tzdata\\Asia\\Yerevan',
   'DATA'),
  ('tk\\iconlist.tcl', 'd:\\python37\\tcl\\tk8.6\\iconlist.tcl', 'DATA'),
  ('tcl\\tzdata\\America\\Dominica',
   'd:\\python37\\tcl\\tcl8.6\\tzdata\\America\\Dominica',
   'DATA'),
  ('tcl\\tzdata\\Africa\\Harare',
   'd:\\python37\\tcl\\tcl8.6\\tzdata\\Africa\\Harare',
   'DATA'),
  ('tcl\\tzdata\\America\\Argentina\\Jujuy',
   'd:\\python37\\tcl\\tcl8.6\\tzdata\\America\\Argentina\\Jujuy',
   'DATA'),
  ('tk\\ttk\\winTheme.tcl',
   'd:\\python37\\tcl\\tk8.6\\ttk\\winTheme.tcl',
   'DATA'),
  ('tcl\\tzdata\\Antarctica\\South_Pole',
   'd:\\python37\\tcl\\tcl8.6\\tzdata\\Antarctica\\South_Pole',
   'DATA'),
  ('tcl\\tzdata\\Asia\\Yakutsk',
   'd:\\python37\\tcl\\tcl8.6\\tzdata\\Asia\\Yakutsk',
   'DATA'),
  ('tk\\ttk\\cursors.tcl',
   'd:\\python37\\tcl\\tk8.6\\ttk\\cursors.tcl',
   'DATA'),
  ('tcl\\msgs\\en_in.msg',
   'd:\\python37\\tcl\\tcl8.6\\msgs\\en_in.msg',
   'DATA'),
  ('tcl\\encoding\\cp863.enc',
   'd:\\python37\\tcl\\tcl8.6\\encoding\\cp863.enc',
   'DATA'),
  ('tcl\\tzdata\\Etc\\GMT+2',
   'd:\\python37\\tcl\\tcl8.6\\tzdata\\Etc\\GMT+2',
   'DATA'),
  ('tcl\\tzdata\\America\\Costa_Rica',
   'd:\\python37\\tcl\\tcl8.6\\tzdata\\America\\Costa_Rica',
   'DATA'),
  ('tcl\\tzdata\\Asia\\Ashgabat',
   'd:\\python37\\tcl\\tcl8.6\\tzdata\\Asia\\Ashgabat',
   'DATA'),
  ('tcl\\msgs\\eo.msg', 'd:\\python37\\tcl\\tcl8.6\\msgs\\eo.msg', 'DATA'),
  ('tcl\\msgs\\pt_br.msg',
   'd:\\python37\\tcl\\tcl8.6\\msgs\\pt_br.msg',
   'DATA'),
  ('tk\\ttk\\vistaTheme.tcl',
   'd:\\python37\\tcl\\tk8.6\\ttk\\vistaTheme.tcl',
   'DATA'),
  ('tcl\\tzdata\\America\\Dawson',
   'd:\\python37\\tcl\\tcl8.6\\tzdata\\America\\Dawson',
   'DATA'),
  ('tcl\\msgs\\sh.msg', 'd:\\python37\\tcl\\tcl8.6\\msgs\\sh.msg', 'DATA'),
  ('tk\\msgs\\hu.msg', 'd:\\python37\\tcl\\tk8.6\\msgs\\hu.msg', 'DATA'),
  ('tcl\\tzdata\\Pacific\\Funafuti',
   'd:\\python37\\tcl\\tcl8.6\\tzdata\\Pacific\\Funafuti',
   'DATA'),
  ('tk\\ttk\\xpTheme.tcl',
   'd:\\python37\\tcl\\tk8.6\\ttk\\xpTheme.tcl',
   'DATA'),
  ('tcl\\tzdata\\Asia\\Amman',
   'd:\\python37\\tcl\\tcl8.6\\tzdata\\Asia\\Amman',
   'DATA'),
  ('tcl\\tzdata\\Australia\\Melbourne',
   'd:\\python37\\tcl\\tcl8.6\\tzdata\\Australia\\Melbourne',
   'DATA'),
  ('tcl\\tzdata\\America\\Guayaquil',
   'd:\\python37\\tcl\\tcl8.6\\tzdata\\America\\Guayaquil',
   'DATA'),
  ('tcl\\tzdata\\Australia\\ACT',
   'd:\\python37\\tcl\\tcl8.6\\tzdata\\Australia\\ACT',
   'DATA'),
  ('tcl\\msgs\\en_zw.msg',
   'd:\\python37\\tcl\\tcl8.6\\msgs\\en_zw.msg',
   'DATA'),
  ('tcl\\tzdata\\America\\Hermosillo',
   'd:\\python37\\tcl\\tcl8.6\\tzdata\\America\\Hermosillo',
   'DATA'),
  ('tcl\\encoding\\cp1255.enc',
   'd:\\python37\\tcl\\tcl8.6\\encoding\\cp1255.enc',
   'DATA'),
  ('tcl\\tzdata\\Asia\\Hebron',
   'd:\\python37\\tcl\\tcl8.6\\tzdata\\Asia\\Hebron',
   'DATA'),
  ('tcl\\tzdata\\Etc\\GMT+5',
   'd:\\python37\\tcl\\tcl8.6\\tzdata\\Etc\\GMT+5',
   'DATA'),
  ('tcl\\tzdata\\Europe\\Jersey',
   'd:\\python37\\tcl\\tcl8.6\\tzdata\\Europe\\Jersey',
   'DATA'),
  ('tcl\\tzdata\\Iran', 'd:\\python37\\tcl\\tcl8.6\\tzdata\\Iran', 'DATA'),
  ('tcl\\tzdata\\Europe\\Gibraltar',
   'd:\\python37\\tcl\\tcl8.6\\tzdata\\Europe\\Gibraltar',
   'DATA'),
  ('tcl\\tzdata\\Antarctica\\McMurdo',
   'd:\\python37\\tcl\\tcl8.6\\tzdata\\Antarctica\\McMurdo',
   'DATA'),
  ('tcl\\tzdata\\SystemV\\EST5',
   'd:\\python37\\tcl\\tcl8.6\\tzdata\\SystemV\\EST5',
   'DATA'),
  ('tcl\\encoding\\macCroatian.enc',
   'd:\\python37\\tcl\\tcl8.6\\encoding\\macCroatian.enc',
   'DATA'),
  ('tcl\\tzdata\\Etc\\GMT-3',
   'd:\\python37\\tcl\\tcl8.6\\tzdata\\Etc\\GMT-3',
   'DATA'),
  ('tcl\\tzdata\\America\\Creston',
   'd:\\python37\\tcl\\tcl8.6\\tzdata\\America\\Creston',
   'DATA'),
  ('tcl\\tzdata\\Pacific\\Kwajalein',
   'd:\\python37\\tcl\\tcl8.6\\tzdata\\Pacific\\Kwajalein',
   'DATA'),
  ('tcl\\tzdata\\Asia\\Dushanbe',
   'd:\\python37\\tcl\\tcl8.6\\tzdata\\Asia\\Dushanbe',
   'DATA'),
  ('tk\\panedwindow.tcl', 'd:\\python37\\tcl\\tk8.6\\panedwindow.tcl', 'DATA'),
  ('tcl\\tzdata\\America\\Kentucky\\Monticello',
   'd:\\python37\\tcl\\tcl8.6\\tzdata\\America\\Kentucky\\Monticello',
   'DATA'),
  ('tcl\\tzdata\\Canada\\Central',
   'd:\\python37\\tcl\\tcl8.6\\tzdata\\Canada\\Central',
   'DATA'),
  ('tcl\\msgs\\es_ar.msg',
   'd:\\python37\\tcl\\tcl8.6\\msgs\\es_ar.msg',
   'DATA'),
  ('tk\\megawidget.tcl', 'd:\\python37\\tcl\\tk8.6\\megawidget.tcl', 'DATA'),
  ('tcl\\tzdata\\Europe\\Oslo',
   'd:\\python37\\tcl\\tcl8.6\\tzdata\\Europe\\Oslo',
   'DATA'),
  ('tcl\\tzdata\\Pacific\\Johnston',
   'd:\\python37\\tcl\\tcl8.6\\tzdata\\Pacific\\Johnston',
   'DATA'),
  ('tcl\\tzdata\\Australia\\Yancowinna',
   'd:\\python37\\tcl\\tcl8.6\\tzdata\\Australia\\Yancowinna',
   'DATA'),
  ('tcl\\tzdata\\Asia\\Dili',
   'd:\\python37\\tcl\\tcl8.6\\tzdata\\Asia\\Dili',
   'DATA'),
  ('tcl\\tzdata\\America\\Pangnirtung',
   'd:\\python37\\tcl\\tcl8.6\\tzdata\\America\\Pangnirtung',
   'DATA'),
  ('tcl\\msgs\\bg.msg', 'd:\\python37\\tcl\\tcl8.6\\msgs\\bg.msg', 'DATA'),
  ('tcl\\tzdata\\America\\Argentina\\Cordoba',
   'd:\\python37\\tcl\\tcl8.6\\tzdata\\America\\Argentina\\Cordoba',
   'DATA'),
  ('tcl\\tzdata\\Pacific\\Noumea',
   'd:\\python37\\tcl\\tcl8.6\\tzdata\\Pacific\\Noumea',
   'DATA'),
  ('tcl\\tzdata\\Asia\\Shanghai',
   'd:\\python37\\tcl\\tcl8.6\\tzdata\\Asia\\Shanghai',
   'DATA'),
  ('tcl\\tzdata\\Australia\\Adelaide',
   'd:\\python37\\tcl\\tcl8.6\\tzdata\\Australia\\Adelaide',
   'DATA'),
  ('tcl\\tzdata\\Asia\\Novokuznetsk',
   'd:\\python37\\tcl\\tcl8.6\\tzdata\\Asia\\Novokuznetsk',
   'DATA'),
  ('tcl\\tzdata\\Asia\\Istanbul',
   'd:\\python37\\tcl\\tcl8.6\\tzdata\\Asia\\Istanbul',
   'DATA'),
  ('tcl\\tzdata\\America\\Argentina\\Ushuaia',
   'd:\\python37\\tcl\\tcl8.6\\tzdata\\America\\Argentina\\Ushuaia',
   'DATA'),
  ('tcl\\tzdata\\America\\Santo_Domingo',
   'd:\\python37\\tcl\\tcl8.6\\tzdata\\America\\Santo_Domingo',
   'DATA'),
  ('tcl\\encoding\\cp861.enc',
   'd:\\python37\\tcl\\tcl8.6\\encoding\\cp861.enc',
   'DATA'),
  ('tcl\\tzdata\\Indian\\Chagos',
   'd:\\python37\\tcl\\tcl8.6\\tzdata\\Indian\\Chagos',
   'DATA'),
  ('tcl\\package.tcl', 'd:\\python37\\tcl\\tcl8.6\\package.tcl', 'DATA'),
  ('tcl\\encoding\\iso8859-16.enc',
   'd:\\python37\\tcl\\tcl8.6\\encoding\\iso8859-16.enc',
   'DATA'),
  ('tcl\\encoding\\iso8859-5.enc',
   'd:\\python37\\tcl\\tcl8.6\\encoding\\iso8859-5.enc',
   'DATA'),
  ('tcl\\tzdata\\Antarctica\\DumontDUrville',
   'd:\\python37\\tcl\\tcl8.6\\tzdata\\Antarctica\\DumontDUrville',
   'DATA'),
  ('tcl\\tzdata\\America\\Miquelon',
   'd:\\python37\\tcl\\tcl8.6\\tzdata\\America\\Miquelon',
   'DATA'),
  ('tcl\\tzdata\\Pacific\\Marquesas',
   'd:\\python37\\tcl\\tcl8.6\\tzdata\\Pacific\\Marquesas',
   'DATA'),
  ('tcl\\tzdata\\America\\Barbados',
   'd:\\python37\\tcl\\tcl8.6\\tzdata\\America\\Barbados',
   'DATA'),
  ('tk\\msgs\\pl.msg', 'd:\\python37\\tcl\\tk8.6\\msgs\\pl.msg', 'DATA'),
  ('tcl\\tzdata\\Etc\\GMT+12',
   'd:\\python37\\tcl\\tcl8.6\\tzdata\\Etc\\GMT+12',
   'DATA'),
  ('tcl\\tzdata\\Etc\\GMT+1',
   'd:\\python37\\tcl\\tcl8.6\\tzdata\\Etc\\GMT+1',
   'DATA'),
  ('tcl\\msgs\\de.msg', 'd:\\python37\\tcl\\tcl8.6\\msgs\\de.msg', 'DATA'),
  ('tcl\\encoding\\shiftjis.enc',
   'd:\\python37\\tcl\\tcl8.6\\encoding\\shiftjis.enc',
   'DATA'),
  ('tcl\\tzdata\\America\\Rankin_Inlet',
   'd:\\python37\\tcl\\tcl8.6\\tzdata\\America\\Rankin_Inlet',
   'DATA'),
  ('tcl\\encoding\\cp1257.enc',
   'd:\\python37\\tcl\\tcl8.6\\encoding\\cp1257.enc',
   'DATA'),
  ('tcl\\tzdata\\Antarctica\\Casey',
   'd:\\python37\\tcl\\tcl8.6\\tzdata\\Antarctica\\Casey',
   'DATA'),
  ('tcl\\msgs\\es_sv.msg',
   'd:\\python37\\tcl\\tcl8.6\\msgs\\es_sv.msg',
   'DATA'),
  ('tcl\\tzdata\\Etc\\GMT0',
   'd:\\python37\\tcl\\tcl8.6\\tzdata\\Etc\\GMT0',
   'DATA'),
  ('tcl\\encoding\\gb2312-raw.enc',
   'd:\\python37\\tcl\\tcl8.6\\encoding\\gb2312-raw.enc',
   'DATA'),
  ('tcl\\msgs\\es_mx.msg',
   'd:\\python37\\tcl\\tcl8.6\\msgs\\es_mx.msg',
   'DATA'),
  ('tcl\\msgs\\te_in.msg',
   'd:\\python37\\tcl\\tcl8.6\\msgs\\te_in.msg',
   'DATA'),
  ('tcl\\tzdata\\MST7MDT',
   'd:\\python37\\tcl\\tcl8.6\\tzdata\\MST7MDT',
   'DATA'),
  ('tcl\\encoding\\ascii.enc',
   'd:\\python37\\tcl\\tcl8.6\\encoding\\ascii.enc',
   'DATA'),
  ('tcl\\tzdata\\US\\Aleutian',
   'd:\\python37\\tcl\\tcl8.6\\tzdata\\US\\Aleutian',
   'DATA'),
  ('tcl\\tzdata\\Africa\\Timbuktu',
   'd:\\python37\\tcl\\tcl8.6\\tzdata\\Africa\\Timbuktu',
   'DATA'),
  ('tcl\\tzdata\\Pacific\\Galapagos',
   'd:\\python37\\tcl\\tcl8.6\\tzdata\\Pacific\\Galapagos',
   'DATA'),
  ('tcl\\tzdata\\America\\Godthab',
   'd:\\python37\\tcl\\tcl8.6\\tzdata\\America\\Godthab',
   'DATA'),
  ('tcl\\tzdata\\America\\Indiana\\Vevay',
   'd:\\python37\\tcl\\tcl8.6\\tzdata\\America\\Indiana\\Vevay',
   'DATA'),
  ('tcl\\tzdata\\Canada\\Pacific',
   'd:\\python37\\tcl\\tcl8.6\\tzdata\\Canada\\Pacific',
   'DATA'),
  ('tcl\\tzdata\\Asia\\Saigon',
   'd:\\python37\\tcl\\tcl8.6\\tzdata\\Asia\\Saigon',
   'DATA'),
  ('tcl\\tzdata\\Etc\\GMT-2',
   'd:\\python37\\tcl\\tcl8.6\\tzdata\\Etc\\GMT-2',
   'DATA'),
  ('tcl\\tzdata\\Universal',
   'd:\\python37\\tcl\\tcl8.6\\tzdata\\Universal',
   'DATA'),
  ('tcl\\tzdata\\America\\Grand_Turk',
   'd:\\python37\\tcl\\tcl8.6\\tzdata\\America\\Grand_Turk',
   'DATA'),
  ('tcl\\encoding\\jis0212.enc',
   'd:\\python37\\tcl\\tcl8.6\\encoding\\jis0212.enc',
   'DATA'),
  ('tcl\\encoding\\koi8-u.enc',
   'd:\\python37\\tcl\\tcl8.6\\encoding\\koi8-u.enc',
   'DATA'),
  ('tcl\\tzdata\\Europe\\Volgograd',
   'd:\\python37\\tcl\\tcl8.6\\tzdata\\Europe\\Volgograd',
   'DATA'),
  ('tcl\\tzdata\\Pacific\\Chuuk',
   'd:\\python37\\tcl\\tcl8.6\\tzdata\\Pacific\\Chuuk',
   'DATA'),
  ('tcl\\msgs\\es_hn.msg',
   'd:\\python37\\tcl\\tcl8.6\\msgs\\es_hn.msg',
   'DATA'),
  ('tcl\\tzdata\\Etc\\GMT-12',
   'd:\\python37\\tcl\\tcl8.6\\tzdata\\Etc\\GMT-12',
   'DATA'),
  ('tcl\\tzdata\\EET', 'd:\\python37\\tcl\\tcl8.6\\tzdata\\EET', 'DATA'),
  ('tcl\\tzdata\\SystemV\\MST7',
   'd:\\python37\\tcl\\tcl8.6\\tzdata\\SystemV\\MST7',
   'DATA'),
  ('tcl\\tzdata\\Canada\\Saskatchewan',
   'd:\\python37\\tcl\\tcl8.6\\tzdata\\Canada\\Saskatchewan',
   'DATA'),
  ('tcl\\tzdata\\Pacific\\Pago_Pago',
   'd:\\python37\\tcl\\tcl8.6\\tzdata\\Pacific\\Pago_Pago',
   'DATA'),
  ('tcl\\tzdata\\Pacific\\Rarotonga',
   'd:\\python37\\tcl\\tcl8.6\\tzdata\\Pacific\\Rarotonga',
   'DATA'),
  ('tcl\\tzdata\\Asia\\Kamchatka',
   'd:\\python37\\tcl\\tcl8.6\\tzdata\\Asia\\Kamchatka',
   'DATA'),
  ('tcl\\msgs\\eu.msg', 'd:\\python37\\tcl\\tcl8.6\\msgs\\eu.msg', 'DATA'),
  ('tcl\\tzdata\\Europe\\Sarajevo',
   'd:\\python37\\tcl\\tcl8.6\\tzdata\\Europe\\Sarajevo',
   'DATA'),
  ('tcl\\tzdata\\MET', 'd:\\python37\\tcl\\tcl8.6\\tzdata\\MET', 'DATA'),
  ('tk\\msgs\\sv.msg', 'd:\\python37\\tcl\\tk8.6\\msgs\\sv.msg', 'DATA'),
  ('tcl\\tzdata\\Asia\\Kathmandu',
   'd:\\python37\\tcl\\tcl8.6\\tzdata\\Asia\\Kathmandu',
   'DATA'),
  ('tcl\\tzdata\\GB-Eire',
   'd:\\python37\\tcl\\tcl8.6\\tzdata\\GB-Eire',
   'DATA'),
  ('tcl\\msgs\\vi.msg', 'd:\\python37\\tcl\\tcl8.6\\msgs\\vi.msg', 'DATA'),
  ('tk\\ttk\\ttk.tcl', 'd:\\python37\\tcl\\tk8.6\\ttk\\ttk.tcl', 'DATA'),
  ('tcl\\tzdata\\Asia\\Choibalsan',
   'd:\\python37\\tcl\\tcl8.6\\tzdata\\Asia\\Choibalsan',
   'DATA'),
  ('tcl\\tzdata\\Pacific\\Easter',
   'd:\\python37\\tcl\\tcl8.6\\tzdata\\Pacific\\Easter',
   'DATA'),
  ('tk\\msgs\\fr.msg', 'd:\\python37\\tcl\\tk8.6\\msgs\\fr.msg', 'DATA'),
  ('tcl\\tzdata\\Zulu', 'd:\\python37\\tcl\\tcl8.6\\tzdata\\Zulu', 'DATA'),
  ('tcl\\tzdata\\UCT', 'd:\\python37\\tcl\\tcl8.6\\tzdata\\UCT', 'DATA'),
  ('tcl\\tzdata\\Asia\\Anadyr',
   'd:\\python37\\tcl\\tcl8.6\\tzdata\\Asia\\Anadyr',
   'DATA'),
  ('tcl\\msgs\\te.msg', 'd:\\python37\\tcl\\tcl8.6\\msgs\\te.msg', 'DATA'),
  ('tcl\\tzdata\\Atlantic\\Cape_Verde',
   'd:\\python37\\tcl\\tcl8.6\\tzdata\\Atlantic\\Cape_Verde',
   'DATA'),
  ('tcl\\encoding\\dingbats.enc',
   'd:\\python37\\tcl\\tcl8.6\\encoding\\dingbats.enc',
   'DATA'),
  ('tcl\\tzdata\\SystemV\\PST8PDT',
   'd:\\python37\\tcl\\tcl8.6\\tzdata\\SystemV\\PST8PDT',
   'DATA'),
  ('tcl\\tzdata\\SystemV\\AST4',
   'd:\\python37\\tcl\\tcl8.6\\tzdata\\SystemV\\AST4',
   'DATA'),
  ('tcl\\msgs\\es_bo.msg',
   'd:\\python37\\tcl\\tcl8.6\\msgs\\es_bo.msg',
   'DATA'),
  ('tcl\\tzdata\\America\\Indiana\\Winamac',
   'd:\\python37\\tcl\\tcl8.6\\tzdata\\America\\Indiana\\Winamac',
   'DATA'),
  ('tcl\\tzdata\\Europe\\Kaliningrad',
   'd:\\python37\\tcl\\tcl8.6\\tzdata\\Europe\\Kaliningrad',
   'DATA'),
  ('tcl\\tzdata\\America\\Argentina\\Tucuman',
   'd:\\python37\\tcl\\tcl8.6\\tzdata\\America\\Argentina\\Tucuman',
   'DATA'),
  ('tk\\scrlbar.tcl', 'd:\\python37\\tcl\\tk8.6\\scrlbar.tcl', 'DATA'),
  ('tcl\\tzdata\\Indian\\Mahe',
   'd:\\python37\\tcl\\tcl8.6\\tzdata\\Indian\\Mahe',
   'DATA'),
  ('tcl\\tzdata\\Europe\\Tirane',
   'd:\\python37\\tcl\\tcl8.6\\tzdata\\Europe\\Tirane',
   'DATA'),
  ('tcl\\encoding\\iso8859-3.enc',
   'd:\\python37\\tcl\\tcl8.6\\encoding\\iso8859-3.enc',
   'DATA'),
  ('tcl\\tzdata\\Etc\\GMT-10',
   'd:\\python37\\tcl\\tcl8.6\\tzdata\\Etc\\GMT-10',
   'DATA'),
  ('tcl\\encoding\\cp1250.enc',
   'd:\\python37\\tcl\\tcl8.6\\encoding\\cp1250.enc',
   'DATA'),
  ('tcl\\tzdata\\Asia\\Tomsk',
   'd:\\python37\\tcl\\tcl8.6\\tzdata\\Asia\\Tomsk',
   'DATA'),
  ('tcl\\tzdata\\Canada\\Newfoundland',
   'd:\\python37\\tcl\\tcl8.6\\tzdata\\Canada\\Newfoundland',
   'DATA'),
  ('tcl\\tzdata\\America\\Kralendijk',
   'd:\\python37\\tcl\\tcl8.6\\tzdata\\America\\Kralendijk',
   'DATA'),
  ('tcl\\tzdata\\America\\Winnipeg',
   'd:\\python37\\tcl\\tcl8.6\\tzdata\\America\\Winnipeg',
   'DATA'),
  ('tcl\\tzdata\\Etc\\GMT-7',
   'd:\\python37\\tcl\\tcl8.6\\tzdata\\Etc\\GMT-7',
   'DATA'),
  ('tcl\\encoding\\cp737.enc',
   'd:\\python37\\tcl\\tcl8.6\\encoding\\cp737.enc',
   'DATA'),
  ('tcl\\msgs\\fa.msg', 'd:\\python37\\tcl\\tcl8.6\\msgs\\fa.msg', 'DATA'),
  ('tcl\\tzdata\\Pacific\\Niue',
   'd:\\python37\\tcl\\tcl8.6\\tzdata\\Pacific\\Niue',
   'DATA'),
  ('tk\\msgs\\en_gb.msg', 'd:\\python37\\tcl\\tk8.6\\msgs\\en_gb.msg', 'DATA'),
  ('tcl\\tzdata\\America\\Edmonton',
   'd:\\python37\\tcl\\tcl8.6\\tzdata\\America\\Edmonton',
   'DATA'),
  ('tcl\\tzdata\\Europe\\Warsaw',
   'd:\\python37\\tcl\\tcl8.6\\tzdata\\Europe\\Warsaw',
   'DATA'),
  ('tcl\\tzdata\\Asia\\Calcutta',
   'd:\\python37\\tcl\\tcl8.6\\tzdata\\Asia\\Calcutta',
   'DATA'),
  ('tcl\\tzdata\\Asia\\Bahrain',
   'd:\\python37\\tcl\\tcl8.6\\tzdata\\Asia\\Bahrain',
   'DATA'),
  ('tcl\\msgs\\mr.msg', 'd:\\python37\\tcl\\tcl8.6\\msgs\\mr.msg', 'DATA'),
  ('tcl\\encoding\\cp869.enc',
   'd:\\python37\\tcl\\tcl8.6\\encoding\\cp869.enc',
   'DATA'),
  ('tcl\\tzdata\\America\\Nome',
   'd:\\python37\\tcl\\tcl8.6\\tzdata\\America\\Nome',
   'DATA'),
  ('tcl\\tzdata\\Europe\\Stockholm',
   'd:\\python37\\tcl\\tcl8.6\\tzdata\\Europe\\Stockholm',
   'DATA'),
  ('tcl\\tzdata\\America\\Porto_Velho',
   'd:\\python37\\tcl\\tcl8.6\\tzdata\\America\\Porto_Velho',
   'DATA'),
  ('tcl\\tzdata\\Africa\\Kinshasa',
   'd:\\python37\\tcl\\tcl8.6\\tzdata\\Africa\\Kinshasa',
   'DATA'),
  ('tcl\\encoding\\iso8859-10.enc',
   'd:\\python37\\tcl\\tcl8.6\\encoding\\iso8859-10.enc',
   'DATA'),
  ('tcl\\tzdata\\Asia\\Jayapura',
   'd:\\python37\\tcl\\tcl8.6\\tzdata\\Asia\\Jayapura',
   'DATA'),
  ('tcl\\tzdata\\Asia\\Ulaanbaatar',
   'd:\\python37\\tcl\\tcl8.6\\tzdata\\Asia\\Ulaanbaatar',
   'DATA'),
  ('tcl\\tzdata\\Pacific\\Majuro',
   'd:\\python37\\tcl\\tcl8.6\\tzdata\\Pacific\\Majuro',
   'DATA'),
  ('tcl\\tzdata\\Australia\\Currie',
   'd:\\python37\\tcl\\tcl8.6\\tzdata\\Australia\\Currie',
   'DATA'),
  ('tcl\\tzdata\\Europe\\Vilnius',
   'd:\\python37\\tcl\\tcl8.6\\tzdata\\Europe\\Vilnius',
   'DATA'),
  ('tcl\\encoding\\cp932.enc',
   'd:\\python37\\tcl\\tcl8.6\\encoding\\cp932.enc',
   'DATA'),
  ('tcl\\msgs\\pl.msg', 'd:\\python37\\tcl\\tcl8.6\\msgs\\pl.msg', 'DATA'),
  ('tcl\\msgs\\ar_in.msg',
   'd:\\python37\\tcl\\tcl8.6\\msgs\\ar_in.msg',
   'DATA'),
  ('tcl\\tzdata\\Asia\\Thimbu',
   'd:\\python37\\tcl\\tcl8.6\\tzdata\\Asia\\Thimbu',
   'DATA'),
  ('tk\\images\\pwrdLogo75.gif',
   'd:\\python37\\tcl\\tk8.6\\images\\pwrdLogo75.gif',
   'DATA'),
  ('tcl\\tzdata\\Australia\\Broken_Hill',
   'd:\\python37\\tcl\\tcl8.6\\tzdata\\Australia\\Broken_Hill',
   'DATA'),
  ('tcl\\tzdata\\Pacific\\Palau',
   'd:\\python37\\tcl\\tcl8.6\\tzdata\\Pacific\\Palau',
   'DATA'),
  ('tk\\ttk\\sizegrip.tcl',
   'd:\\python37\\tcl\\tk8.6\\ttk\\sizegrip.tcl',
   'DATA'),
  ('tcl\\tzdata\\America\\Coral_Harbour',
   'd:\\python37\\tcl\\tcl8.6\\tzdata\\America\\Coral_Harbour',
   'DATA'),
  ('tcl\\tzdata\\Antarctica\\Macquarie',
   'd:\\python37\\tcl\\tcl8.6\\tzdata\\Antarctica\\Macquarie',
   'DATA'),
  ('tcl\\tzdata\\Pacific\\Guam',
   'd:\\python37\\tcl\\tcl8.6\\tzdata\\Pacific\\Guam',
   'DATA'),
  ('tcl\\tzdata\\Etc\\Universal',
   'd:\\python37\\tcl\\tcl8.6\\tzdata\\Etc\\Universal',
   'DATA'),
  ('tcl\\msgs\\kw.msg', 'd:\\python37\\tcl\\tcl8.6\\msgs\\kw.msg', 'DATA'),
  ('tk\\msgs\\ru.msg', 'd:\\python37\\tcl\\tk8.6\\msgs\\ru.msg', 'DATA'),
  ('tcl\\msgs\\it_ch.msg',
   'd:\\python37\\tcl\\tcl8.6\\msgs\\it_ch.msg',
   'DATA'),
  ('tk\\clrpick.tcl', 'd:\\python37\\tcl\\tk8.6\\clrpick.tcl', 'DATA'),
  ('tcl\\msgs\\en_gb.msg',
   'd:\\python37\\tcl\\tcl8.6\\msgs\\en_gb.msg',
   'DATA'),
  ('tcl\\tzdata\\America\\Louisville',
   'd:\\python37\\tcl\\tcl8.6\\tzdata\\America\\Louisville',
   'DATA'),
  ('tcl\\tzdata\\GMT0', 'd:\\python37\\tcl\\tcl8.6\\tzdata\\GMT0', 'DATA'),
  ('tcl\\encoding\\macThai.enc',
   'd:\\python37\\tcl\\tcl8.6\\encoding\\macThai.enc',
   'DATA'),
  ('tcl\\tzdata\\Asia\\Jakarta',
   'd:\\python37\\tcl\\tcl8.6\\tzdata\\Asia\\Jakarta',
   'DATA'),
  ('tcl\\msgs\\kl_gl.msg',
   'd:\\python37\\tcl\\tcl8.6\\msgs\\kl_gl.msg',
   'DATA'),
  ('tcl\\msgs\\sk.msg', 'd:\\python37\\tcl\\tcl8.6\\msgs\\sk.msg', 'DATA'),
  ('tcl\\encoding\\iso8859-13.enc',
   'd:\\python37\\tcl\\tcl8.6\\encoding\\iso8859-13.enc',
   'DATA'),
  ('tcl\\tzdata\\W-SU', 'd:\\python37\\tcl\\tcl8.6\\tzdata\\W-SU', 'DATA'),
  ('tcl\\tzdata\\CST6CDT',
   'd:\\python37\\tcl\\tcl8.6\\tzdata\\CST6CDT',
   'DATA'),
  ('tcl\\msgs\\nn.msg', 'd:\\python37\\tcl\\tcl8.6\\msgs\\nn.msg', 'DATA'),
  ('tcl\\tzdata\\US\\Eastern',
   'd:\\python37\\tcl\\tcl8.6\\tzdata\\US\\Eastern',
   'DATA'),
  ('tcl\\encoding\\cp857.enc',
   'd:\\python37\\tcl\\tcl8.6\\encoding\\cp857.enc',
   'DATA'),
  ('tcl\\tzdata\\America\\Caracas',
   'd:\\python37\\tcl\\tcl8.6\\tzdata\\America\\Caracas',
   'DATA'),
  ('tk\\tclIndex', 'd:\\python37\\tcl\\tk8.6\\tclIndex', 'DATA'),
  ('tcl\\msgs\\pt.msg', 'd:\\python37\\tcl\\tcl8.6\\msgs\\pt.msg', 'DATA'),
  ('tcl\\tzdata\\America\\Fort_Nelson',
   'd:\\python37\\tcl\\tcl8.6\\tzdata\\America\\Fort_Nelson',
   'DATA'),
  ('tcl\\tzdata\\Europe\\Podgorica',
   'd:\\python37\\tcl\\tcl8.6\\tzdata\\Europe\\Podgorica',
   'DATA'),
  ('tcl\\tzdata\\Africa\\Porto-Novo',
   'd:\\python37\\tcl\\tcl8.6\\tzdata\\Africa\\Porto-Novo',
   'DATA'),
  ('tcl\\tzdata\\America\\Blanc-Sablon',
   'd:\\python37\\tcl\\tcl8.6\\tzdata\\America\\Blanc-Sablon',
   'DATA'),
  ('tcl\\msgs\\hi_in.msg',
   'd:\\python37\\tcl\\tcl8.6\\msgs\\hi_in.msg',
   'DATA'),
  ('tcl\\tzdata\\Etc\\Zulu',
   'd:\\python37\\tcl\\tcl8.6\\tzdata\\Etc\\Zulu',
   'DATA'),
  ('tcl\\tzdata\\Europe\\Samara',
   'd:\\python37\\tcl\\tcl8.6\\tzdata\\Europe\\Samara',
   'DATA'),
  ('tcl\\msgs\\sq.msg', 'd:\\python37\\tcl\\tcl8.6\\msgs\\sq.msg', 'DATA'),
  ('tcl\\msgs\\fi.msg', 'd:\\python37\\tcl\\tcl8.6\\msgs\\fi.msg', 'DATA'),
  ('tcl\\encoding\\gb1988.enc',
   'd:\\python37\\tcl\\tcl8.6\\encoding\\gb1988.enc',
   'DATA'),
  ('tk\\license.terms', 'd:\\python37\\tcl\\tk8.6\\license.terms', 'DATA'),
  ('tcl\\tzdata\\SystemV\\CST6',
   'd:\\python37\\tcl\\tcl8.6\\tzdata\\SystemV\\CST6',
   'DATA'),
  ('tk\\ttk\\clamTheme.tcl',
   'd:\\python37\\tcl\\tk8.6\\ttk\\clamTheme.tcl',
   'DATA'),
  ('tcl\\tzdata\\Australia\\Eucla',
   'd:\\python37\\tcl\\tcl8.6\\tzdata\\Australia\\Eucla',
   'DATA'),
  ('tcl\\tzdata\\Pacific\\Fakaofo',
   'd:\\python37\\tcl\\tcl8.6\\tzdata\\Pacific\\Fakaofo',
   'DATA'),
  ('tcl\\tzdata\\Atlantic\\Reykjavik',
   'd:\\python37\\tcl\\tcl8.6\\tzdata\\Atlantic\\Reykjavik',
   'DATA'),
  ('tcl\\tzdata\\America\\Whitehorse',
   'd:\\python37\\tcl\\tcl8.6\\tzdata\\America\\Whitehorse',
   'DATA'),
  ('tcl\\tzdata\\Europe\\Nicosia',
   'd:\\python37\\tcl\\tcl8.6\\tzdata\\Europe\\Nicosia',
   'DATA'),
  ('tcl\\tzdata\\America\\Managua',
   'd:\\python37\\tcl\\tcl8.6\\tzdata\\America\\Managua',
   'DATA'),
  ('tcl\\tzdata\\Pacific\\Gambier',
   'd:\\python37\\tcl\\tcl8.6\\tzdata\\Pacific\\Gambier',
   'DATA'),
  ('tk\\optMenu.tcl', 'd:\\python37\\tcl\\tk8.6\\optMenu.tcl', 'DATA'),
  ('tcl\\tzdata\\America\\Noronha',
   'd:\\python37\\tcl\\tcl8.6\\tzdata\\America\\Noronha',
   'DATA'),
  ('tcl\\tzdata\\Atlantic\\Faroe',
   'd:\\python37\\tcl\\tcl8.6\\tzdata\\Atlantic\\Faroe',
   'DATA'),
  ('tcl\\msgs\\lv.msg', 'd:\\python37\\tcl\\tcl8.6\\msgs\\lv.msg', 'DATA'),
  ('tcl\\tzdata\\Europe\\Brussels',
   'd:\\python37\\tcl\\tcl8.6\\tzdata\\Europe\\Brussels',
   'DATA'),
  ('tcl\\msgs\\fa_ir.msg',
   'd:\\python37\\tcl\\tcl8.6\\msgs\\fa_ir.msg',
   'DATA'),
  ('tk\\ttk\\aquaTheme.tcl',
   'd:\\python37\\tcl\\tk8.6\\ttk\\aquaTheme.tcl',
   'DATA'),
  ('tcl\\tzdata\\Europe\\Lisbon',
   'd:\\python37\\tcl\\tcl8.6\\tzdata\\Europe\\Lisbon',
   'DATA'),
  ('tcl\\tzdata\\Pacific\\Tongatapu',
   'd:\\python37\\tcl\\tcl8.6\\tzdata\\Pacific\\Tongatapu',
   'DATA'),
  ('tcl\\msgs\\cs.msg', 'd:\\python37\\tcl\\tcl8.6\\msgs\\cs.msg', 'DATA'),
  ('tcl\\tzdata\\America\\Thunder_Bay',
   'd:\\python37\\tcl\\tcl8.6\\tzdata\\America\\Thunder_Bay',
   'DATA'),
  ('tcl\\tzdata\\America\\Rosario',
   'd:\\python37\\tcl\\tcl8.6\\tzdata\\America\\Rosario',
   'DATA'),
  ('tcl\\tzdata\\Etc\\GMT+3',
   'd:\\python37\\tcl\\tcl8.6\\tzdata\\Etc\\GMT+3',
   'DATA'),
  ('tcl\\tzdata\\Asia\\Chongqing',
   'd:\\python37\\tcl\\tcl8.6\\tzdata\\Asia\\Chongqing',
   'DATA'),
  ('tcl\\tzdata\\America\\Cuiaba',
   'd:\\python37\\tcl\\tcl8.6\\tzdata\\America\\Cuiaba',
   'DATA'),
  ('tcl\\tzdata\\Canada\\Eastern',
   'd:\\python37\\tcl\\tcl8.6\\tzdata\\Canada\\Eastern',
   'DATA'),
  ('tcl\\tzdata\\America\\Sitka',
   'd:\\python37\\tcl\\tcl8.6\\tzdata\\America\\Sitka',
   'DATA'),
  ('tcl\\tzdata\\America\\Argentina\\Buenos_Aires',
   'd:\\python37\\tcl\\tcl8.6\\tzdata\\America\\Argentina\\Buenos_Aires',
   'DATA'),
  ('tcl\\msgs\\bn_in.msg',
   'd:\\python37\\tcl\\tcl8.6\\msgs\\bn_in.msg',
   'DATA'),
  ('tcl\\tzdata\\Kwajalein',
   'd:\\python37\\tcl\\tcl8.6\\tzdata\\Kwajalein',
   'DATA'),
  ('tcl\\tzdata\\America\\Argentina\\San_Juan',
   'd:\\python37\\tcl\\tcl8.6\\tzdata\\America\\Argentina\\San_Juan',
   'DATA'),
  ('tk\\xmfbox.tcl', 'd:\\python37\\tcl\\tk8.6\\xmfbox.tcl', 'DATA'),
  ('tcl\\tzdata\\America\\Anguilla',
   'd:\\python37\\tcl\\tcl8.6\\tzdata\\America\\Anguilla',
   'DATA'),
  ('tcl\\tzdata\\Atlantic\\St_Helena',
   'd:\\python37\\tcl\\tcl8.6\\tzdata\\Atlantic\\St_Helena',
   'DATA'),
  ('tcl\\msgs\\en_ca.msg',
   'd:\\python37\\tcl\\tcl8.6\\msgs\\en_ca.msg',
   'DATA'),
  ('tcl\\tzdata\\Australia\\Hobart',
   'd:\\python37\\tcl\\tcl8.6\\tzdata\\Australia\\Hobart',
   'DATA'),
  ('tcl\\tzdata\\Etc\\Greenwich',
   'd:\\python37\\tcl\\tcl8.6\\tzdata\\Etc\\Greenwich',
   'DATA'),
  ('tcl\\msgs\\ro.msg', 'd:\\python37\\tcl\\tcl8.6\\msgs\\ro.msg', 'DATA'),
  ('tcl\\msgs\\ru.msg', 'd:\\python37\\tcl\\tcl8.6\\msgs\\ru.msg', 'DATA'),
  ('tcl\\tzdata\\America\\Argentina\\Rio_Gallegos',
   'd:\\python37\\tcl\\tcl8.6\\tzdata\\America\\Argentina\\Rio_Gallegos',
   'DATA'),
  ('tcl\\tzdata\\America\\Halifax',
   'd:\\python37\\tcl\\tcl8.6\\tzdata\\America\\Halifax',
   'DATA'),
  ('tcl\\msgs\\af_za.msg',
   'd:\\python37\\tcl\\tcl8.6\\msgs\\af_za.msg',
   'DATA'),
  ('tcl\\encoding\\cp949.enc',
   'd:\\python37\\tcl\\tcl8.6\\encoding\\cp949.enc',
   'DATA'),
  ('tcl\\tzdata\\Indian\\Antananarivo',
   'd:\\python37\\tcl\\tcl8.6\\tzdata\\Indian\\Antananarivo',
   'DATA'),
  ('tcl\\tzdata\\Etc\\GMT',
   'd:\\python37\\tcl\\tcl8.6\\tzdata\\Etc\\GMT',
   'DATA'),
  ('tcl\\tzdata\\Africa\\Libreville',
   'd:\\python37\\tcl\\tcl8.6\\tzdata\\Africa\\Libreville',
   'DATA'),
  ('tcl\\encoding\\iso8859-14.enc',
   'd:\\python37\\tcl\\tcl8.6\\encoding\\iso8859-14.enc',
   'DATA'),
  ('tk\\msgs\\it.msg', 'd:\\python37\\tcl\\tk8.6\\msgs\\it.msg', 'DATA'),
  ('tcl\\tzdata\\Europe\\London',
   'd:\\python37\\tcl\\tcl8.6\\tzdata\\Europe\\London',
   'DATA'),
  ('tcl\\msgs\\mr_in.msg',
   'd:\\python37\\tcl\\tcl8.6\\msgs\\mr_in.msg',
   'DATA'),
  ('tcl\\tzdata\\America\\Knox_IN',
   'd:\\python37\\tcl\\tcl8.6\\tzdata\\America\\Knox_IN',
   'DATA'),
  ('tcl\\tzdata\\America\\La_Paz',
   'd:\\python37\\tcl\\tcl8.6\\tzdata\\America\\La_Paz',
   'DATA'),
  ('tcl\\encoding\\cp864.enc',
   'd:\\python37\\tcl\\tcl8.6\\encoding\\cp864.enc',
   'DATA'),
  ('tk\\tkfbox.tcl', 'd:\\python37\\tcl\\tk8.6\\tkfbox.tcl', 'DATA'),
  ('tcl\\tzdata\\HST', 'd:\\python37\\tcl\\tcl8.6\\tzdata\\HST', 'DATA'),
  ('tcl\\tzdata\\America\\Port_of_Spain',
   'd:\\python37\\tcl\\tcl8.6\\tzdata\\America\\Port_of_Spain',
   'DATA'),
  ('tcl\\tzdata\\Africa\\Bangui',
   'd:\\python37\\tcl\\tcl8.6\\tzdata\\Africa\\Bangui',
   'DATA'),
  ('tcl\\tzdata\\America\\Martinique',
   'd:\\python37\\tcl\\tcl8.6\\tzdata\\America\\Martinique',
   'DATA'),
  ('tcl\\msgs\\es_gt.msg',
   'd:\\python37\\tcl\\tcl8.6\\msgs\\es_gt.msg',
   'DATA'),
  ('tcl\\encoding\\cp1251.enc',
   'd:\\python37\\tcl\\tcl8.6\\encoding\\cp1251.enc',
   'DATA'),
  ('tcl\\tzdata\\Africa\\Lusaka',
   'd:\\python37\\tcl\\tcl8.6\\tzdata\\Africa\\Lusaka',
   'DATA'),
  ('tcl\\tzdata\\Asia\\Pyongyang',
   'd:\\python37\\tcl\\tcl8.6\\tzdata\\Asia\\Pyongyang',
   'DATA'),
  ('tcl\\tzdata\\Antarctica\\Syowa',
   'd:\\python37\\tcl\\tcl8.6\\tzdata\\Antarctica\\Syowa',
   'DATA'),
  ('tk\\ttk\\defaults.tcl',
   'd:\\python37\\tcl\\tk8.6\\ttk\\defaults.tcl',
   'DATA'),
  ('tcl\\tzdata\\Asia\\Taipei',
   'd:\\python37\\tcl\\tcl8.6\\tzdata\\Asia\\Taipei',
   'DATA'),
  ('tcl\\tzdata\\America\\Danmarkshavn',
   'd:\\python37\\tcl\\tcl8.6\\tzdata\\America\\Danmarkshavn',
   'DATA'),
  ('tcl\\tzdata\\Africa\\Addis_Ababa',
   'd:\\python37\\tcl\\tcl8.6\\tzdata\\Africa\\Addis_Ababa',
   'DATA'),
  ('tcl\\tzdata\\Asia\\Nicosia',
   'd:\\python37\\tcl\\tcl8.6\\tzdata\\Asia\\Nicosia',
   'DATA'),
  ('tcl\\msgs\\kl.msg', 'd:\\python37\\tcl\\tcl8.6\\msgs\\kl.msg', 'DATA'),
  ('tcl\\encoding\\iso8859-6.enc',
   'd:\\python37\\tcl\\tcl8.6\\encoding\\iso8859-6.enc',
   'DATA'),
  ('tcl\\tzdata\\Canada\\Yukon',
   'd:\\python37\\tcl\\tcl8.6\\tzdata\\Canada\\Yukon',
   'DATA'),
  ('tcl\\tzdata\\Asia\\Rangoon',
   'd:\\python37\\tcl\\tcl8.6\\tzdata\\Asia\\Rangoon',
   'DATA'),
  ('tcl\\tzdata\\America\\St_Barthelemy',
   'd:\\python37\\tcl\\tcl8.6\\tzdata\\America\\St_Barthelemy',
   'DATA'),
  ('tk\\ttk\\notebook.tcl',
   'd:\\python37\\tcl\\tk8.6\\ttk\\notebook.tcl',
   'DATA'),
  ('tcl\\tzdata\\Europe\\Prague',
   'd:\\python37\\tcl\\tcl8.6\\tzdata\\Europe\\Prague',
   'DATA'),
  ('tcl\\tzdata\\Europe\\Bucharest',
   'd:\\python37\\tcl\\tcl8.6\\tzdata\\Europe\\Bucharest',
   'DATA'),
  ('tcl\\tzdata\\US\\Michigan',
   'd:\\python37\\tcl\\tcl8.6\\tzdata\\US\\Michigan',
   'DATA'),
  ('tcl\\tzdata\\Asia\\Seoul',
   'd:\\python37\\tcl\\tcl8.6\\tzdata\\Asia\\Seoul',
   'DATA'),
  ('tcl\\msgs\\ta.msg', 'd:\\python37\\tcl\\tcl8.6\\msgs\\ta.msg', 'DATA'),
  ('tcl\\tzdata\\Asia\\Hong_Kong',
   'd:\\python37\\tcl\\tcl8.6\\tzdata\\Asia\\Hong_Kong',
   'DATA'),
  ('tcl\\tzdata\\Etc\\GMT-4',
   'd:\\python37\\tcl\\tcl8.6\\tzdata\\Etc\\GMT-4',
   'DATA'),
  ('tcl\\msgs\\id_id.msg',
   'd:\\python37\\tcl\\tcl8.6\\msgs\\id_id.msg',
   'DATA'),
  ('tcl\\encoding\\cp950.enc',
   'd:\\python37\\tcl\\tcl8.6\\encoding\\cp950.enc',
   'DATA'),
  ('tcl\\tzdata\\America\\Moncton',
   'd:\\python37\\tcl\\tcl8.6\\tzdata\\America\\Moncton',
   'DATA'),
  ('tcl\\msgs\\ar.msg', 'd:\\python37\\tcl\\tcl8.6\\msgs\\ar.msg', 'DATA'),
  ('tcl\\msgs\\gl.msg', 'd:\\python37\\tcl\\tcl8.6\\msgs\\gl.msg', 'DATA'),
  ('tcl\\tzdata\\Asia\\Barnaul',
   'd:\\python37\\tcl\\tcl8.6\\tzdata\\Asia\\Barnaul',
   'DATA'),
  ('tcl\\tzdata\\Asia\\Ho_Chi_Minh',
   'd:\\python37\\tcl\\tcl8.6\\tzdata\\Asia\\Ho_Chi_Minh',
   'DATA'),
  ('tcl\\tzdata\\America\\Panama',
   'd:\\python37\\tcl\\tcl8.6\\tzdata\\America\\Panama',
   'DATA'),
  ('tcl\\tzdata\\Singapore',
   'd:\\python37\\tcl\\tcl8.6\\tzdata\\Singapore',
   'DATA'),
  ('tcl\\tzdata\\Asia\\Qatar',
   'd:\\python37\\tcl\\tcl8.6\\tzdata\\Asia\\Qatar',
   'DATA'),
  ('tk\\ttk\\scrollbar.tcl',
   'd:\\python37\\tcl\\tk8.6\\ttk\\scrollbar.tcl',
   'DATA'),
  ('tcl\\tzdata\\US\\Mountain',
   'd:\\python37\\tcl\\tcl8.6\\tzdata\\US\\Mountain',
   'DATA'),
  ('tcl\\tzdata\\PST8PDT',
   'd:\\python37\\tcl\\tcl8.6\\tzdata\\PST8PDT',
   'DATA'),
  ('tcl\\tzdata\\Australia\\Victoria',
   'd:\\python37\\tcl\\tcl8.6\\tzdata\\Australia\\Victoria',
   'DATA'),
  ('tcl\\tzdata\\Africa\\Djibouti',
   'd:\\python37\\tcl\\tcl8.6\\tzdata\\Africa\\Djibouti',
   'DATA'),
  ('tcl\\tzdata\\America\\Montreal',
   'd:\\python37\\tcl\\tcl8.6\\tzdata\\America\\Montreal',
   'DATA'),
  ('tcl\\tzdata\\Europe\\Vaduz',
   'd:\\python37\\tcl\\tcl8.6\\tzdata\\Europe\\Vaduz',
   'DATA'),
  ('tcl\\tzdata\\Asia\\Baghdad',
   'd:\\python37\\tcl\\tcl8.6\\tzdata\\Asia\\Baghdad',
   'DATA'),
  ('tcl\\tzdata\\Chile\\EasterIsland',
   'd:\\python37\\tcl\\tcl8.6\\tzdata\\Chile\\EasterIsland',
   'DATA'),
  ('tcl\\msgs\\el.msg', 'd:\\python37\\tcl\\tcl8.6\\msgs\\el.msg', 'DATA'),
  ('tcl\\msgs\\ar_jo.msg',
   'd:\\python37\\tcl\\tcl8.6\\msgs\\ar_jo.msg',
   'DATA'),
  ('tcl\\tzdata\\America\\Port-au-Prince',
   'd:\\python37\\tcl\\tcl8.6\\tzdata\\America\\Port-au-Prince',
   'DATA'),
  ('tcl\\tzdata\\Asia\\Ashkhabad',
   'd:\\python37\\tcl\\tcl8.6\\tzdata\\Asia\\Ashkhabad',
   'DATA'),
  ('tcl\\msgs\\ar_lb.msg',
   'd:\\python37\\tcl\\tcl8.6\\msgs\\ar_lb.msg',
   'DATA'),
  ('tcl\\tzdata\\ROK', 'd:\\python37\\tcl\\tcl8.6\\tzdata\\ROK', 'DATA'),
  ('cryptography-3.3.1-py3.7.egg-info\\WHEEL',
   'd:\\python37\\lib\\site-packages\\cryptography-3.3.1.dist-info\\WHEEL',
   'DATA'),
  ('tcl\\tzdata\\Europe\\Dublin',
   'd:\\python37\\tcl\\tcl8.6\\tzdata\\Europe\\Dublin',
   'DATA'),
  ('tcl\\encoding\\jis0208.enc',
   'd:\\python37\\tcl\\tcl8.6\\encoding\\jis0208.enc',
   'DATA'),
  ('tcl\\tzdata\\Europe\\Minsk',
   'd:\\python37\\tcl\\tcl8.6\\tzdata\\Europe\\Minsk',
   'DATA'),
  ('tk\\msgs\\eo.msg', 'd:\\python37\\tcl\\tk8.6\\msgs\\eo.msg', 'DATA'),
  ('tcl\\tzdata\\Antarctica\\Troll',
   'd:\\python37\\tcl\\tcl8.6\\tzdata\\Antarctica\\Troll',
   'DATA'),
  ('tcl\\tzdata\\Europe\\Saratov',
   'd:\\python37\\tcl\\tcl8.6\\tzdata\\Europe\\Saratov',
   'DATA'),
  ('tcl\\tzdata\\Pacific\\Efate',
   'd:\\python37\\tcl\\tcl8.6\\tzdata\\Pacific\\Efate',
   'DATA'),
  ('tcl\\tzdata\\Europe\\Vienna',
   'd:\\python37\\tcl\\tcl8.6\\tzdata\\Europe\\Vienna',
   'DATA'),
  ('tcl\\msgs\\es_ec.msg',
   'd:\\python37\\tcl\\tcl8.6\\msgs\\es_ec.msg',
   'DATA'),
  ('tcl\\tzdata\\Indian\\Maldives',
   'd:\\python37\\tcl\\tcl8.6\\tzdata\\Indian\\Maldives',
   'DATA'),
  ('tcl\\tzdata\\Europe\\San_Marino',
   'd:\\python37\\tcl\\tcl8.6\\tzdata\\Europe\\San_Marino',
   'DATA'),
  ('tcl\\tzdata\\Asia\\Samarkand',
   'd:\\python37\\tcl\\tcl8.6\\tzdata\\Asia\\Samarkand',
   'DATA'),
  ('tcl\\tzdata\\Antarctica\\Vostok',
   'd:\\python37\\tcl\\tcl8.6\\tzdata\\Antarctica\\Vostok',
   'DATA'),
  ('tcl\\tzdata\\Australia\\Tasmania',
   'd:\\python37\\tcl\\tcl8.6\\tzdata\\Australia\\Tasmania',
   'DATA'),
  ('tk\\scale.tcl', 'd:\\python37\\tcl\\tk8.6\\scale.tcl', 'DATA'),
  ('tcl\\tzdata\\Pacific\\Nauru',
   'd:\\python37\\tcl\\tcl8.6\\tzdata\\Pacific\\Nauru',
   'DATA'),
  ('tcl\\tzdata\\America\\Catamarca',
   'd:\\python37\\tcl\\tcl8.6\\tzdata\\America\\Catamarca',
   'DATA'),
  ('cryptography-3.3.1-py3.7.egg-info\\INSTALLER',
   'd:\\python37\\lib\\site-packages\\cryptography-3.3.1.dist-info\\INSTALLER',
   'DATA'),
  ('tcl\\tzdata\\Asia\\Vientiane',
   'd:\\python37\\tcl\\tcl8.6\\tzdata\\Asia\\Vientiane',
   'DATA'),
  ('tcl\\tzdata\\Africa\\Ceuta',
   'd:\\python37\\tcl\\tcl8.6\\tzdata\\Africa\\Ceuta',
   'DATA'),
  ('tcl\\tzdata\\America\\Boa_Vista',
   'd:\\python37\\tcl\\tcl8.6\\tzdata\\America\\Boa_Vista',
   'DATA'),
  ('tcl\\tzdata\\Africa\\Monrovia',
   'd:\\python37\\tcl\\tcl8.6\\tzdata\\Africa\\Monrovia',
   'DATA'),
  ('tk\\button.tcl', 'd:\\python37\\tcl\\tk8.6\\button.tcl', 'DATA'),
  ('tcl\\tzdata\\Asia\\Omsk',
   'd:\\python37\\tcl\\tcl8.6\\tzdata\\Asia\\Omsk',
   'DATA'),
  ('tcl\\tzdata\\Asia\\Khandyga',
   'd:\\python37\\tcl\\tcl8.6\\tzdata\\Asia\\Khandyga',
   'DATA'),
  ('tk\\ttk\\fonts.tcl', 'd:\\python37\\tcl\\tk8.6\\ttk\\fonts.tcl', 'DATA'),
  ('tcl\\tzdata\\Australia\\Perth',
   'd:\\python37\\tcl\\tcl8.6\\tzdata\\Australia\\Perth',
   'DATA'),
  ('tcl\\tzdata\\Asia\\Kabul',
   'd:\\python37\\tcl\\tcl8.6\\tzdata\\Asia\\Kabul',
   'DATA'),
  ('tcl\\tzdata\\Cuba', 'd:\\python37\\tcl\\tcl8.6\\tzdata\\Cuba', 'DATA'),
  ('tcl\\tzdata\\America\\Cordoba',
   'd:\\python37\\tcl\\tcl8.6\\tzdata\\America\\Cordoba',
   'DATA'),
  ('tcl\\tzdata\\America\\Ojinaga',
   'd:\\python37\\tcl\\tcl8.6\\tzdata\\America\\Ojinaga',
   'DATA'),
  ('tcl\\tzdata\\America\\Resolute',
   'd:\\python37\\tcl\\tcl8.6\\tzdata\\America\\Resolute',
   'DATA'),
  ('tcl\\tzdata\\Europe\\Belgrade',
   'd:\\python37\\tcl\\tcl8.6\\tzdata\\Europe\\Belgrade',
   'DATA'),
  ('tcl\\tzdata\\Africa\\Bujumbura',
   'd:\\python37\\tcl\\tcl8.6\\tzdata\\Africa\\Bujumbura',
   'DATA'),
  ('tcl\\msgs\\de_be.msg',
   'd:\\python37\\tcl\\tcl8.6\\msgs\\de_be.msg',
   'DATA'),
  ('tk\\text.tcl', 'd:\\python37\\tcl\\tk8.6\\text.tcl', 'DATA'),
  ('tk\\images\\tai-ku.gif',
   'd:\\python37\\tcl\\tk8.6\\images\\tai-ku.gif',
   'DATA'),
  ('tcl\\tzdata\\Europe\\Zaporozhye',
   'd:\\python37\\tcl\\tcl8.6\\tzdata\\Europe\\Zaporozhye',
   'DATA'),
  ('tcl\\tzdata\\Asia\\Ulan_Bator',
   'd:\\python37\\tcl\\tcl8.6\\tzdata\\Asia\\Ulan_Bator',
   'DATA'),
  ('tcl\\tzdata\\Pacific\\Kosrae',
   'd:\\python37\\tcl\\tcl8.6\\tzdata\\Pacific\\Kosrae',
   'DATA'),
  ('tcl\\encoding\\macGreek.enc',
   'd:\\python37\\tcl\\tcl8.6\\encoding\\macGreek.enc',
   'DATA'),
  ('tk\\pkgIndex.tcl', 'd:\\python37\\tcl\\tk8.6\\pkgIndex.tcl', 'DATA'),
  ('tcl\\tzdata\\Pacific\\Auckland',
   'd:\\python37\\tcl\\tcl8.6\\tzdata\\Pacific\\Auckland',
   'DATA'),
  ('tcl\\tzdata\\SystemV\\CST6CDT',
   'd:\\python37\\tcl\\tcl8.6\\tzdata\\SystemV\\CST6CDT',
   'DATA'),
  ('tcl\\msgs\\fo_fo.msg',
   'd:\\python37\\tcl\\tcl8.6\\msgs\\fo_fo.msg',
   'DATA'),
  ('tcl\\tzdata\\America\\Grenada',
   'd:\\python37\\tcl\\tcl8.6\\tzdata\\America\\Grenada',
   'DATA'),
  ('tk\\ttk\\spinbox.tcl',
   'd:\\python37\\tcl\\tk8.6\\ttk\\spinbox.tcl',
   'DATA'),
  ('tcl\\tzdata\\America\\St_Kitts',
   'd:\\python37\\tcl\\tcl8.6\\tzdata\\America\\St_Kitts',
   'DATA'),
  ('tcl\\tzdata\\Australia\\Lord_Howe',
   'd:\\python37\\tcl\\tcl8.6\\tzdata\\Australia\\Lord_Howe',
   'DATA'),
  ('tcl\\tzdata\\Africa\\Ndjamena',
   'd:\\python37\\tcl\\tcl8.6\\tzdata\\Africa\\Ndjamena',
   'DATA'),
  ('tcl\\tzdata\\EST', 'd:\\python37\\tcl\\tcl8.6\\tzdata\\EST', 'DATA'),
  ('tcl\\tzdata\\CET', 'd:\\python37\\tcl\\tcl8.6\\tzdata\\CET', 'DATA'),
  ('tcl\\tm.tcl', 'd:\\python37\\tcl\\tcl8.6\\tm.tcl', 'DATA'),
  ('tcl\\tzdata\\US\\Pacific-New',
   'd:\\python37\\tcl\\tcl8.6\\tzdata\\US\\Pacific-New',
   'DATA'),
  ('tcl\\opt0.4\\pkgIndex.tcl',
   'd:\\python37\\tcl\\tcl8.6\\opt0.4\\pkgIndex.tcl',
   'DATA'),
  ('tcl\\tzdata\\Pacific\\Kiritimati',
   'd:\\python37\\tcl\\tcl8.6\\tzdata\\Pacific\\Kiritimati',
   'DATA'),
  ('tcl\\tzdata\\Africa\\Douala',
   'd:\\python37\\tcl\\tcl8.6\\tzdata\\Africa\\Douala',
   'DATA'),
  ('tcl\\tzdata\\Australia\\Canberra',
   'd:\\python37\\tcl\\tcl8.6\\tzdata\\Australia\\Canberra',
   'DATA'),
  ('tcl\\tzdata\\Africa\\Kampala',
   'd:\\python37\\tcl\\tcl8.6\\tzdata\\Africa\\Kampala',
   'DATA'),
  ('tcl\\tzdata\\Asia\\Macao',
   'd:\\python37\\tcl\\tcl8.6\\tzdata\\Asia\\Macao',
   'DATA'),
  ('tcl\\tzdata\\Etc\\GMT+4',
   'd:\\python37\\tcl\\tcl8.6\\tzdata\\Etc\\GMT+4',
   'DATA'),
  ('tcl\\tzdata\\Australia\\Darwin',
   'd:\\python37\\tcl\\tcl8.6\\tzdata\\Australia\\Darwin',
   'DATA'),
  ('tcl\\tzdata\\Africa\\Gaborone',
   'd:\\python37\\tcl\\tcl8.6\\tzdata\\Africa\\Gaborone',
   'DATA'),
  ('tcl\\encoding\\tis-620.enc',
   'd:\\python37\\tcl\\tcl8.6\\encoding\\tis-620.enc',
   'DATA'),
  ('tk\\images\\pwrdLogo200.gif',
   'd:\\python37\\tcl\\tk8.6\\images\\pwrdLogo200.gif',
   'DATA'),
  ('tcl\\tzdata\\Pacific\\Apia',
   'd:\\python37\\tcl\\tcl8.6\\tzdata\\Pacific\\Apia',
   'DATA'),
  ('tcl\\tzdata\\America\\Atikokan',
   'd:\\python37\\tcl\\tcl8.6\\tzdata\\America\\Atikokan',
   'DATA'),
  ('tcl\\encoding\\macTurkish.enc',
   'd:\\python37\\tcl\\tcl8.6\\encoding\\macTurkish.enc',
   'DATA'),
  ('tk\\fontchooser.tcl', 'd:\\python37\\tcl\\tk8.6\\fontchooser.tcl', 'DATA'),
  ('tcl\\tzdata\\Japan', 'd:\\python37\\tcl\\tcl8.6\\tzdata\\Japan', 'DATA'),
  ('tcl\\tzdata\\Asia\\Baku',
   'd:\\python37\\tcl\\tcl8.6\\tzdata\\Asia\\Baku',
   'DATA'),
  ('tcl\\tzdata\\Pacific\\Saipan',
   'd:\\python37\\tcl\\tcl8.6\\tzdata\\Pacific\\Saipan',
   'DATA'),
  ('tcl\\tzdata\\Africa\\Tripoli',
   'd:\\python37\\tcl\\tcl8.6\\tzdata\\Africa\\Tripoli',
   'DATA'),
  ('tcl\\msgs\\ga.msg', 'd:\\python37\\tcl\\tcl8.6\\msgs\\ga.msg', 'DATA'),
  ('tcl\\tzdata\\America\\St_Johns',
   'd:\\python37\\tcl\\tcl8.6\\tzdata\\America\\St_Johns',
   'DATA'),
  ('tcl\\tzdata\\Portugal',
   'd:\\python37\\tcl\\tcl8.6\\tzdata\\Portugal',
   'DATA'),
  ('tcl\\tzdata\\Africa\\Mbabane',
   'd:\\python37\\tcl\\tcl8.6\\tzdata\\Africa\\Mbabane',
   'DATA'),
  ('tcl\\msgs\\sr.msg', 'd:\\python37\\tcl\\tcl8.6\\msgs\\sr.msg', 'DATA'),
  ('tcl\\tzdata\\Asia\\Magadan',
   'd:\\python37\\tcl\\tcl8.6\\tzdata\\Asia\\Magadan',
   'DATA'),
  ('tcl\\tzdata\\GMT-0', 'd:\\python37\\tcl\\tcl8.6\\tzdata\\GMT-0', 'DATA'),
  ('tcl\\tzdata\\America\\Argentina\\Catamarca',
   'd:\\python37\\tcl\\tcl8.6\\tzdata\\America\\Argentina\\Catamarca',
   'DATA'),
  ('tcl\\http1.0\\http.tcl',
   'd:\\python37\\tcl\\tcl8.6\\http1.0\\http.tcl',
   'DATA'),
  ('tcl\\encoding\\macCentEuro.enc',
   'd:\\python37\\tcl\\tcl8.6\\encoding\\macCentEuro.enc',
   'DATA'),
  ('tcl\\tzdata\\Asia\\Riyadh',
   'd:\\python37\\tcl\\tcl8.6\\tzdata\\Asia\\Riyadh',
   'DATA'),
  ('tcl\\tzdata\\US\\Alaska',
   'd:\\python37\\tcl\\tcl8.6\\tzdata\\US\\Alaska',
   'DATA'),
  ('tcl\\encoding\\cp1254.enc',
   'd:\\python37\\tcl\\tcl8.6\\encoding\\cp1254.enc',
   'DATA'),
  ('tcl\\encoding\\cp866.enc',
   'd:\\python37\\tcl\\tcl8.6\\encoding\\cp866.enc',
   'DATA'),
  ('tcl\\msgs\\es.msg', 'd:\\python37\\tcl\\tcl8.6\\msgs\\es.msg', 'DATA'),
  ('tcl\\msgs\\he.msg', 'd:\\python37\\tcl\\tcl8.6\\msgs\\he.msg', 'DATA'),
  ('tcl\\tzdata\\US\\Samoa',
   'd:\\python37\\tcl\\tcl8.6\\tzdata\\US\\Samoa',
   'DATA'),
  ('tcl\\tzdata\\Asia\\Brunei',
   'd:\\python37\\tcl\\tcl8.6\\tzdata\\Asia\\Brunei',
   'DATA'),
  ('tcl\\msgs\\bn.msg', 'd:\\python37\\tcl\\tcl8.6\\msgs\\bn.msg', 'DATA'),
  ('tcl\\tzdata\\Africa\\Algiers',
   'd:\\python37\\tcl\\tcl8.6\\tzdata\\Africa\\Algiers',
   'DATA'),
  ('tcl\\tzdata\\Etc\\GMT-14',
   'd:\\python37\\tcl\\tcl8.6\\tzdata\\Etc\\GMT-14',
   'DATA'),
  ('tcl\\tzdata\\GB', 'd:\\python37\\tcl\\tcl8.6\\tzdata\\GB', 'DATA'),
  ('tcl\\tzdata\\Asia\\Harbin',
   'd:\\python37\\tcl\\tcl8.6\\tzdata\\Asia\\Harbin',
   'DATA'),
  ('tcl\\tzdata\\America\\Juneau',
   'd:\\python37\\tcl\\tcl8.6\\tzdata\\America\\Juneau',
   'DATA'),
  ('tcl\\tzdata\\Africa\\Lome',
   'd:\\python37\\tcl\\tcl8.6\\tzdata\\Africa\\Lome',
   'DATA'),
  ('tcl\\encoding\\euc-cn.enc',
   'd:\\python37\\tcl\\tcl8.6\\encoding\\euc-cn.enc',
   'DATA'),
  ('tcl\\tzdata\\America\\Los_Angeles',
   'd:\\python37\\tcl\\tcl8.6\\tzdata\\America\\Los_Angeles',
   'DATA'),
  ('tcl\\tzdata\\America\\Puerto_Rico',
   'd:\\python37\\tcl\\tcl8.6\\tzdata\\America\\Puerto_Rico',
   'DATA'),
  ('tcl\\tzdata\\Europe\\Isle_of_Man',
   'd:\\python37\\tcl\\tcl8.6\\tzdata\\Europe\\Isle_of_Man',
   'DATA'),
  ('tcl\\msgs\\gv_gb.msg',
   'd:\\python37\\tcl\\tcl8.6\\msgs\\gv_gb.msg',
   'DATA'),
  ('tcl\\tzdata\\Europe\\Rome',
   'd:\\python37\\tcl\\tcl8.6\\tzdata\\Europe\\Rome',
   'DATA'),
  ('tcl\\msgs\\mk.msg', 'd:\\python37\\tcl\\tcl8.6\\msgs\\mk.msg', 'DATA'),
  ('tcl\\tzdata\\Pacific\\Port_Moresby',
   'd:\\python37\\tcl\\tcl8.6\\tzdata\\Pacific\\Port_Moresby',
   'DATA'),
  ('tcl\\tzdata\\Asia\\Phnom_Penh',
   'd:\\python37\\tcl\\tcl8.6\\tzdata\\Asia\\Phnom_Penh',
   'DATA'),
  ('tcl\\encoding\\iso8859-8.enc',
   'd:\\python37\\tcl\\tcl8.6\\encoding\\iso8859-8.enc',
   'DATA'),
  ('tcl\\tzdata\\Asia\\Dacca',
   'd:\\python37\\tcl\\tcl8.6\\tzdata\\Asia\\Dacca',
   'DATA'),
  ('tcl\\tzdata\\Asia\\Srednekolymsk',
   'd:\\python37\\tcl\\tcl8.6\\tzdata\\Asia\\Srednekolymsk',
   'DATA'),
  ('tcl\\tzdata\\Asia\\Aqtau',
   'd:\\python37\\tcl\\tcl8.6\\tzdata\\Asia\\Aqtau',
   'DATA'),
  ('tcl\\encoding\\cp437.enc',
   'd:\\python37\\tcl\\tcl8.6\\encoding\\cp437.enc',
   'DATA'),
  ('tcl\\msgs\\id.msg', 'd:\\python37\\tcl\\tcl8.6\\msgs\\id.msg', 'DATA'),
  ('tcl\\tzdata\\Asia\\Urumqi',
   'd:\\python37\\tcl\\tcl8.6\\tzdata\\Asia\\Urumqi',
   'DATA'),
  ('tcl\\tzdata\\Africa\\Maseru',
   'd:\\python37\\tcl\\tcl8.6\\tzdata\\Africa\\Maseru',
   'DATA'),
  ('tcl\\msgs\\ms.msg', 'd:\\python37\\tcl\\tcl8.6\\msgs\\ms.msg', 'DATA'),
  ('tcl\\encoding\\jis0201.enc',
   'd:\\python37\\tcl\\tcl8.6\\encoding\\jis0201.enc',
   'DATA'),
  ('tcl\\encoding\\macRomania.enc',
   'd:\\python37\\tcl\\tcl8.6\\encoding\\macRomania.enc',
   'DATA'),
  ('tcl\\tzdata\\Africa\\Lubumbashi',
   'd:\\python37\\tcl\\tcl8.6\\tzdata\\Africa\\Lubumbashi',
   'DATA'),
  ('tk\\console.tcl', 'd:\\python37\\tcl\\tk8.6\\console.tcl', 'DATA'),
  ('tcl\\tzdata\\Africa\\Nouakchott',
   'd:\\python37\\tcl\\tcl8.6\\tzdata\\Africa\\Nouakchott',
   'DATA'),
  ('tcl\\tzdata\\Africa\\Asmera',
   'd:\\python37\\tcl\\tcl8.6\\tzdata\\Africa\\Asmera',
   'DATA'),
  ('tcl\\tzdata\\Europe\\Ulyanovsk',
   'd:\\python37\\tcl\\tcl8.6\\tzdata\\Europe\\Ulyanovsk',
   'DATA'),
  ('tcl\\tzdata\\America\\Mendoza',
   'd:\\python37\\tcl\\tcl8.6\\tzdata\\America\\Mendoza',
   'DATA'),
  ('tk\\ttk\\combobox.tcl',
   'd:\\python37\\tcl\\tk8.6\\ttk\\combobox.tcl',
   'DATA'),
  ('tcl\\tzdata\\Brazil\\DeNoronha',
   'd:\\python37\\tcl\\tcl8.6\\tzdata\\Brazil\\DeNoronha',
   'DATA'),
  ('tcl\\tzdata\\GMT', 'd:\\python37\\tcl\\tcl8.6\\tzdata\\GMT', 'DATA'),
  ('tcl\\tzdata\\Asia\\Tokyo',
   'd:\\python37\\tcl\\tcl8.6\\tzdata\\Asia\\Tokyo',
   'DATA'),
  ('tcl\\tzdata\\Australia\\Lindeman',
   'd:\\python37\\tcl\\tcl8.6\\tzdata\\Australia\\Lindeman',
   'DATA'),
  ('tcl\\tzdata\\EST5EDT',
   'd:\\python37\\tcl\\tcl8.6\\tzdata\\EST5EDT',
   'DATA'),
  ('tcl\\tzdata\\Africa\\Maputo',
   'd:\\python37\\tcl\\tcl8.6\\tzdata\\Africa\\Maputo',
   'DATA'),
  ('tcl\\tzdata\\Pacific\\Enderbury',
   'd:\\python37\\tcl\\tcl8.6\\tzdata\\Pacific\\Enderbury',
   'DATA'),
  ('tcl\\tzdata\\UTC', 'd:\\python37\\tcl\\tcl8.6\\tzdata\\UTC', 'DATA'),
  ('tcl\\tzdata\\Mexico\\BajaNorte',
   'd:\\python37\\tcl\\tcl8.6\\tzdata\\Mexico\\BajaNorte',
   'DATA'),
  ('tk\\msgs\\nl.msg', 'd:\\python37\\tcl\\tk8.6\\msgs\\nl.msg', 'DATA'),
  ('tcl\\tzdata\\Europe\\Monaco',
   'd:\\python37\\tcl\\tcl8.6\\tzdata\\Europe\\Monaco',
   'DATA'),
  ('tcl\\tzdata\\America\\Guyana',
   'd:\\python37\\tcl\\tcl8.6\\tzdata\\America\\Guyana',
   'DATA'),
  ('tcl\\tzdata\\America\\Cancun',
   'd:\\python37\\tcl\\tcl8.6\\tzdata\\America\\Cancun',
   'DATA'),
  ('tcl\\tzdata\\America\\Chihuahua',
   'd:\\python37\\tcl\\tcl8.6\\tzdata\\America\\Chihuahua',
   'DATA'),
  ('tcl\\tzdata\\America\\Indiana\\Marengo',
   'd:\\python37\\tcl\\tcl8.6\\tzdata\\America\\Indiana\\Marengo',
   'DATA'),
  ('tcl\\tzdata\\Indian\\Cocos',
   'd:\\python37\\tcl\\tcl8.6\\tzdata\\Indian\\Cocos',
   'DATA'),
  ('tcl\\tzdata\\Asia\\Novosibirsk',
   'd:\\python37\\tcl\\tcl8.6\\tzdata\\Asia\\Novosibirsk',
   'DATA'),
  ('tcl\\tzdata\\SystemV\\EST5EDT',
   'd:\\python37\\tcl\\tcl8.6\\tzdata\\SystemV\\EST5EDT',
   'DATA'),
  ('tcl\\clock.tcl', 'd:\\python37\\tcl\\tcl8.6\\clock.tcl', 'DATA'),
  ('tk\\msgs\\en.msg', 'd:\\python37\\tcl\\tk8.6\\msgs\\en.msg', 'DATA'),
  ('tcl\\msgs\\en_hk.msg',
   'd:\\python37\\tcl\\tcl8.6\\msgs\\en_hk.msg',
   'DATA'),
  ('tcl\\encoding\\euc-jp.enc',
   'd:\\python37\\tcl\\tcl8.6\\encoding\\euc-jp.enc',
   'DATA'),
  ('tcl\\tzdata\\America\\Yakutat',
   'd:\\python37\\tcl\\tcl8.6\\tzdata\\America\\Yakutat',
   'DATA'),
  ('tcl\\encoding\\cp860.enc',
   'd:\\python37\\tcl\\tcl8.6\\encoding\\cp860.enc',
   'DATA'),
  ('tcl\\tzdata\\Pacific\\Ponape',
   'd:\\python37\\tcl\\tcl8.6\\tzdata\\Pacific\\Ponape',
   'DATA'),
  ('tcl\\tzdata\\America\\Bahia',
   'd:\\python37\\tcl\\tcl8.6\\tzdata\\America\\Bahia',
   'DATA'),
  ('tcl\\tzdata\\America\\Kentucky\\Louisville',
   'd:\\python37\\tcl\\tcl8.6\\tzdata\\America\\Kentucky\\Louisville',
   'DATA'),
  ('tcl\\msgs\\ko_kr.msg',
   'd:\\python37\\tcl\\tcl8.6\\msgs\\ko_kr.msg',
   'DATA'),
  ('tcl\\tzdata\\America\\Bahia_Banderas',
   'd:\\python37\\tcl\\tcl8.6\\tzdata\\America\\Bahia_Banderas',
   'DATA'),
  ('tcl\\tzdata\\Europe\\Istanbul',
   'd:\\python37\\tcl\\tcl8.6\\tzdata\\Europe\\Istanbul',
   'DATA'),
  ('tcl\\tzdata\\America\\Scoresbysund',
   'd:\\python37\\tcl\\tcl8.6\\tzdata\\America\\Scoresbysund',
   'DATA'),
  ('tcl\\msgs\\es_do.msg',
   'd:\\python37\\tcl\\tcl8.6\\msgs\\es_do.msg',
   'DATA'),
  ('tcl\\tzdata\\America\\Asuncion',
   'd:\\python37\\tcl\\tcl8.6\\tzdata\\America\\Asuncion',
   'DATA'),
  ('tcl\\tzdata\\America\\Virgin',
   'd:\\python37\\tcl\\tcl8.6\\tzdata\\America\\Virgin',
   'DATA'),
  ('tcl\\encoding\\ebcdic.enc',
   'd:\\python37\\tcl\\tcl8.6\\encoding\\ebcdic.enc',
   'DATA'),
  ('tcl\\tzdata\\America\\St_Lucia',
   'd:\\python37\\tcl\\tcl8.6\\tzdata\\America\\St_Lucia',
   'DATA'),
  ('tcl\\tzdata\\Pacific\\Samoa',
   'd:\\python37\\tcl\\tcl8.6\\tzdata\\Pacific\\Samoa',
   'DATA'),
  ('tcl\\tzdata\\Pacific\\Pitcairn',
   'd:\\python37\\tcl\\tcl8.6\\tzdata\\Pacific\\Pitcairn',
   'DATA'),
  ('tcl\\tzdata\\Asia\\Gaza',
   'd:\\python37\\tcl\\tcl8.6\\tzdata\\Asia\\Gaza',
   'DATA'),
  ('tcl\\tzdata\\America\\Lima',
   'd:\\python37\\tcl\\tcl8.6\\tzdata\\America\\Lima',
   'DATA'),
  ('tcl\\encoding\\cp862.enc',
   'd:\\python37\\tcl\\tcl8.6\\encoding\\cp862.enc',
   'DATA'),
  ('tk\\ttk\\panedwindow.tcl',
   'd:\\python37\\tcl\\tk8.6\\ttk\\panedwindow.tcl',
   'DATA'),
  ('tcl\\tzdata\\Asia\\Kuching',
   'd:\\python37\\tcl\\tcl8.6\\tzdata\\Asia\\Kuching',
   'DATA'),
  ('tcl\\tzdata\\Asia\\Tashkent',
   'd:\\python37\\tcl\\tcl8.6\\tzdata\\Asia\\Tashkent',
   'DATA'),
  ('tcl\\tzdata\\Asia\\Ujung_Pandang',
   'd:\\python37\\tcl\\tcl8.6\\tzdata\\Asia\\Ujung_Pandang',
   'DATA'),
  ('tcl\\encoding\\cp855.enc',
   'd:\\python37\\tcl\\tcl8.6\\encoding\\cp855.enc',
   'DATA'),
  ('tcl\\tzdata\\Europe\\Riga',
   'd:\\python37\\tcl\\tcl8.6\\tzdata\\Europe\\Riga',
   'DATA'),
  ('tcl\\tzdata\\Pacific\\Norfolk',
   'd:\\python37\\tcl\\tcl8.6\\tzdata\\Pacific\\Norfolk',
   'DATA'),
  ('tcl\\tzdata\\Asia\\Bishkek',
   'd:\\python37\\tcl\\tcl8.6\\tzdata\\Asia\\Bishkek',
   'DATA'),
  ('tcl\\tzdata\\Africa\\Malabo',
   'd:\\python37\\tcl\\tcl8.6\\tzdata\\Africa\\Malabo',
   'DATA'),
  ('cryptography-3.3.1-py3.7.egg-info\\RECORD',
   'd:\\python37\\lib\\site-packages\\cryptography-3.3.1.dist-info\\RECORD',
   'DATA'),
  ('tk\\mkpsenc.tcl', 'd:\\python37\\tcl\\tk8.6\\mkpsenc.tcl', 'DATA'),
  ('tcl\\tzdata\\Europe\\Madrid',
   'd:\\python37\\tcl\\tcl8.6\\tzdata\\Europe\\Madrid',
   'DATA'),
  ('tcl\\tzdata\\America\\Belize',
   'd:\\python37\\tcl\\tcl8.6\\tzdata\\America\\Belize',
   'DATA'),
  ('tcl\\tzdata\\Indian\\Christmas',
   'd:\\python37\\tcl\\tcl8.6\\tzdata\\Indian\\Christmas',
   'DATA'),
  ('tcl\\msgs\\ar_sy.msg',
   'd:\\python37\\tcl\\tcl8.6\\msgs\\ar_sy.msg',
   'DATA'),
  ('tcl\\encoding\\macCyrillic.enc',
   'd:\\python37\\tcl\\tcl8.6\\encoding\\macCyrillic.enc',
   'DATA'),
  ('tcl\\tzdata\\America\\Swift_Current',
   'd:\\python37\\tcl\\tcl8.6\\tzdata\\America\\Swift_Current',
   'DATA'),
  ('tcl\\tzdata\\Asia\\Muscat',
   'd:\\python37\\tcl\\tcl8.6\\tzdata\\Asia\\Muscat',
   'DATA'),
  ('tcl\\tzdata\\Indian\\Reunion',
   'd:\\python37\\tcl\\tcl8.6\\tzdata\\Indian\\Reunion',
   'DATA'),
  ('tcl\\encoding\\cp936.enc',
   'd:\\python37\\tcl\\tcl8.6\\encoding\\cp936.enc',
   'DATA'),
  ('tcl\\msgs\\mt.msg', 'd:\\python37\\tcl\\tcl8.6\\msgs\\mt.msg', 'DATA'),
  ('tcl\\tzdata\\Pacific\\Pohnpei',
   'd:\\python37\\tcl\\tcl8.6\\tzdata\\Pacific\\Pohnpei',
   'DATA'),
  ('tcl\\tzdata\\Europe\\Athens',
   'd:\\python37\\tcl\\tcl8.6\\tzdata\\Europe\\Athens',
   'DATA'),
  ('tcl\\tzdata\\America\\Denver',
   'd:\\python37\\tcl\\tcl8.6\\tzdata\\America\\Denver',
   'DATA'),
  ('tcl\\tzdata\\Europe\\Budapest',
   'd:\\python37\\tcl\\tcl8.6\\tzdata\\Europe\\Budapest',
   'DATA'),
  ('tcl\\tzdata\\America\\Jujuy',
   'd:\\python37\\tcl\\tcl8.6\\tzdata\\America\\Jujuy',
   'DATA'),
  ('tk\\comdlg.tcl', 'd:\\python37\\tcl\\tk8.6\\comdlg.tcl', 'DATA'),
  ('tcl\\tzdata\\Etc\\GMT+7',
   'd:\\python37\\tcl\\tcl8.6\\tzdata\\Etc\\GMT+7',
   'DATA'),
  ('tcl\\msgs\\fr.msg', 'd:\\python37\\tcl\\tcl8.6\\msgs\\fr.msg', 'DATA'),
  ('tcl\\tzdata\\America\\Indiana\\Petersburg',
   'd:\\python37\\tcl\\tcl8.6\\tzdata\\America\\Indiana\\Petersburg',
   'DATA'),
  ('tcl\\tzdata\\Africa\\Mogadishu',
   'd:\\python37\\tcl\\tcl8.6\\tzdata\\Africa\\Mogadishu',
   'DATA'),
  ('tcl\\tzdata\\Asia\\Kuwait',
   'd:\\python37\\tcl\\tcl8.6\\tzdata\\Asia\\Kuwait',
   'DATA'),
  ('tcl\\tzdata\\Arctic\\Longyearbyen',
   'd:\\python37\\tcl\\tcl8.6\\tzdata\\Arctic\\Longyearbyen',
   'DATA'),
  ('tcl\\msgs\\it.msg', 'd:\\python37\\tcl\\tcl8.6\\msgs\\it.msg', 'DATA'),
  ('tcl\\tzdata\\Europe\\Moscow',
   'd:\\python37\\tcl\\tcl8.6\\tzdata\\Europe\\Moscow',
   'DATA'),
  ('tcl\\msgs\\es_uy.msg',
   'd:\\python37\\tcl\\tcl8.6\\msgs\\es_uy.msg',
   'DATA'),
  ('tcl\\msgs\\ta_in.msg',
   'd:\\python37\\tcl\\tcl8.6\\msgs\\ta_in.msg',
   'DATA'),
  ('tcl\\encoding\\cp1256.enc',
   'd:\\python37\\tcl\\tcl8.6\\encoding\\cp1256.enc',
   'DATA'),
  ('tcl\\tzdata\\Australia\\LHI',
   'd:\\python37\\tcl\\tcl8.6\\tzdata\\Australia\\LHI',
   'DATA'),
  ('tcl\\encoding\\iso8859-7.enc',
   'd:\\python37\\tcl\\tcl8.6\\encoding\\iso8859-7.enc',
   'DATA'),
  ('tcl\\tzdata\\Europe\\Zurich',
   'd:\\python37\\tcl\\tcl8.6\\tzdata\\Europe\\Zurich',
   'DATA'),
  ('tcl\\tzdata\\Europe\\Amsterdam',
   'd:\\python37\\tcl\\tcl8.6\\tzdata\\Europe\\Amsterdam',
   'DATA'),
  ('tcl\\history.tcl', 'd:\\python37\\tcl\\tcl8.6\\history.tcl', 'DATA'),
  ('tcl\\msgs\\nb.msg', 'd:\\python37\\tcl\\tcl8.6\\msgs\\nb.msg', 'DATA'),
  ('tcl\\msgs\\fr_ch.msg',
   'd:\\python37\\tcl\\tcl8.6\\msgs\\fr_ch.msg',
   'DATA'),
  ('tcl\\encoding\\iso8859-9.enc',
   'd:\\python37\\tcl\\tcl8.6\\encoding\\iso8859-9.enc',
   'DATA'),
  ('tcl\\msgs\\is.msg', 'd:\\python37\\tcl\\tcl8.6\\msgs\\is.msg', 'DATA'),
  ('tcl\\tzdata\\Indian\\Mauritius',
   'd:\\python37\\tcl\\tcl8.6\\tzdata\\Indian\\Mauritius',
   'DATA'),
  ('tcl\\tzdata\\Turkey', 'd:\\python37\\tcl\\tcl8.6\\tzdata\\Turkey', 'DATA'),
  ('cryptography-3.3.1-py3.7.egg-info\\top_level.txt',
   'd:\\python37\\lib\\site-packages\\cryptography-3.3.1.dist-info\\top_level.txt',
   'DATA'),
  ('tcl\\tzdata\\Africa\\Nairobi',
   'd:\\python37\\tcl\\tcl8.6\\tzdata\\Africa\\Nairobi',
   'DATA'),
  ('tcl\\encoding\\ksc5601.enc',
   'd:\\python37\\tcl\\tcl8.6\\encoding\\ksc5601.enc',
   'DATA'),
  ('tcl\\tzdata\\Indian\\Mayotte',
   'd:\\python37\\tcl\\tcl8.6\\tzdata\\Indian\\Mayotte',
   'DATA'),
  ('tcl\\tzdata\\Canada\\East-Saskatchewan',
   'd:\\python37\\tcl\\tcl8.6\\tzdata\\Canada\\East-Saskatchewan',
   'DATA'),
  ('tcl\\tzdata\\America\\Mazatlan',
   'd:\\python37\\tcl\\tcl8.6\\tzdata\\America\\Mazatlan',
   'DATA'),
  ('tcl\\tzdata\\Etc\\GMT-5',
   'd:\\python37\\tcl\\tcl8.6\\tzdata\\Etc\\GMT-5',
   'DATA'),
  ('tcl\\tzdata\\Australia\\North',
   'd:\\python37\\tcl\\tcl8.6\\tzdata\\Australia\\North',
   'DATA'),
  ('tcl\\tzdata\\America\\Tortola',
   'd:\\python37\\tcl\\tcl8.6\\tzdata\\America\\Tortola',
   'DATA'),
  ('tcl\\msgs\\es_pe.msg',
   'd:\\python37\\tcl\\tcl8.6\\msgs\\es_pe.msg',
   'DATA'),
  ('tcl\\msgs\\et.msg', 'd:\\python37\\tcl\\tcl8.6\\msgs\\et.msg', 'DATA'),
  ('tcl\\tzdata\\Europe\\Belfast',
   'd:\\python37\\tcl\\tcl8.6\\tzdata\\Europe\\Belfast',
   'DATA'),
  ('tcl\\tzdata\\Australia\\NSW',
   'd:\\python37\\tcl\\tcl8.6\\tzdata\\Australia\\NSW',
   'DATA'),
  ('tcl\\tzdata\\America\\Tegucigalpa',
   'd:\\python37\\tcl\\tcl8.6\\tzdata\\America\\Tegucigalpa',
   'DATA'),
  ('tcl\\msgs\\en_au.msg',
   'd:\\python37\\tcl\\tcl8.6\\msgs\\en_au.msg',
   'DATA'),
  ('tcl\\tzdata\\Atlantic\\Madeira',
   'd:\\python37\\tcl\\tcl8.6\\tzdata\\Atlantic\\Madeira',
   'DATA'),
  ('tcl\\tzdata\\Eire', 'd:\\python37\\tcl\\tcl8.6\\tzdata\\Eire', 'DATA'),
  ('tcl\\tzdata\\Navajo', 'd:\\python37\\tcl\\tcl8.6\\tzdata\\Navajo', 'DATA'),
  ('tcl\\tzdata\\America\\Paramaribo',
   'd:\\python37\\tcl\\tcl8.6\\tzdata\\America\\Paramaribo',
   'DATA'),
  ('tcl\\tzdata\\Pacific\\Truk',
   'd:\\python37\\tcl\\tcl8.6\\tzdata\\Pacific\\Truk',
   'DATA'),
  ('tcl\\tzdata\\America\\Bogota',
   'd:\\python37\\tcl\\tcl8.6\\tzdata\\America\\Bogota',
   'DATA'),
  ('tcl\\tzdata\\Europe\\Uzhgorod',
   'd:\\python37\\tcl\\tcl8.6\\tzdata\\Europe\\Uzhgorod',
   'DATA'),
  ('cryptography-3.3.1-py3.7.egg-info\\LICENSE.BSD',
   'd:\\python37\\lib\\site-packages\\cryptography-3.3.1.dist-info\\LICENSE.BSD',
   'DATA'),
  ('tcl\\msgs\\fr_be.msg',
   'd:\\python37\\tcl\\tcl8.6\\msgs\\fr_be.msg',
   'DATA'),
  ('tcl\\tzdata\\Asia\\Dubai',
   'd:\\python37\\tcl\\tcl8.6\\tzdata\\Asia\\Dubai',
   'DATA'),
  ('tcl\\tzdata\\America\\New_York',
   'd:\\python37\\tcl\\tcl8.6\\tzdata\\America\\New_York',
   'DATA'),
  ('tcl\\tzdata\\Asia\\Macau',
   'd:\\python37\\tcl\\tcl8.6\\tzdata\\Asia\\Macau',
   'DATA'),
  ('tcl\\msgs\\zh.msg', 'd:\\python37\\tcl\\tcl8.6\\msgs\\zh.msg', 'DATA'),
  ('tcl\\tzdata\\Canada\\Atlantic',
   'd:\\python37\\tcl\\tcl8.6\\tzdata\\Canada\\Atlantic',
   'DATA'),
  ('tk\\dialog.tcl', 'd:\\python37\\tcl\\tk8.6\\dialog.tcl', 'DATA'),
  ('tcl\\tzdata\\Africa\\Conakry',
   'd:\\python37\\tcl\\tcl8.6\\tzdata\\Africa\\Conakry',
   'DATA'),
  ('tk\\msgs\\es.msg', 'd:\\python37\\tcl\\tk8.6\\msgs\\es.msg', 'DATA'),
  ('tcl\\tzdata\\Asia\\Colombo',
   'd:\\python37\\tcl\\tcl8.6\\tzdata\\Asia\\Colombo',
   'DATA'),
  ('tcl\\msgs\\en_za.msg',
   'd:\\python37\\tcl\\tcl8.6\\msgs\\en_za.msg',
   'DATA'),
  ('tcl\\tzdata\\Australia\\West',
   'd:\\python37\\tcl\\tcl8.6\\tzdata\\Australia\\West',
   'DATA'),
  ('tcl\\init.tcl', 'd:\\python37\\tcl\\tcl8.6\\init.tcl', 'DATA'),
  ('tcl\\tzdata\\America\\Santarem',
   'd:\\python37\\tcl\\tcl8.6\\tzdata\\America\\Santarem',
   'DATA'),
  ('tcl\\tzdata\\Asia\\Singapore',
   'd:\\python37\\tcl\\tcl8.6\\tzdata\\Asia\\Singapore',
   'DATA'),
  ('tcl\\tzdata\\America\\Punta_Arenas',
   'd:\\python37\\tcl\\tcl8.6\\tzdata\\America\\Punta_Arenas',
   'DATA'),
  ('tcl\\tzdata\\Asia\\Tel_Aviv',
   'd:\\python37\\tcl\\tcl8.6\\tzdata\\Asia\\Tel_Aviv',
   'DATA'),
  ('tcl\\encoding\\cp1253.enc',
   'd:\\python37\\tcl\\tcl8.6\\encoding\\cp1253.enc',
   'DATA'),
  ('tcl\\tzdata\\Asia\\Kolkata',
   'd:\\python37\\tcl\\tcl8.6\\tzdata\\Asia\\Kolkata',
   'DATA'),
  ('tcl\\tzdata\\Asia\\Katmandu',
   'd:\\python37\\tcl\\tcl8.6\\tzdata\\Asia\\Katmandu',
   'DATA'),
  ('tcl\\tzdata\\Europe\\Malta',
   'd:\\python37\\tcl\\tcl8.6\\tzdata\\Europe\\Malta',
   'DATA'),
  ('tcl\\tzdata\\Africa\\Johannesburg',
   'd:\\python37\\tcl\\tcl8.6\\tzdata\\Africa\\Johannesburg',
   'DATA'),
  ('tcl\\tzdata\\SystemV\\PST8',
   'd:\\python37\\tcl\\tcl8.6\\tzdata\\SystemV\\PST8',
   'DATA'),
  ('tcl\\encoding\\macUkraine.enc',
   'd:\\python37\\tcl\\tcl8.6\\encoding\\macUkraine.enc',
   'DATA'),
  ('tcl\\tzdata\\Pacific\\Tarawa',
   'd:\\python37\\tcl\\tcl8.6\\tzdata\\Pacific\\Tarawa',
   'DATA'),
  ('tcl\\tzdata\\Canada\\Mountain',
   'd:\\python37\\tcl\\tcl8.6\\tzdata\\Canada\\Mountain',
   'DATA'),
  ('tk\\icons.tcl', 'd:\\python37\\tcl\\tk8.6\\icons.tcl', 'DATA'),
  ('tcl\\tzdata\\Asia\\Tbilisi',
   'd:\\python37\\tcl\\tcl8.6\\tzdata\\Asia\\Tbilisi',
   'DATA'),
  ('tcl\\encoding\\macIceland.enc',
   'd:\\python37\\tcl\\tcl8.6\\encoding\\macIceland.enc',
   'DATA'),
  ('tcl\\tzdata\\Africa\\Casablanca',
   'd:\\python37\\tcl\\tcl8.6\\tzdata\\Africa\\Casablanca',
   'DATA'),
  ('tcl\\tzdata\\America\\Adak',
   'd:\\python37\\tcl\\tcl8.6\\tzdata\\America\\Adak',
   'DATA'),
  ('tcl\\tzdata\\America\\Indiana\\Vincennes',
   'd:\\python37\\tcl\\tcl8.6\\tzdata\\America\\Indiana\\Vincennes',
   'DATA'),
  ('tcl\\tzdata\\Mexico\\General',
   'd:\\python37\\tcl\\tcl8.6\\tzdata\\Mexico\\General',
   'DATA'),
  ('tcl\\tzdata\\Chile\\Continental',
   'd:\\python37\\tcl\\tcl8.6\\tzdata\\Chile\\Continental',
   'DATA'),
  ('tcl\\encoding\\euc-kr.enc',
   'd:\\python37\\tcl\\tcl8.6\\encoding\\euc-kr.enc',
   'DATA'),
  ('tk\\ttk\\treeview.tcl',
   'd:\\python37\\tcl\\tk8.6\\ttk\\treeview.tcl',
   'DATA'),
  ('tcl\\tzdata\\Europe\\Copenhagen',
   'd:\\python37\\tcl\\tcl8.6\\tzdata\\Europe\\Copenhagen',
   'DATA'),
  ('tcl\\safe.tcl', 'd:\\python37\\tcl\\tcl8.6\\safe.tcl', 'DATA'),
  ('tcl\\tzdata\\Europe\\Bratislava',
   'd:\\python37\\tcl\\tcl8.6\\tzdata\\Europe\\Bratislava',
   'DATA'),
  ('tcl\\tzdata\\America\\Santiago',
   'd:\\python37\\tcl\\tcl8.6\\tzdata\\America\\Santiago',
   'DATA'),
  ('tcl\\msgs\\fr_ca.msg',
   'd:\\python37\\tcl\\tcl8.6\\msgs\\fr_ca.msg',
   'DATA'),
  ('tcl\\tzdata\\Greenwich',
   'd:\\python37\\tcl\\tcl8.6\\tzdata\\Greenwich',
   'DATA'),
  ('tcl\\tzdata\\Asia\\Manila',
   'd:\\python37\\tcl\\tcl8.6\\tzdata\\Asia\\Manila',
   'DATA'),
  ('tcl\\tzdata\\Asia\\Qyzylorda',
   'd:\\python37\\tcl\\tcl8.6\\tzdata\\Asia\\Qyzylorda',
   'DATA'),
  ('tcl\\tzdata\\SystemV\\YST9YDT',
   'd:\\python37\\tcl\\tcl8.6\\tzdata\\SystemV\\YST9YDT',
   'DATA'),
  ('tcl\\tzdata\\America\\Campo_Grande',
   'd:\\python37\\tcl\\tcl8.6\\tzdata\\America\\Campo_Grande',
   'DATA'),
  ('tcl\\tzdata\\Europe\\Helsinki',
   'd:\\python37\\tcl\\tcl8.6\\tzdata\\Europe\\Helsinki',
   'DATA'),
  ('tcl\\tzdata\\SystemV\\HST10',
   'd:\\python37\\tcl\\tcl8.6\\tzdata\\SystemV\\HST10',
   'DATA'),
  ('tk\\menu.tcl', 'd:\\python37\\tcl\\tk8.6\\menu.tcl', 'DATA'),
  ('cryptography-3.3.1-py3.7.egg-info\\LICENSE',
   'd:\\python37\\lib\\site-packages\\cryptography-3.3.1.dist-info\\LICENSE',
   'DATA'),
  ('tcl\\tzdata\\America\\Dawson_Creek',
   'd:\\python37\\tcl\\tcl8.6\\tzdata\\America\\Dawson_Creek',
   'DATA'),
  ('tcl\\tzdata\\America\\Nassau',
   'd:\\python37\\tcl\\tcl8.6\\tzdata\\America\\Nassau',
   'DATA'),
  ('tcl\\msgs\\es_py.msg',
   'd:\\python37\\tcl\\tcl8.6\\msgs\\es_py.msg',
   'DATA'),
  ('tcl\\tzdata\\Indian\\Comoro',
   'd:\\python37\\tcl\\tcl8.6\\tzdata\\Indian\\Comoro',
   'DATA'),
  ('tcl\\tzdata\\Asia\\Kashgar',
   'd:\\python37\\tcl\\tcl8.6\\tzdata\\Asia\\Kashgar',
   'DATA'),
  ('tcl\\msgs\\lt.msg', 'd:\\python37\\tcl\\tcl8.6\\msgs\\lt.msg', 'DATA'),
  ('tcl\\tzdata\\America\\Atka',
   'd:\\python37\\tcl\\tcl8.6\\tzdata\\America\\Atka',
   'DATA'),
  ('tk\\msgs\\de.msg', 'd:\\python37\\tcl\\tk8.6\\msgs\\de.msg', 'DATA'),
  ('tcl\\msgs\\de_at.msg',
   'd:\\python37\\tcl\\tcl8.6\\msgs\\de_at.msg',
   'DATA'),
  ('tcl\\encoding\\macRoman.enc',
   'd:\\python37\\tcl\\tcl8.6\\encoding\\macRoman.enc',
   'DATA'),
  ('tcl\\tzdata\\Asia\\Bangkok',
   'd:\\python37\\tcl\\tcl8.6\\tzdata\\Asia\\Bangkok',
   'DATA'),
  ('cryptography-3.3.1-py3.7.egg-info\\LICENSE.PSF',
   'd:\\python37\\lib\\site-packages\\cryptography-3.3.1.dist-info\\LICENSE.PSF',
   'DATA'),
  ('tcl\\tzdata\\Asia\\Vladivostok',
   'd:\\python37\\tcl\\tcl8.6\\tzdata\\Asia\\Vladivostok',
   'DATA'),
  ('tcl\\msgs\\es_pa.msg',
   'd:\\python37\\tcl\\tcl8.6\\msgs\\es_pa.msg',
   'DATA'),
  ('tcl\\msgs\\es_cl.msg',
   'd:\\python37\\tcl\\tcl8.6\\msgs\\es_cl.msg',
   'DATA'),
  ('tk\\spinbox.tcl', 'd:\\python37\\tcl\\tk8.6\\spinbox.tcl', 'DATA'),
  ('tcl\\tzdata\\Europe\\Luxembourg',
   'd:\\python37\\tcl\\tcl8.6\\tzdata\\Europe\\Luxembourg',
   'DATA'),
  ('tcl\\tzdata\\America\\North_Dakota\\Center',
   'd:\\python37\\tcl\\tcl8.6\\tzdata\\America\\North_Dakota\\Center',
   'DATA'),
  ('tcl\\tzdata\\NZ-CHAT',
   'd:\\python37\\tcl\\tcl8.6\\tzdata\\NZ-CHAT',
   'DATA'),
  ('tcl\\encoding\\gb2312.enc',
   'd:\\python37\\tcl\\tcl8.6\\encoding\\gb2312.enc',
   'DATA'),
  ('tcl\\msgs\\ru_ua.msg',
   'd:\\python37\\tcl\\tcl8.6\\msgs\\ru_ua.msg',
   'DATA'),
  ('tcl\\tzdata\\America\\Santa_Isabel',
   'd:\\python37\\tcl\\tcl8.6\\tzdata\\America\\Santa_Isabel',
   'DATA'),
  ('tcl\\msgs\\af.msg', 'd:\\python37\\tcl\\tcl8.6\\msgs\\af.msg', 'DATA'),
  ('tcl\\tzdata\\America\\Detroit',
   'd:\\python37\\tcl\\tcl8.6\\tzdata\\America\\Detroit',
   'DATA'),
  ('tk\\images\\logoMed.gif',
   'd:\\python37\\tcl\\tk8.6\\images\\logoMed.gif',
   'DATA'),
  ('tcl\\tzdata\\Australia\\South',
   'd:\\python37\\tcl\\tcl8.6\\tzdata\\Australia\\South',
   'DATA'),
  ('tcl\\encoding\\cp1252.enc',
   'd:\\python37\\tcl\\tcl8.6\\encoding\\cp1252.enc',
   'DATA'),
  ('tcl\\msgs\\be.msg', 'd:\\python37\\tcl\\tcl8.6\\msgs\\be.msg', 'DATA'),
  ('tcl\\tzdata\\America\\Thule',
   'd:\\python37\\tcl\\tcl8.6\\tzdata\\America\\Thule',
   'DATA'),
  ('tcl\\tzdata\\Africa\\Niamey',
   'd:\\python37\\tcl\\tcl8.6\\tzdata\\Africa\\Niamey',
   'DATA'),
  ('tcl\\msgs\\zh_hk.msg',
   'd:\\python37\\tcl\\tcl8.6\\msgs\\zh_hk.msg',
   'DATA'),
  ('tcl\\tzdata\\America\\Fortaleza',
   'd:\\python37\\tcl\\tcl8.6\\tzdata\\America\\Fortaleza',
   'DATA'),
  ('main_ui.exe.manifest',
   'D:\\Users\\Desktop\\JK_apkcheck\\build\\main_ui\\main_ui.exe.manifest',
   'BINARY'),
  ('pyi-windows-manifest-filename main_ui.exe.manifest', '', 'OPTION')],
 False,
 False,
 False,
 [])
