('D:\\Users\\Desktop\\JK_apkcheck\\build\\main_ui\\PYZ-00.pyz',
 [('copy', 'd:\\python37\\lib\\copy.py', 'PYMODULE'),
  ('tokenize', 'd:\\python37\\lib\\tokenize.py', 'PYMODULE'),
  ('argparse', 'd:\\python37\\lib\\argparse.py', 'PYMODULE'),
  ('textwrap', 'd:\\python37\\lib\\textwrap.py', 'PYMODULE'),
  ('gettext', 'd:\\python37\\lib\\gettext.py', 'PYMODULE'),
  ('struct', 'd:\\python37\\lib\\struct.py', 'PYMODULE'),
  ('token', 'd:\\python37\\lib\\token.py', 'PYMODULE'),
  ('tracemalloc', 'd:\\python37\\lib\\tracemalloc.py', 'PYMODULE'),
  ('pickle', 'd:\\python37\\lib\\pickle.py', 'PYMODULE'),
  ('pprint', 'd:\\python37\\lib\\pprint.py', 'PYMODULE'),
  ('doctest', 'd:\\python37\\lib\\doctest.py', 'PYMODULE'),
  ('unittest', 'd:\\python37\\lib\\unittest\\__init__.py', 'PYMODULE'),
  ('unittest.signals', 'd:\\python37\\lib\\unittest\\signals.py', 'PYMODULE'),
  ('signal', 'd:\\python37\\lib\\signal.py', 'PYMODULE'),
  ('unittest.main', 'd:\\python37\\lib\\unittest\\main.py', 'PYMODULE'),
  ('unittest.runner', 'd:\\python37\\lib\\unittest\\runner.py', 'PYMODULE'),
  ('unittest.loader', 'd:\\python37\\lib\\unittest\\loader.py', 'PYMODULE'),
  ('unittest.suite', 'd:\\python37\\lib\\unittest\\suite.py', 'PYMODULE'),
  ('unittest.case', 'd:\\python37\\lib\\unittest\\case.py', 'PYMODULE'),
  ('contextlib', 'd:\\python37\\lib\\contextlib.py', 'PYMODULE'),
  ('logging', 'd:\\python37\\lib\\logging\\__init__.py', 'PYMODULE'),
  ('threading', 'd:\\python37\\lib\\threading.py', 'PYMODULE'),
  ('_threading_local', 'd:\\python37\\lib\\_threading_local.py', 'PYMODULE'),
  ('string', 'd:\\python37\\lib\\string.py', 'PYMODULE'),
  ('unittest.result', 'd:\\python37\\lib\\unittest\\result.py', 'PYMODULE'),
  ('unittest.util', 'd:\\python37\\lib\\unittest\\util.py', 'PYMODULE'),
  ('pdb', 'd:\\python37\\lib\\pdb.py', 'PYMODULE'),
  ('getopt', 'd:\\python37\\lib\\getopt.py', 'PYMODULE'),
  ('pydoc', 'd:\\python37\\lib\\pydoc.py', 'PYMODULE'),
  ('webbrowser', 'd:\\python37\\lib\\webbrowser.py', 'PYMODULE'),
  ('socket', 'd:\\python37\\lib\\socket.py', 'PYMODULE'),
  ('selectors', 'd:\\python37\\lib\\selectors.py', 'PYMODULE'),
  ('shutil', 'd:\\python37\\lib\\shutil.py', 'PYMODULE'),
  ('tarfile', 'd:\\python37\\lib\\tarfile.py', 'PYMODULE'),
  ('gzip', 'd:\\python37\\lib\\gzip.py', 'PYMODULE'),
  ('_compression', 'd:\\python37\\lib\\_compression.py', 'PYMODULE'),
  ('lzma', 'd:\\python37\\lib\\lzma.py', 'PYMODULE'),
  ('bz2', 'd:\\python37\\lib\\bz2.py', 'PYMODULE'),
  ('stat', 'd:\\python37\\lib\\stat.py', 'PYMODULE'),
  ('email.message', 'd:\\python37\\lib\\email\\message.py', 'PYMODULE'),
  ('email.policy', 'd:\\python37\\lib\\email\\policy.py', 'PYMODULE'),
  ('email.contentmanager',
   'd:\\python37\\lib\\email\\contentmanager.py',
   'PYMODULE'),
  ('email.quoprimime', 'd:\\python37\\lib\\email\\quoprimime.py', 'PYMODULE'),
  ('email.headerregistry',
   'd:\\python37\\lib\\email\\headerregistry.py',
   'PYMODULE'),
  ('email._header_value_parser',
   'd:\\python37\\lib\\email\\_header_value_parser.py',
   'PYMODULE'),
  ('urllib', 'd:\\python37\\lib\\urllib\\__init__.py', 'PYMODULE'),
  ('email.iterators', 'd:\\python37\\lib\\email\\iterators.py', 'PYMODULE'),
  ('email.generator', 'd:\\python37\\lib\\email\\generator.py', 'PYMODULE'),
  ('random', 'd:\\python37\\lib\\random.py', 'PYMODULE'),
  ('bisect', 'd:\\python37\\lib\\bisect.py', 'PYMODULE'),
  ('email._encoded_words',
   'd:\\python37\\lib\\email\\_encoded_words.py',
   'PYMODULE'),
  ('base64', 'd:\\python37\\lib\\base64.py', 'PYMODULE'),
  ('email.charset', 'd:\\python37\\lib\\email\\charset.py', 'PYMODULE'),
  ('email.encoders', 'd:\\python37\\lib\\email\\encoders.py', 'PYMODULE'),
  ('email.base64mime', 'd:\\python37\\lib\\email\\base64mime.py', 'PYMODULE'),
  ('email._policybase', 'd:\\python37\\lib\\email\\_policybase.py', 'PYMODULE'),
  ('email.header', 'd:\\python37\\lib\\email\\header.py', 'PYMODULE'),
  ('email.errors', 'd:\\python37\\lib\\email\\errors.py', 'PYMODULE'),
  ('email.utils', 'd:\\python37\\lib\\email\\utils.py', 'PYMODULE'),
  ('email._parseaddr', 'd:\\python37\\lib\\email\\_parseaddr.py', 'PYMODULE'),
  ('calendar', 'd:\\python37\\lib\\calendar.py', 'PYMODULE'),
  ('datetime', 'd:\\python37\\lib\\datetime.py', 'PYMODULE'),
  ('_strptime', 'd:\\python37\\lib\\_strptime.py', 'PYMODULE'),
  ('email', 'd:\\python37\\lib\\email\\__init__.py', 'PYMODULE'),
  ('email.parser', 'd:\\python37\\lib\\email\\parser.py', 'PYMODULE'),
  ('email.feedparser', 'd:\\python37\\lib\\email\\feedparser.py', 'PYMODULE'),
  ('quopri', 'd:\\python37\\lib\\quopri.py', 'PYMODULE'),
  ('uu', 'd:\\python37\\lib\\uu.py', 'PYMODULE'),
  ('optparse', 'd:\\python37\\lib\\optparse.py', 'PYMODULE'),
  ('http.server', 'd:\\python37\\lib\\http\\server.py', 'PYMODULE'),
  ('http', 'd:\\python37\\lib\\http\\__init__.py', 'PYMODULE'),
  ('socketserver', 'd:\\python37\\lib\\socketserver.py', 'PYMODULE'),
  ('posixpath', 'd:\\python37\\lib\\posixpath.py', 'PYMODULE'),
  ('genericpath', 'd:\\python37\\lib\\genericpath.py', 'PYMODULE'),
  ('mimetypes', 'd:\\python37\\lib\\mimetypes.py', 'PYMODULE'),
  ('http.client', 'd:\\python37\\lib\\http\\client.py', 'PYMODULE'),
  ('ssl', 'd:\\python37\\lib\\ssl.py', 'PYMODULE'),
  ('html', 'd:\\python37\\lib\\html\\__init__.py', 'PYMODULE'),
  ('html.entities', 'd:\\python37\\lib\\html\\entities.py', 'PYMODULE'),
  ('pydoc_data.topics', 'd:\\python37\\lib\\pydoc_data\\topics.py', 'PYMODULE'),
  ('pydoc_data', 'd:\\python37\\lib\\pydoc_data\\__init__.py', 'PYMODULE'),
  ('tty', 'd:\\python37\\lib\\tty.py', 'PYMODULE'),
  ('tempfile', 'd:\\python37\\lib\\tempfile.py', 'PYMODULE'),
  ('urllib.parse', 'd:\\python37\\lib\\urllib\\parse.py', 'PYMODULE'),
  ('sysconfig', 'd:\\python37\\lib\\sysconfig.py', 'PYMODULE'),
  ('_osx_support', 'd:\\python37\\lib\\_osx_support.py', 'PYMODULE'),
  ('distutils.log', 'd:\\python37\\lib\\distutils\\log.py', 'PYMODULE'),
  ('distutils', 'd:\\python37\\lib\\distutils\\__init__.py', 'PYMODULE'),
  ('platform', 'd:\\python37\\lib\\platform.py', 'PYMODULE'),
  ('plistlib', 'd:\\python37\\lib\\plistlib.py', 'PYMODULE'),
  ('xml.parsers.expat',
   'd:\\python37\\lib\\xml\\parsers\\expat.py',
   'PYMODULE'),
  ('xml.parsers', 'd:\\python37\\lib\\xml\\parsers\\__init__.py', 'PYMODULE'),
  ('xml', 'd:\\python37\\lib\\xml\\__init__.py', 'PYMODULE'),
  ('xml.sax.expatreader',
   'd:\\python37\\lib\\xml\\sax\\expatreader.py',
   'PYMODULE'),
  ('xml.sax.saxutils', 'd:\\python37\\lib\\xml\\sax\\saxutils.py', 'PYMODULE'),
  ('urllib.request', 'd:\\python37\\lib\\urllib\\request.py', 'PYMODULE'),
  ('getpass', 'd:\\python37\\lib\\getpass.py', 'PYMODULE'),
  ('nturl2path', 'd:\\python37\\lib\\nturl2path.py', 'PYMODULE'),
  ('ftplib', 'd:\\python37\\lib\\ftplib.py', 'PYMODULE'),
  ('netrc', 'd:\\python37\\lib\\netrc.py', 'PYMODULE'),
  ('http.cookiejar', 'd:\\python37\\lib\\http\\cookiejar.py', 'PYMODULE'),
  ('urllib.response', 'd:\\python37\\lib\\urllib\\response.py', 'PYMODULE'),
  ('urllib.error', 'd:\\python37\\lib\\urllib\\error.py', 'PYMODULE'),
  ('xml.sax', 'd:\\python37\\lib\\xml\\sax\\__init__.py', 'PYMODULE'),
  ('xml.sax.handler', 'd:\\python37\\lib\\xml\\sax\\handler.py', 'PYMODULE'),
  ('xml.sax._exceptions',
   'd:\\python37\\lib\\xml\\sax\\_exceptions.py',
   'PYMODULE'),
  ('xml.sax.xmlreader',
   'd:\\python37\\lib\\xml\\sax\\xmlreader.py',
   'PYMODULE'),
  ('pkgutil', 'd:\\python37\\lib\\pkgutil.py', 'PYMODULE'),
  ('importlib', 'd:\\python37\\lib\\importlib\\__init__.py', 'PYMODULE'),
  ('importlib.abc', 'd:\\python37\\lib\\importlib\\abc.py', 'PYMODULE'),
  ('importlib.util', 'd:\\python37\\lib\\importlib\\util.py', 'PYMODULE'),
  ('importlib.machinery',
   'd:\\python37\\lib\\importlib\\machinery.py',
   'PYMODULE'),
  ('importlib._bootstrap_external',
   'd:\\python37\\lib\\importlib\\_bootstrap_external.py',
   'PYMODULE'),
  ('importlib._bootstrap',
   'd:\\python37\\lib\\importlib\\_bootstrap.py',
   'PYMODULE'),
  ('runpy', 'd:\\python37\\lib\\runpy.py', 'PYMODULE'),
  ('shlex', 'd:\\python37\\lib\\shlex.py', 'PYMODULE'),
  ('glob', 'd:\\python37\\lib\\glob.py', 'PYMODULE'),
  ('code', 'd:\\python37\\lib\\code.py', 'PYMODULE'),
  ('codeop', 'd:\\python37\\lib\\codeop.py', 'PYMODULE'),
  ('dis', 'd:\\python37\\lib\\dis.py', 'PYMODULE'),
  ('opcode', 'd:\\python37\\lib\\opcode.py', 'PYMODULE'),
  ('bdb', 'd:\\python37\\lib\\bdb.py', 'PYMODULE'),
  ('cmd', 'd:\\python37\\lib\\cmd.py', 'PYMODULE'),
  ('inspect', 'd:\\python37\\lib\\inspect.py', 'PYMODULE'),
  ('ast', 'd:\\python37\\lib\\ast.py', 'PYMODULE'),
  ('difflib', 'd:\\python37\\lib\\difflib.py', 'PYMODULE'),
  ('__future__', 'd:\\python37\\lib\\__future__.py', 'PYMODULE'),
  ('_compat_pickle', 'd:\\python37\\lib\\_compat_pickle.py', 'PYMODULE'),
  ('ntpath', 'd:\\python37\\lib\\ntpath.py', 'PYMODULE'),
  ('fnmatch', 'd:\\python37\\lib\\fnmatch.py', 'PYMODULE'),
  ('_py_abc', 'd:\\python37\\lib\\_py_abc.py', 'PYMODULE'),
  ('stringprep', 'd:\\python37\\lib\\stringprep.py', 'PYMODULE'),
  ('typing', 'd:\\python37\\lib\\typing.py', 'PYMODULE'),
  ('hashlib', 'd:\\python37\\lib\\hashlib.py', 'PYMODULE'),
  ('zipfile', 'd:\\python37\\lib\\zipfile.py', 'PYMODULE'),
  ('py_compile', 'd:\\python37\\lib\\py_compile.py', 'PYMODULE'),
  ('subprocess', 'd:\\python37\\lib\\subprocess.py', 'PYMODULE'),
  ('os', 'd:\\python37\\lib\\os.py', 'PYMODULE'),
  ('csv', 'd:\\python37\\lib\\csv.py', 'PYMODULE'),
  ('pymysql',
   'd:\\python37\\lib\\site-packages\\pymysql\\__init__.py',
   'PYMODULE'),
  ('pymysql.connections',
   'd:\\python37\\lib\\site-packages\\pymysql\\connections.py',
   'PYMODULE'),
  ('pymysql._socketio',
   'd:\\python37\\lib\\site-packages\\pymysql\\_socketio.py',
   'PYMODULE'),
  ('pymysql.util',
   'd:\\python37\\lib\\site-packages\\pymysql\\util.py',
   'PYMODULE'),
  ('pymysql.protocol',
   'd:\\python37\\lib\\site-packages\\pymysql\\protocol.py',
   'PYMODULE'),
  ('pymysql.optionfile',
   'd:\\python37\\lib\\site-packages\\pymysql\\optionfile.py',
   'PYMODULE'),
  ('configparser', 'd:\\python37\\lib\\configparser.py', 'PYMODULE'),
  ('pymysql.cursors',
   'd:\\python37\\lib\\site-packages\\pymysql\\cursors.py',
   'PYMODULE'),
  ('pymysql.constants.SERVER_STATUS',
   'd:\\python37\\lib\\site-packages\\pymysql\\constants\\SERVER_STATUS.py',
   'PYMODULE'),
  ('pymysql.constants.CR',
   'd:\\python37\\lib\\site-packages\\pymysql\\constants\\CR.py',
   'PYMODULE'),
  ('pymysql.constants.COMMAND',
   'd:\\python37\\lib\\site-packages\\pymysql\\constants\\COMMAND.py',
   'PYMODULE'),
  ('pymysql.constants.CLIENT',
   'd:\\python37\\lib\\site-packages\\pymysql\\constants\\CLIENT.py',
   'PYMODULE'),
  ('pymysql.charset',
   'd:\\python37\\lib\\site-packages\\pymysql\\charset.py',
   'PYMODULE'),
  ('pymysql._auth',
   'd:\\python37\\lib\\site-packages\\pymysql\\_auth.py',
   'PYMODULE'),
  ('cryptography.hazmat.primitives.asymmetric.padding',
   'd:\\python37\\lib\\site-packages\\cryptography\\hazmat\\primitives\\asymmetric\\padding.py',
   'PYMODULE'),
  ('cryptography.hazmat.primitives.asymmetric.rsa',
   'd:\\python37\\lib\\site-packages\\cryptography\\hazmat\\primitives\\asymmetric\\rsa.py',
   'PYMODULE'),
  ('cryptography.hazmat.backends.interfaces',
   'd:\\python37\\lib\\site-packages\\cryptography\\hazmat\\backends\\interfaces.py',
   'PYMODULE'),
  ('cryptography.exceptions',
   'd:\\python37\\lib\\site-packages\\cryptography\\exceptions.py',
   'PYMODULE'),
  ('fractions', 'd:\\python37\\lib\\fractions.py', 'PYMODULE'),
  ('numbers', 'd:\\python37\\lib\\numbers.py', 'PYMODULE'),
  ('decimal', 'd:\\python37\\lib\\decimal.py', 'PYMODULE'),
  ('_pydecimal', 'd:\\python37\\lib\\_pydecimal.py', 'PYMODULE'),
  ('contextvars', 'd:\\python37\\lib\\contextvars.py', 'PYMODULE'),
  ('cryptography.utils',
   'd:\\python37\\lib\\site-packages\\cryptography\\utils.py',
   'PYMODULE'),
  ('cryptography',
   'd:\\python37\\lib\\site-packages\\cryptography\\__init__.py',
   'PYMODULE'),
  ('cryptography.hazmat.bindings.openssl',
   'd:\\python37\\lib\\site-packages\\cryptography\\hazmat\\bindings\\openssl\\__init__.py',
   'PYMODULE'),
  ('cryptography.hazmat.bindings',
   'd:\\python37\\lib\\site-packages\\cryptography\\hazmat\\bindings\\__init__.py',
   'PYMODULE'),
  ('cryptography.hazmat',
   'd:\\python37\\lib\\site-packages\\cryptography\\hazmat\\__init__.py',
   'PYMODULE'),
  ('cryptography.hazmat.bindings.openssl._conditional',
   'd:\\python37\\lib\\site-packages\\cryptography\\hazmat\\bindings\\openssl\\_conditional.py',
   'PYMODULE'),
  ('cryptography.hazmat.bindings.openssl.binding',
   'd:\\python37\\lib\\site-packages\\cryptography\\hazmat\\bindings\\openssl\\binding.py',
   'PYMODULE'),
  ('cryptography.hazmat.backends.openssl.ec',
   'd:\\python37\\lib\\site-packages\\cryptography\\hazmat\\backends\\openssl\\ec.py',
   'PYMODULE'),
  ('cryptography.hazmat.primitives.asymmetric.ec',
   'd:\\python37\\lib\\site-packages\\cryptography\\hazmat\\primitives\\asymmetric\\ec.py',
   'PYMODULE'),
  ('cryptography.hazmat._oid',
   'd:\\python37\\lib\\site-packages\\cryptography\\hazmat\\_oid.py',
   'PYMODULE'),
  ('cryptography.x509.oid',
   'd:\\python37\\lib\\site-packages\\cryptography\\x509\\oid.py',
   'PYMODULE'),
  ('cryptography.hazmat.backends.openssl.ciphers',
   'd:\\python37\\lib\\site-packages\\cryptography\\hazmat\\backends\\openssl\\ciphers.py',
   'PYMODULE'),
  ('cryptography.hazmat.primitives.ciphers.modes',
   'd:\\python37\\lib\\site-packages\\cryptography\\hazmat\\primitives\\ciphers\\modes.py',
   'PYMODULE'),
  ('cryptography.hazmat.primitives.ciphers',
   'd:\\python37\\lib\\site-packages\\cryptography\\hazmat\\primitives\\ciphers\\__init__.py',
   'PYMODULE'),
  ('cryptography.hazmat.primitives.ciphers.algorithms',
   'd:\\python37\\lib\\site-packages\\cryptography\\hazmat\\primitives\\ciphers\\algorithms.py',
   'PYMODULE'),
  ('cryptography.hazmat.primitives.ciphers.base',
   'd:\\python37\\lib\\site-packages\\cryptography\\hazmat\\primitives\\ciphers\\base.py',
   'PYMODULE'),
  ('cryptography.hazmat.backends.openssl.x25519',
   'd:\\python37\\lib\\site-packages\\cryptography\\hazmat\\backends\\openssl\\x25519.py',
   'PYMODULE'),
  ('cryptography.hazmat.primitives.asymmetric.x25519',
   'd:\\python37\\lib\\site-packages\\cryptography\\hazmat\\primitives\\asymmetric\\x25519.py',
   'PYMODULE'),
  ('cryptography.hazmat.backends.openssl.poly1305',
   'd:\\python37\\lib\\site-packages\\cryptography\\hazmat\\backends\\openssl\\poly1305.py',
   'PYMODULE'),
  ('cryptography.hazmat.primitives.constant_time',
   'd:\\python37\\lib\\site-packages\\cryptography\\hazmat\\primitives\\constant_time.py',
   'PYMODULE'),
  ('hmac', 'd:\\python37\\lib\\hmac.py', 'PYMODULE'),
  ('cryptography.hazmat.backends.openssl.ocsp',
   'd:\\python37\\lib\\site-packages\\cryptography\\hazmat\\backends\\openssl\\ocsp.py',
   'PYMODULE'),
  ('cryptography.x509.ocsp',
   'd:\\python37\\lib\\site-packages\\cryptography\\x509\\ocsp.py',
   'PYMODULE'),
  ('cryptography.x509.base',
   'd:\\python37\\lib\\site-packages\\cryptography\\x509\\base.py',
   'PYMODULE'),
  ('cryptography.x509.name',
   'd:\\python37\\lib\\site-packages\\cryptography\\x509\\name.py',
   'PYMODULE'),
  ('cryptography.x509.extensions',
   'd:\\python37\\lib\\site-packages\\cryptography\\x509\\extensions.py',
   'PYMODULE'),
  ('cryptography.x509.general_name',
   'd:\\python37\\lib\\site-packages\\cryptography\\x509\\general_name.py',
   'PYMODULE'),
  ('cryptography.x509.certificate_transparency',
   'd:\\python37\\lib\\site-packages\\cryptography\\x509\\certificate_transparency.py',
   'PYMODULE'),
  ('cryptography.hazmat._der',
   'd:\\python37\\lib\\site-packages\\cryptography\\hazmat\\_der.py',
   'PYMODULE'),
  ('ipaddress', 'd:\\python37\\lib\\ipaddress.py', 'PYMODULE'),
  ('cryptography.hazmat.primitives.asymmetric.ed448',
   'd:\\python37\\lib\\site-packages\\cryptography\\hazmat\\primitives\\asymmetric\\ed448.py',
   'PYMODULE'),
  ('cryptography.hazmat.primitives.asymmetric.ed25519',
   'd:\\python37\\lib\\site-packages\\cryptography\\hazmat\\primitives\\asymmetric\\ed25519.py',
   'PYMODULE'),
  ('cryptography.hazmat.primitives.asymmetric.dsa',
   'd:\\python37\\lib\\site-packages\\cryptography\\hazmat\\primitives\\asymmetric\\dsa.py',
   'PYMODULE'),
  ('cryptography.hazmat.backends.openssl.rsa',
   'd:\\python37\\lib\\site-packages\\cryptography\\hazmat\\backends\\openssl\\rsa.py',
   'PYMODULE'),
  ('cryptography.hazmat.backends.openssl.dh',
   'd:\\python37\\lib\\site-packages\\cryptography\\hazmat\\backends\\openssl\\dh.py',
   'PYMODULE'),
  ('cryptography.hazmat.primitives.asymmetric.dh',
   'd:\\python37\\lib\\site-packages\\cryptography\\hazmat\\primitives\\asymmetric\\dh.py',
   'PYMODULE'),
  ('cryptography.hazmat.backends.openssl.hmac',
   'd:\\python37\\lib\\site-packages\\cryptography\\hazmat\\backends\\openssl\\hmac.py',
   'PYMODULE'),
  ('cryptography.hazmat.backends.openssl.aead',
   'd:\\python37\\lib\\site-packages\\cryptography\\hazmat\\backends\\openssl\\aead.py',
   'PYMODULE'),
  ('cryptography.hazmat.primitives.ciphers.aead',
   'd:\\python37\\lib\\site-packages\\cryptography\\hazmat\\primitives\\ciphers\\aead.py',
   'PYMODULE'),
  ('cryptography.hazmat.backends.openssl.encode_asn1',
   'd:\\python37\\lib\\site-packages\\cryptography\\hazmat\\backends\\openssl\\encode_asn1.py',
   'PYMODULE'),
  ('cryptography.hazmat.backends.openssl.hashes',
   'd:\\python37\\lib\\site-packages\\cryptography\\hazmat\\backends\\openssl\\hashes.py',
   'PYMODULE'),
  ('cryptography.hazmat.backends.openssl.x509',
   'd:\\python37\\lib\\site-packages\\cryptography\\hazmat\\backends\\openssl\\x509.py',
   'PYMODULE'),
  ('cryptography.hazmat.backends.openssl.x448',
   'd:\\python37\\lib\\site-packages\\cryptography\\hazmat\\backends\\openssl\\x448.py',
   'PYMODULE'),
  ('cryptography.hazmat.primitives.asymmetric.x448',
   'd:\\python37\\lib\\site-packages\\cryptography\\hazmat\\primitives\\asymmetric\\x448.py',
   'PYMODULE'),
  ('cryptography.hazmat.backends.openssl.cmac',
   'd:\\python37\\lib\\site-packages\\cryptography\\hazmat\\backends\\openssl\\cmac.py',
   'PYMODULE'),
  ('cryptography.hazmat.backends.openssl.ed25519',
   'd:\\python37\\lib\\site-packages\\cryptography\\hazmat\\backends\\openssl\\ed25519.py',
   'PYMODULE'),
  ('cryptography.hazmat.backends.openssl.backend',
   'd:\\python37\\lib\\site-packages\\cryptography\\hazmat\\backends\\openssl\\backend.py',
   'PYMODULE'),
  ('cryptography.hazmat.primitives.serialization.ssh',
   'd:\\python37\\lib\\site-packages\\cryptography\\hazmat\\primitives\\serialization\\ssh.py',
   'PYMODULE'),
  ('cryptography.hazmat.primitives.serialization.pkcs7',
   'd:\\python37\\lib\\site-packages\\cryptography\\hazmat\\primitives\\serialization\\pkcs7.py',
   'PYMODULE'),
  ('cryptography.hazmat.primitives.kdf.scrypt',
   'd:\\python37\\lib\\site-packages\\cryptography\\hazmat\\primitives\\kdf\\scrypt.py',
   'PYMODULE'),
  ('cryptography.hazmat.primitives.kdf',
   'd:\\python37\\lib\\site-packages\\cryptography\\hazmat\\primitives\\kdf\\__init__.py',
   'PYMODULE'),
  ('cryptography.hazmat.backends.openssl.dsa',
   'd:\\python37\\lib\\site-packages\\cryptography\\hazmat\\backends\\openssl\\dsa.py',
   'PYMODULE'),
  ('cryptography.hazmat.backends.openssl.decode_asn1',
   'd:\\python37\\lib\\site-packages\\cryptography\\hazmat\\backends\\openssl\\decode_asn1.py',
   'PYMODULE'),
  ('cryptography.hazmat.backends.openssl',
   'd:\\python37\\lib\\site-packages\\cryptography\\hazmat\\backends\\openssl\\__init__.py',
   'PYMODULE'),
  ('cryptography.hazmat.backends.openssl.utils',
   'd:\\python37\\lib\\site-packages\\cryptography\\hazmat\\backends\\openssl\\utils.py',
   'PYMODULE'),
  ('cryptography.hazmat.primitives.asymmetric.utils',
   'd:\\python37\\lib\\site-packages\\cryptography\\hazmat\\primitives\\asymmetric\\utils.py',
   'PYMODULE'),
  ('cryptography.hazmat.backends.openssl.ed448',
   'd:\\python37\\lib\\site-packages\\cryptography\\hazmat\\backends\\openssl\\ed448.py',
   'PYMODULE'),
  ('cryptography.x509',
   'd:\\python37\\lib\\site-packages\\cryptography\\x509\\__init__.py',
   'PYMODULE'),
  ('cryptography.__about__',
   'd:\\python37\\lib\\site-packages\\cryptography\\__about__.py',
   'PYMODULE'),
  ('six', 'd:\\python37\\lib\\site-packages\\six.py', 'PYMODULE'),
  ('cryptography.hazmat.primitives.asymmetric',
   'd:\\python37\\lib\\site-packages\\cryptography\\hazmat\\primitives\\asymmetric\\__init__.py',
   'PYMODULE'),
  ('cryptography.hazmat.primitives.hashes',
   'd:\\python37\\lib\\site-packages\\cryptography\\hazmat\\primitives\\hashes.py',
   'PYMODULE'),
  ('cryptography.hazmat.primitives.serialization',
   'd:\\python37\\lib\\site-packages\\cryptography\\hazmat\\primitives\\serialization\\__init__.py',
   'PYMODULE'),
  ('cryptography.hazmat.primitives.serialization.base',
   'd:\\python37\\lib\\site-packages\\cryptography\\hazmat\\primitives\\serialization\\base.py',
   'PYMODULE'),
  ('cryptography.hazmat.primitives',
   'd:\\python37\\lib\\site-packages\\cryptography\\hazmat\\primitives\\__init__.py',
   'PYMODULE'),
  ('cryptography.hazmat.backends',
   'd:\\python37\\lib\\site-packages\\cryptography\\hazmat\\backends\\__init__.py',
   'PYMODULE'),
  ('pymysql.times',
   'd:\\python37\\lib\\site-packages\\pymysql\\times.py',
   'PYMODULE'),
  ('pymysql.err',
   'd:\\python37\\lib\\site-packages\\pymysql\\err.py',
   'PYMODULE'),
  ('pymysql.constants.ER',
   'd:\\python37\\lib\\site-packages\\pymysql\\constants\\ER.py',
   'PYMODULE'),
  ('pymysql.converters',
   'd:\\python37\\lib\\site-packages\\pymysql\\converters.py',
   'PYMODULE'),
  ('pymysql.constants.FIELD_TYPE',
   'd:\\python37\\lib\\site-packages\\pymysql\\constants\\FIELD_TYPE.py',
   'PYMODULE'),
  ('pymysql.constants',
   'd:\\python37\\lib\\site-packages\\pymysql\\constants\\__init__.py',
   'PYMODULE'),
  ('pymysql._compat',
   'd:\\python37\\lib\\site-packages\\pymysql\\_compat.py',
   'PYMODULE'),
  ('tkinter.scrolledtext',
   'd:\\python37\\lib\\tkinter\\scrolledtext.py',
   'PYMODULE'),
  ('tkinter.constants', 'd:\\python37\\lib\\tkinter\\constants.py', 'PYMODULE'),
  ('tkinter.messagebox',
   'd:\\python37\\lib\\tkinter\\messagebox.py',
   'PYMODULE'),
  ('tkinter.commondialog',
   'd:\\python37\\lib\\tkinter\\commondialog.py',
   'PYMODULE'),
  ('tkinter.filedialog',
   'd:\\python37\\lib\\tkinter\\filedialog.py',
   'PYMODULE'),
  ('tkinter.dialog', 'd:\\python37\\lib\\tkinter\\dialog.py', 'PYMODULE'),
  ('tkinter.ttk', 'd:\\python37\\lib\\tkinter\\ttk.py', 'PYMODULE'),
  ('tkinter', 'd:\\python37\\lib\\tkinter\\__init__.py', 'PYMODULE')])
