(['D:\\Users\\Desktop\\脚本合集\\TT_check\\Check_TT.py'],
 ['D:\\Users\\Desktop\\脚本合集\\TT_check', 'D:\\Users\\Desktop\\脚本合集\\TT_check'],
 ['codecs'],
 [],
 [],
 [],
 False,
 False,
 '3.7.8 (tags/v3.7.8:4b47a5b6ba, Jun 28 2020, 08:53:46) [MSC v.1916 64 bit '
 '(AMD64)]',
 [('pyi_rth_certifi',
   'd:\\python37\\lib\\site-packages\\PyInstaller\\loader\\rthooks\\pyi_rth_certifi.py',
   'PYSOURCE'),
  ('Check_TT', 'D:\\Users\\Desktop\\脚本合集\\TT_check\\Check_TT.py', 'PYSOURCE')],
 [('ssl', 'd:\\python37\\lib\\ssl.py', 'PYMODULE'),
  ('calendar', 'd:\\python37\\lib\\calendar.py', 'PYMODULE'),
  ('argparse', 'd:\\python37\\lib\\argparse.py', 'PYMODULE'),
  ('textwrap', 'd:\\python37\\lib\\textwrap.py', 'PYMODULE'),
  ('copy', 'd:\\python37\\lib\\copy.py', 'PYMODULE'),
  ('gettext', 'd:\\python37\\lib\\gettext.py', 'PYMODULE'),
  ('struct', 'd:\\python37\\lib\\struct.py', 'PYMODULE'),
  ('datetime', 'd:\\python37\\lib\\datetime.py', 'PYMODULE'),
  ('_strptime', 'd:\\python37\\lib\\_strptime.py', 'PYMODULE'),
  ('base64', 'd:\\python37\\lib\\base64.py', 'PYMODULE'),
  ('getopt', 'd:\\python37\\lib\\getopt.py', 'PYMODULE'),
  ('socket', 'd:\\python37\\lib\\socket.py', 'PYMODULE'),
  ('selectors', 'd:\\python37\\lib\\selectors.py', 'PYMODULE'),
  ('os', 'd:\\python37\\lib\\os.py', 'PYMODULE'),
  ('subprocess', 'd:\\python37\\lib\\subprocess.py', 'PYMODULE'),
  ('threading', 'd:\\python37\\lib\\threading.py', 'PYMODULE'),
  ('_threading_local', 'd:\\python37\\lib\\_threading_local.py', 'PYMODULE'),
  ('contextlib', 'd:\\python37\\lib\\contextlib.py', 'PYMODULE'),
  ('signal', 'd:\\python37\\lib\\signal.py', 'PYMODULE'),
  ('ntpath', 'd:\\python37\\lib\\ntpath.py', 'PYMODULE'),
  ('string', 'd:\\python37\\lib\\string.py', 'PYMODULE'),
  ('genericpath', 'd:\\python37\\lib\\genericpath.py', 'PYMODULE'),
  ('posixpath', 'd:\\python37\\lib\\posixpath.py', 'PYMODULE'),
  ('stat', 'd:\\python37\\lib\\stat.py', 'PYMODULE'),
  ('stringprep', 'd:\\python37\\lib\\stringprep.py', 'PYMODULE'),
  ('bz2', 'd:\\python37\\lib\\bz2.py', 'PYMODULE'),
  ('_compression', 'd:\\python37\\lib\\_compression.py', 'PYMODULE'),
  ('quopri', 'd:\\python37\\lib\\quopri.py', 'PYMODULE'),
  ('typing', 'd:\\python37\\lib\\typing.py', 'PYMODULE'),
  ('doctest', 'd:\\python37\\lib\\doctest.py', 'PYMODULE'),
  ('unittest', 'd:\\python37\\lib\\unittest\\__init__.py', 'PYMODULE'),
  ('unittest.signals', 'd:\\python37\\lib\\unittest\\signals.py', 'PYMODULE'),
  ('unittest.main', 'd:\\python37\\lib\\unittest\\main.py', 'PYMODULE'),
  ('unittest.runner', 'd:\\python37\\lib\\unittest\\runner.py', 'PYMODULE'),
  ('unittest.loader', 'd:\\python37\\lib\\unittest\\loader.py', 'PYMODULE'),
  ('fnmatch', 'd:\\python37\\lib\\fnmatch.py', 'PYMODULE'),
  ('unittest.suite', 'd:\\python37\\lib\\unittest\\suite.py', 'PYMODULE'),
  ('unittest.case', 'd:\\python37\\lib\\unittest\\case.py', 'PYMODULE'),
  ('pprint', 'd:\\python37\\lib\\pprint.py', 'PYMODULE'),
  ('logging', 'd:\\python37\\lib\\logging\\__init__.py', 'PYMODULE'),
  ('pickle', 'd:\\python37\\lib\\pickle.py', 'PYMODULE'),
  ('_compat_pickle', 'd:\\python37\\lib\\_compat_pickle.py', 'PYMODULE'),
  ('unittest.result', 'd:\\python37\\lib\\unittest\\result.py', 'PYMODULE'),
  ('unittest.util', 'd:\\python37\\lib\\unittest\\util.py', 'PYMODULE'),
  ('pdb', 'd:\\python37\\lib\\pdb.py', 'PYMODULE'),
  ('pydoc', 'd:\\python37\\lib\\pydoc.py', 'PYMODULE'),
  ('webbrowser', 'd:\\python37\\lib\\webbrowser.py', 'PYMODULE'),
  ('shutil', 'd:\\python37\\lib\\shutil.py', 'PYMODULE'),
  ('zipfile', 'd:\\python37\\lib\\zipfile.py', 'PYMODULE'),
  ('py_compile', 'd:\\python37\\lib\\py_compile.py', 'PYMODULE'),
  ('tarfile', 'd:\\python37\\lib\\tarfile.py', 'PYMODULE'),
  ('gzip', 'd:\\python37\\lib\\gzip.py', 'PYMODULE'),
  ('lzma', 'd:\\python37\\lib\\lzma.py', 'PYMODULE'),
  ('email.message', 'd:\\python37\\lib\\email\\message.py', 'PYMODULE'),
  ('email.policy', 'd:\\python37\\lib\\email\\policy.py', 'PYMODULE'),
  ('email.contentmanager',
   'd:\\python37\\lib\\email\\contentmanager.py',
   'PYMODULE'),
  ('email.quoprimime', 'd:\\python37\\lib\\email\\quoprimime.py', 'PYMODULE'),
  ('email.headerregistry',
   'd:\\python37\\lib\\email\\headerregistry.py',
   'PYMODULE'),
  ('email._header_value_parser',
   'd:\\python37\\lib\\email\\_header_value_parser.py',
   'PYMODULE'),
  ('urllib', 'd:\\python37\\lib\\urllib\\__init__.py', 'PYMODULE'),
  ('email.iterators', 'd:\\python37\\lib\\email\\iterators.py', 'PYMODULE'),
  ('email.generator', 'd:\\python37\\lib\\email\\generator.py', 'PYMODULE'),
  ('random', 'd:\\python37\\lib\\random.py', 'PYMODULE'),
  ('bisect', 'd:\\python37\\lib\\bisect.py', 'PYMODULE'),
  ('hashlib', 'd:\\python37\\lib\\hashlib.py', 'PYMODULE'),
  ('email._encoded_words',
   'd:\\python37\\lib\\email\\_encoded_words.py',
   'PYMODULE'),
  ('email.charset', 'd:\\python37\\lib\\email\\charset.py', 'PYMODULE'),
  ('email.encoders', 'd:\\python37\\lib\\email\\encoders.py', 'PYMODULE'),
  ('email.base64mime', 'd:\\python37\\lib\\email\\base64mime.py', 'PYMODULE'),
  ('email._policybase', 'd:\\python37\\lib\\email\\_policybase.py', 'PYMODULE'),
  ('email.header', 'd:\\python37\\lib\\email\\header.py', 'PYMODULE'),
  ('email.errors', 'd:\\python37\\lib\\email\\errors.py', 'PYMODULE'),
  ('email.utils', 'd:\\python37\\lib\\email\\utils.py', 'PYMODULE'),
  ('email._parseaddr', 'd:\\python37\\lib\\email\\_parseaddr.py', 'PYMODULE'),
  ('email', 'd:\\python37\\lib\\email\\__init__.py', 'PYMODULE'),
  ('email.parser', 'd:\\python37\\lib\\email\\parser.py', 'PYMODULE'),
  ('email.feedparser', 'd:\\python37\\lib\\email\\feedparser.py', 'PYMODULE'),
  ('uu', 'd:\\python37\\lib\\uu.py', 'PYMODULE'),
  ('optparse', 'd:\\python37\\lib\\optparse.py', 'PYMODULE'),
  ('http.server', 'd:\\python37\\lib\\http\\server.py', 'PYMODULE'),
  ('http', 'd:\\python37\\lib\\http\\__init__.py', 'PYMODULE'),
  ('socketserver', 'd:\\python37\\lib\\socketserver.py', 'PYMODULE'),
  ('mimetypes', 'd:\\python37\\lib\\mimetypes.py', 'PYMODULE'),
  ('http.client', 'd:\\python37\\lib\\http\\client.py', 'PYMODULE'),
  ('html', 'd:\\python37\\lib\\html\\__init__.py', 'PYMODULE'),
  ('html.entities', 'd:\\python37\\lib\\html\\entities.py', 'PYMODULE'),
  ('pydoc_data.topics', 'd:\\python37\\lib\\pydoc_data\\topics.py', 'PYMODULE'),
  ('pydoc_data', 'd:\\python37\\lib\\pydoc_data\\__init__.py', 'PYMODULE'),
  ('tty', 'd:\\python37\\lib\\tty.py', 'PYMODULE'),
  ('tempfile', 'd:\\python37\\lib\\tempfile.py', 'PYMODULE'),
  ('urllib.parse', 'd:\\python37\\lib\\urllib\\parse.py', 'PYMODULE'),
  ('tokenize', 'd:\\python37\\lib\\tokenize.py', 'PYMODULE'),
  ('token', 'd:\\python37\\lib\\token.py', 'PYMODULE'),
  ('sysconfig', 'd:\\python37\\lib\\sysconfig.py', 'PYMODULE'),
  ('_osx_support', 'd:\\python37\\lib\\_osx_support.py', 'PYMODULE'),
  ('distutils.log', 'd:\\python37\\lib\\distutils\\log.py', 'PYMODULE'),
  ('distutils', 'd:\\python37\\lib\\distutils\\__init__.py', 'PYMODULE'),
  ('platform', 'd:\\python37\\lib\\platform.py', 'PYMODULE'),
  ('plistlib', 'd:\\python37\\lib\\plistlib.py', 'PYMODULE'),
  ('xml.parsers.expat',
   'd:\\python37\\lib\\xml\\parsers\\expat.py',
   'PYMODULE'),
  ('xml.parsers', 'd:\\python37\\lib\\xml\\parsers\\__init__.py', 'PYMODULE'),
  ('xml', 'd:\\python37\\lib\\xml\\__init__.py', 'PYMODULE'),
  ('xml.sax.expatreader',
   'd:\\python37\\lib\\xml\\sax\\expatreader.py',
   'PYMODULE'),
  ('xml.sax.saxutils', 'd:\\python37\\lib\\xml\\sax\\saxutils.py', 'PYMODULE'),
  ('urllib.request', 'd:\\python37\\lib\\urllib\\request.py', 'PYMODULE'),
  ('getpass', 'd:\\python37\\lib\\getpass.py', 'PYMODULE'),
  ('nturl2path', 'd:\\python37\\lib\\nturl2path.py', 'PYMODULE'),
  ('ftplib', 'd:\\python37\\lib\\ftplib.py', 'PYMODULE'),
  ('netrc', 'd:\\python37\\lib\\netrc.py', 'PYMODULE'),
  ('http.cookiejar', 'd:\\python37\\lib\\http\\cookiejar.py', 'PYMODULE'),
  ('urllib.response', 'd:\\python37\\lib\\urllib\\response.py', 'PYMODULE'),
  ('urllib.error', 'd:\\python37\\lib\\urllib\\error.py', 'PYMODULE'),
  ('xml.sax', 'd:\\python37\\lib\\xml\\sax\\__init__.py', 'PYMODULE'),
  ('xml.sax.handler', 'd:\\python37\\lib\\xml\\sax\\handler.py', 'PYMODULE'),
  ('xml.sax._exceptions',
   'd:\\python37\\lib\\xml\\sax\\_exceptions.py',
   'PYMODULE'),
  ('xml.sax.xmlreader',
   'd:\\python37\\lib\\xml\\sax\\xmlreader.py',
   'PYMODULE'),
  ('pkgutil', 'd:\\python37\\lib\\pkgutil.py', 'PYMODULE'),
  ('importlib', 'd:\\python37\\lib\\importlib\\__init__.py', 'PYMODULE'),
  ('importlib.abc', 'd:\\python37\\lib\\importlib\\abc.py', 'PYMODULE'),
  ('importlib.util', 'd:\\python37\\lib\\importlib\\util.py', 'PYMODULE'),
  ('importlib.machinery',
   'd:\\python37\\lib\\importlib\\machinery.py',
   'PYMODULE'),
  ('importlib._bootstrap_external',
   'd:\\python37\\lib\\importlib\\_bootstrap_external.py',
   'PYMODULE'),
  ('importlib._bootstrap',
   'd:\\python37\\lib\\importlib\\_bootstrap.py',
   'PYMODULE'),
  ('runpy', 'd:\\python37\\lib\\runpy.py', 'PYMODULE'),
  ('shlex', 'd:\\python37\\lib\\shlex.py', 'PYMODULE'),
  ('glob', 'd:\\python37\\lib\\glob.py', 'PYMODULE'),
  ('code', 'd:\\python37\\lib\\code.py', 'PYMODULE'),
  ('codeop', 'd:\\python37\\lib\\codeop.py', 'PYMODULE'),
  ('dis', 'd:\\python37\\lib\\dis.py', 'PYMODULE'),
  ('opcode', 'd:\\python37\\lib\\opcode.py', 'PYMODULE'),
  ('bdb', 'd:\\python37\\lib\\bdb.py', 'PYMODULE'),
  ('cmd', 'd:\\python37\\lib\\cmd.py', 'PYMODULE'),
  ('inspect', 'd:\\python37\\lib\\inspect.py', 'PYMODULE'),
  ('ast', 'd:\\python37\\lib\\ast.py', 'PYMODULE'),
  ('difflib', 'd:\\python37\\lib\\difflib.py', 'PYMODULE'),
  ('__future__', 'd:\\python37\\lib\\__future__.py', 'PYMODULE'),
  ('_py_abc', 'd:\\python37\\lib\\_py_abc.py', 'PYMODULE'),
  ('tracemalloc', 'd:\\python37\\lib\\tracemalloc.py', 'PYMODULE'),
  ('requests',
   'd:\\python37\\lib\\site-packages\\requests\\__init__.py',
   'PYMODULE'),
  ('requests.status_codes',
   'd:\\python37\\lib\\site-packages\\requests\\status_codes.py',
   'PYMODULE'),
  ('requests.structures',
   'd:\\python37\\lib\\site-packages\\requests\\structures.py',
   'PYMODULE'),
  ('requests.compat',
   'd:\\python37\\lib\\site-packages\\requests\\compat.py',
   'PYMODULE'),
  ('http.cookies', 'd:\\python37\\lib\\http\\cookies.py', 'PYMODULE'),
  ('requests.api',
   'd:\\python37\\lib\\site-packages\\requests\\api.py',
   'PYMODULE'),
  ('requests.sessions',
   'd:\\python37\\lib\\site-packages\\requests\\sessions.py',
   'PYMODULE'),
  ('requests.adapters',
   'd:\\python37\\lib\\site-packages\\requests\\adapters.py',
   'PYMODULE'),
  ('urllib3.contrib.socks',
   'd:\\python37\\lib\\site-packages\\urllib3\\contrib\\socks.py',
   'PYMODULE'),
  ('urllib3.util.url',
   'd:\\python37\\lib\\site-packages\\urllib3\\util\\url.py',
   'PYMODULE'),
  ('idna', 'd:\\python37\\lib\\site-packages\\idna\\__init__.py', 'PYMODULE'),
  ('idna.core', 'd:\\python37\\lib\\site-packages\\idna\\core.py', 'PYMODULE'),
  ('idna.uts46data',
   'd:\\python37\\lib\\site-packages\\idna\\uts46data.py',
   'PYMODULE'),
  ('idna.intranges',
   'd:\\python37\\lib\\site-packages\\idna\\intranges.py',
   'PYMODULE'),
  ('idna.idnadata',
   'd:\\python37\\lib\\site-packages\\idna\\idnadata.py',
   'PYMODULE'),
  ('idna.package_data',
   'd:\\python37\\lib\\site-packages\\idna\\package_data.py',
   'PYMODULE'),
  ('urllib3.packages.six',
   'd:\\python37\\lib\\site-packages\\urllib3\\packages\\six.py',
   'PYMODULE'),
  ('urllib3.packages',
   'd:\\python37\\lib\\site-packages\\urllib3\\packages\\__init__.py',
   'PYMODULE'),
  ('urllib3.packages.ssl_match_hostname',
   'd:\\python37\\lib\\site-packages\\urllib3\\packages\\ssl_match_hostname\\__init__.py',
   'PYMODULE'),
  ('urllib3.packages.ssl_match_hostname._implementation',
   'd:\\python37\\lib\\site-packages\\urllib3\\packages\\ssl_match_hostname\\_implementation.py',
   'PYMODULE'),
  ('ipaddress', 'd:\\python37\\lib\\ipaddress.py', 'PYMODULE'),
  ('urllib3.connectionpool',
   'd:\\python37\\lib\\site-packages\\urllib3\\connectionpool.py',
   'PYMODULE'),
  ('urllib3.util.queue',
   'd:\\python37\\lib\\site-packages\\urllib3\\util\\queue.py',
   'PYMODULE'),
  ('urllib3.util.timeout',
   'd:\\python37\\lib\\site-packages\\urllib3\\util\\timeout.py',
   'PYMODULE'),
  ('urllib3.util.response',
   'd:\\python37\\lib\\site-packages\\urllib3\\util\\response.py',
   'PYMODULE'),
  ('urllib3.util.request',
   'd:\\python37\\lib\\site-packages\\urllib3\\util\\request.py',
   'PYMODULE'),
  ('urllib3.util.connection',
   'd:\\python37\\lib\\site-packages\\urllib3\\util\\connection.py',
   'PYMODULE'),
  ('urllib3.contrib._appengine_environ',
   'd:\\python37\\lib\\site-packages\\urllib3\\contrib\\_appengine_environ.py',
   'PYMODULE'),
  ('urllib3.util.wait',
   'd:\\python37\\lib\\site-packages\\urllib3\\util\\wait.py',
   'PYMODULE'),
  ('urllib3.request',
   'd:\\python37\\lib\\site-packages\\urllib3\\request.py',
   'PYMODULE'),
  ('urllib3.filepost',
   'd:\\python37\\lib\\site-packages\\urllib3\\filepost.py',
   'PYMODULE'),
  ('urllib3.fields',
   'd:\\python37\\lib\\site-packages\\urllib3\\fields.py',
   'PYMODULE'),
  ('queue', 'd:\\python37\\lib\\queue.py', 'PYMODULE'),
  ('urllib3.connection',
   'd:\\python37\\lib\\site-packages\\urllib3\\connection.py',
   'PYMODULE'),
  ('urllib3._collections',
   'd:\\python37\\lib\\site-packages\\urllib3\\_collections.py',
   'PYMODULE'),
  ('urllib3.util.ssl_',
   'd:\\python37\\lib\\site-packages\\urllib3\\util\\ssl_.py',
   'PYMODULE'),
  ('hmac', 'd:\\python37\\lib\\hmac.py', 'PYMODULE'),
  ('urllib3.util.retry',
   'd:\\python37\\lib\\site-packages\\urllib3\\util\\retry.py',
   'PYMODULE'),
  ('urllib3.util',
   'd:\\python37\\lib\\site-packages\\urllib3\\util\\__init__.py',
   'PYMODULE'),
  ('urllib3.response',
   'd:\\python37\\lib\\site-packages\\urllib3\\response.py',
   'PYMODULE'),
  ('urllib3.poolmanager',
   'd:\\python37\\lib\\site-packages\\urllib3\\poolmanager.py',
   'PYMODULE'),
  ('requests._internal_utils',
   'd:\\python37\\lib\\site-packages\\requests\\_internal_utils.py',
   'PYMODULE'),
  ('requests.hooks',
   'd:\\python37\\lib\\site-packages\\requests\\hooks.py',
   'PYMODULE'),
  ('requests.cookies',
   'd:\\python37\\lib\\site-packages\\requests\\cookies.py',
   'PYMODULE'),
  ('dummy_threading', 'd:\\python37\\lib\\dummy_threading.py', 'PYMODULE'),
  ('_dummy_thread', 'd:\\python37\\lib\\_dummy_thread.py', 'PYMODULE'),
  ('requests.auth',
   'd:\\python37\\lib\\site-packages\\requests\\auth.py',
   'PYMODULE'),
  ('requests.models',
   'd:\\python37\\lib\\site-packages\\requests\\models.py',
   'PYMODULE'),
  ('requests.packages',
   'd:\\python37\\lib\\site-packages\\requests\\packages.py',
   'PYMODULE'),
  ('requests.utils',
   'd:\\python37\\lib\\site-packages\\requests\\utils.py',
   'PYMODULE'),
  ('requests.certs',
   'd:\\python37\\lib\\site-packages\\requests\\certs.py',
   'PYMODULE'),
  ('certifi',
   'd:\\python37\\lib\\site-packages\\certifi\\__init__.py',
   'PYMODULE'),
  ('certifi.core',
   'd:\\python37\\lib\\site-packages\\certifi\\core.py',
   'PYMODULE'),
  ('importlib.resources',
   'd:\\python37\\lib\\importlib\\resources.py',
   'PYMODULE'),
  ('pathlib', 'd:\\python37\\lib\\pathlib.py', 'PYMODULE'),
  ('requests.__version__',
   'd:\\python37\\lib\\site-packages\\requests\\__version__.py',
   'PYMODULE'),
  ('urllib3.exceptions',
   'd:\\python37\\lib\\site-packages\\urllib3\\exceptions.py',
   'PYMODULE'),
  ('cryptography',
   'd:\\python37\\lib\\site-packages\\cryptography\\__init__.py',
   'PYMODULE'),
  ('cryptography.hazmat.bindings.openssl.binding',
   'd:\\python37\\lib\\site-packages\\cryptography\\hazmat\\bindings\\openssl\\binding.py',
   'PYMODULE'),
  ('cryptography.hazmat.bindings',
   'd:\\python37\\lib\\site-packages\\cryptography\\hazmat\\bindings\\__init__.py',
   'PYMODULE'),
  ('cryptography.hazmat',
   'd:\\python37\\lib\\site-packages\\cryptography\\hazmat\\__init__.py',
   'PYMODULE'),
  ('cryptography.exceptions',
   'd:\\python37\\lib\\site-packages\\cryptography\\exceptions.py',
   'PYMODULE'),
  ('cryptography.hazmat.bindings.openssl._conditional',
   'd:\\python37\\lib\\site-packages\\cryptography\\hazmat\\bindings\\openssl\\_conditional.py',
   'PYMODULE'),
  ('cryptography.hazmat.bindings.openssl',
   'd:\\python37\\lib\\site-packages\\cryptography\\hazmat\\bindings\\openssl\\__init__.py',
   'PYMODULE'),
  ('cryptography.hazmat.backends.openssl.x448',
   'd:\\python37\\lib\\site-packages\\cryptography\\hazmat\\backends\\openssl\\x448.py',
   'PYMODULE'),
  ('cryptography.hazmat.primitives.asymmetric.x448',
   'd:\\python37\\lib\\site-packages\\cryptography\\hazmat\\primitives\\asymmetric\\x448.py',
   'PYMODULE'),
  ('cryptography.hazmat.primitives.asymmetric',
   'd:\\python37\\lib\\site-packages\\cryptography\\hazmat\\primitives\\asymmetric\\__init__.py',
   'PYMODULE'),
  ('cryptography.hazmat.primitives.asymmetric.dh',
   'd:\\python37\\lib\\site-packages\\cryptography\\hazmat\\primitives\\asymmetric\\dh.py',
   'PYMODULE'),
  ('cryptography.hazmat.primitives.asymmetric.rsa',
   'd:\\python37\\lib\\site-packages\\cryptography\\hazmat\\primitives\\asymmetric\\rsa.py',
   'PYMODULE'),
  ('fractions', 'd:\\python37\\lib\\fractions.py', 'PYMODULE'),
  ('numbers', 'd:\\python37\\lib\\numbers.py', 'PYMODULE'),
  ('decimal', 'd:\\python37\\lib\\decimal.py', 'PYMODULE'),
  ('_pydecimal', 'd:\\python37\\lib\\_pydecimal.py', 'PYMODULE'),
  ('contextvars', 'd:\\python37\\lib\\contextvars.py', 'PYMODULE'),
  ('cryptography.hazmat.primitives.asymmetric.ed25519',
   'd:\\python37\\lib\\site-packages\\cryptography\\hazmat\\primitives\\asymmetric\\ed25519.py',
   'PYMODULE'),
  ('cryptography.hazmat.primitives.asymmetric.ec',
   'd:\\python37\\lib\\site-packages\\cryptography\\hazmat\\primitives\\asymmetric\\ec.py',
   'PYMODULE'),
  ('cryptography.hazmat._oid',
   'd:\\python37\\lib\\site-packages\\cryptography\\hazmat\\_oid.py',
   'PYMODULE'),
  ('cryptography.x509.oid',
   'd:\\python37\\lib\\site-packages\\cryptography\\x509\\oid.py',
   'PYMODULE'),
  ('cryptography.hazmat.primitives.hashes',
   'd:\\python37\\lib\\site-packages\\cryptography\\hazmat\\primitives\\hashes.py',
   'PYMODULE'),
  ('cryptography.hazmat.primitives.asymmetric.dsa',
   'd:\\python37\\lib\\site-packages\\cryptography\\hazmat\\primitives\\asymmetric\\dsa.py',
   'PYMODULE'),
  ('six', 'd:\\python37\\lib\\site-packages\\six.py', 'PYMODULE'),
  ('cryptography.hazmat.primitives.serialization',
   'd:\\python37\\lib\\site-packages\\cryptography\\hazmat\\primitives\\serialization\\__init__.py',
   'PYMODULE'),
  ('cryptography.hazmat.primitives.serialization.pkcs7',
   'd:\\python37\\lib\\site-packages\\cryptography\\hazmat\\primitives\\serialization\\pkcs7.py',
   'PYMODULE'),
  ('cryptography.hazmat.primitives.serialization.ssh',
   'd:\\python37\\lib\\site-packages\\cryptography\\hazmat\\primitives\\serialization\\ssh.py',
   'PYMODULE'),
  ('cryptography.hazmat.primitives.ciphers.modes',
   'd:\\python37\\lib\\site-packages\\cryptography\\hazmat\\primitives\\ciphers\\modes.py',
   'PYMODULE'),
  ('cryptography.hazmat.primitives.ciphers.algorithms',
   'd:\\python37\\lib\\site-packages\\cryptography\\hazmat\\primitives\\ciphers\\algorithms.py',
   'PYMODULE'),
  ('cryptography.hazmat.primitives.ciphers',
   'd:\\python37\\lib\\site-packages\\cryptography\\hazmat\\primitives\\ciphers\\__init__.py',
   'PYMODULE'),
  ('cryptography.hazmat.primitives.ciphers.base',
   'd:\\python37\\lib\\site-packages\\cryptography\\hazmat\\primitives\\ciphers\\base.py',
   'PYMODULE'),
  ('cryptography.hazmat.primitives.serialization.base',
   'd:\\python37\\lib\\site-packages\\cryptography\\hazmat\\primitives\\serialization\\base.py',
   'PYMODULE'),
  ('cryptography.hazmat.primitives',
   'd:\\python37\\lib\\site-packages\\cryptography\\hazmat\\primitives\\__init__.py',
   'PYMODULE'),
  ('cryptography.hazmat.primitives.constant_time',
   'd:\\python37\\lib\\site-packages\\cryptography\\hazmat\\primitives\\constant_time.py',
   'PYMODULE'),
  ('cryptography.hazmat.backends.openssl.x25519',
   'd:\\python37\\lib\\site-packages\\cryptography\\hazmat\\backends\\openssl\\x25519.py',
   'PYMODULE'),
  ('cryptography.hazmat.primitives.asymmetric.x25519',
   'd:\\python37\\lib\\site-packages\\cryptography\\hazmat\\primitives\\asymmetric\\x25519.py',
   'PYMODULE'),
  ('cryptography.hazmat.backends.openssl',
   'd:\\python37\\lib\\site-packages\\cryptography\\hazmat\\backends\\openssl\\__init__.py',
   'PYMODULE'),
  ('cryptography.hazmat.backends.openssl.encode_asn1',
   'd:\\python37\\lib\\site-packages\\cryptography\\hazmat\\backends\\openssl\\encode_asn1.py',
   'PYMODULE'),
  ('cryptography.x509.name',
   'd:\\python37\\lib\\site-packages\\cryptography\\x509\\name.py',
   'PYMODULE'),
  ('cryptography.hazmat.backends.openssl.dsa',
   'd:\\python37\\lib\\site-packages\\cryptography\\hazmat\\backends\\openssl\\dsa.py',
   'PYMODULE'),
  ('cryptography.hazmat.backends.openssl.poly1305',
   'd:\\python37\\lib\\site-packages\\cryptography\\hazmat\\backends\\openssl\\poly1305.py',
   'PYMODULE'),
  ('cryptography.hazmat.backends.openssl.x509',
   'd:\\python37\\lib\\site-packages\\cryptography\\hazmat\\backends\\openssl\\x509.py',
   'PYMODULE'),
  ('cryptography.hazmat.backends.openssl.ed25519',
   'd:\\python37\\lib\\site-packages\\cryptography\\hazmat\\backends\\openssl\\ed25519.py',
   'PYMODULE'),
  ('cryptography.hazmat.backends.openssl.ocsp',
   'd:\\python37\\lib\\site-packages\\cryptography\\hazmat\\backends\\openssl\\ocsp.py',
   'PYMODULE'),
  ('cryptography.x509.ocsp',
   'd:\\python37\\lib\\site-packages\\cryptography\\x509\\ocsp.py',
   'PYMODULE'),
  ('cryptography.x509.base',
   'd:\\python37\\lib\\site-packages\\cryptography\\x509\\base.py',
   'PYMODULE'),
  ('cryptography.x509.extensions',
   'd:\\python37\\lib\\site-packages\\cryptography\\x509\\extensions.py',
   'PYMODULE'),
  ('cryptography.x509.general_name',
   'd:\\python37\\lib\\site-packages\\cryptography\\x509\\general_name.py',
   'PYMODULE'),
  ('cryptography.x509.certificate_transparency',
   'd:\\python37\\lib\\site-packages\\cryptography\\x509\\certificate_transparency.py',
   'PYMODULE'),
  ('cryptography.hazmat._der',
   'd:\\python37\\lib\\site-packages\\cryptography\\hazmat\\_der.py',
   'PYMODULE'),
  ('cryptography.hazmat.primitives.asymmetric.ed448',
   'd:\\python37\\lib\\site-packages\\cryptography\\hazmat\\primitives\\asymmetric\\ed448.py',
   'PYMODULE'),
  ('cryptography.hazmat.backends.openssl.hmac',
   'd:\\python37\\lib\\site-packages\\cryptography\\hazmat\\backends\\openssl\\hmac.py',
   'PYMODULE'),
  ('cryptography.hazmat.backends.openssl.cmac',
   'd:\\python37\\lib\\site-packages\\cryptography\\hazmat\\backends\\openssl\\cmac.py',
   'PYMODULE'),
  ('cryptography.hazmat.backends.openssl.utils',
   'd:\\python37\\lib\\site-packages\\cryptography\\hazmat\\backends\\openssl\\utils.py',
   'PYMODULE'),
  ('cryptography.hazmat.primitives.asymmetric.utils',
   'd:\\python37\\lib\\site-packages\\cryptography\\hazmat\\primitives\\asymmetric\\utils.py',
   'PYMODULE'),
  ('cryptography.hazmat.backends.openssl.hashes',
   'd:\\python37\\lib\\site-packages\\cryptography\\hazmat\\backends\\openssl\\hashes.py',
   'PYMODULE'),
  ('cryptography.hazmat.backends.openssl.rsa',
   'd:\\python37\\lib\\site-packages\\cryptography\\hazmat\\backends\\openssl\\rsa.py',
   'PYMODULE'),
  ('cryptography.hazmat.primitives.asymmetric.padding',
   'd:\\python37\\lib\\site-packages\\cryptography\\hazmat\\primitives\\asymmetric\\padding.py',
   'PYMODULE'),
  ('cryptography.hazmat.backends',
   'd:\\python37\\lib\\site-packages\\cryptography\\hazmat\\backends\\__init__.py',
   'PYMODULE'),
  ('cryptography.hazmat.backends.openssl.dh',
   'd:\\python37\\lib\\site-packages\\cryptography\\hazmat\\backends\\openssl\\dh.py',
   'PYMODULE'),
  ('cryptography.hazmat.backends.openssl.backend',
   'd:\\python37\\lib\\site-packages\\cryptography\\hazmat\\backends\\openssl\\backend.py',
   'PYMODULE'),
  ('cryptography.hazmat.primitives.kdf.scrypt',
   'd:\\python37\\lib\\site-packages\\cryptography\\hazmat\\primitives\\kdf\\scrypt.py',
   'PYMODULE'),
  ('cryptography.hazmat.primitives.kdf',
   'd:\\python37\\lib\\site-packages\\cryptography\\hazmat\\primitives\\kdf\\__init__.py',
   'PYMODULE'),
  ('cryptography.hazmat.backends.openssl.ed448',
   'd:\\python37\\lib\\site-packages\\cryptography\\hazmat\\backends\\openssl\\ed448.py',
   'PYMODULE'),
  ('cryptography.hazmat.backends.openssl.decode_asn1',
   'd:\\python37\\lib\\site-packages\\cryptography\\hazmat\\backends\\openssl\\decode_asn1.py',
   'PYMODULE'),
  ('cryptography.hazmat.backends.interfaces',
   'd:\\python37\\lib\\site-packages\\cryptography\\hazmat\\backends\\interfaces.py',
   'PYMODULE'),
  ('cryptography.hazmat.backends.openssl.ec',
   'd:\\python37\\lib\\site-packages\\cryptography\\hazmat\\backends\\openssl\\ec.py',
   'PYMODULE'),
  ('cryptography.hazmat.backends.openssl.ciphers',
   'd:\\python37\\lib\\site-packages\\cryptography\\hazmat\\backends\\openssl\\ciphers.py',
   'PYMODULE'),
  ('cryptography.hazmat.backends.openssl.aead',
   'd:\\python37\\lib\\site-packages\\cryptography\\hazmat\\backends\\openssl\\aead.py',
   'PYMODULE'),
  ('cryptography.hazmat.primitives.ciphers.aead',
   'd:\\python37\\lib\\site-packages\\cryptography\\hazmat\\primitives\\ciphers\\aead.py',
   'PYMODULE'),
  ('cryptography.x509',
   'd:\\python37\\lib\\site-packages\\cryptography\\x509\\__init__.py',
   'PYMODULE'),
  ('cryptography.utils',
   'd:\\python37\\lib\\site-packages\\cryptography\\utils.py',
   'PYMODULE'),
  ('cryptography.__about__',
   'd:\\python37\\lib\\site-packages\\cryptography\\__about__.py',
   'PYMODULE'),
  ('urllib3.contrib.pyopenssl',
   'd:\\python37\\lib\\site-packages\\urllib3\\contrib\\pyopenssl.py',
   'PYMODULE'),
  ('OpenSSL.crypto',
   'd:\\python37\\lib\\site-packages\\OpenSSL\\crypto.py',
   'PYMODULE'),
  ('OpenSSL',
   'd:\\python37\\lib\\site-packages\\OpenSSL\\__init__.py',
   'PYMODULE'),
  ('OpenSSL.version',
   'd:\\python37\\lib\\site-packages\\OpenSSL\\version.py',
   'PYMODULE'),
  ('OpenSSL._util',
   'd:\\python37\\lib\\site-packages\\OpenSSL\\_util.py',
   'PYMODULE'),
  ('urllib3.packages.backports.makefile',
   'd:\\python37\\lib\\site-packages\\urllib3\\packages\\backports\\makefile.py',
   'PYMODULE'),
  ('urllib3.packages.backports',
   'd:\\python37\\lib\\site-packages\\urllib3\\packages\\backports\\__init__.py',
   'PYMODULE'),
  ('OpenSSL.SSL',
   'd:\\python37\\lib\\site-packages\\OpenSSL\\SSL.py',
   'PYMODULE'),
  ('urllib3.contrib',
   'd:\\python37\\lib\\site-packages\\urllib3\\contrib\\__init__.py',
   'PYMODULE'),
  ('requests.exceptions',
   'd:\\python37\\lib\\site-packages\\requests\\exceptions.py',
   'PYMODULE'),
  ('chardet',
   'd:\\python37\\lib\\site-packages\\chardet\\__init__.py',
   'PYMODULE'),
  ('chardet.version',
   'd:\\python37\\lib\\site-packages\\chardet\\version.py',
   'PYMODULE'),
  ('chardet.universaldetector',
   'd:\\python37\\lib\\site-packages\\chardet\\universaldetector.py',
   'PYMODULE'),
  ('chardet.sbcsgroupprober',
   'd:\\python37\\lib\\site-packages\\chardet\\sbcsgroupprober.py',
   'PYMODULE'),
  ('chardet.langturkishmodel',
   'd:\\python37\\lib\\site-packages\\chardet\\langturkishmodel.py',
   'PYMODULE'),
  ('chardet.hebrewprober',
   'd:\\python37\\lib\\site-packages\\chardet\\hebrewprober.py',
   'PYMODULE'),
  ('chardet.charsetprober',
   'd:\\python37\\lib\\site-packages\\chardet\\charsetprober.py',
   'PYMODULE'),
  ('chardet.langhebrewmodel',
   'd:\\python37\\lib\\site-packages\\chardet\\langhebrewmodel.py',
   'PYMODULE'),
  ('chardet.langthaimodel',
   'd:\\python37\\lib\\site-packages\\chardet\\langthaimodel.py',
   'PYMODULE'),
  ('chardet.langbulgarianmodel',
   'd:\\python37\\lib\\site-packages\\chardet\\langbulgarianmodel.py',
   'PYMODULE'),
  ('chardet.langgreekmodel',
   'd:\\python37\\lib\\site-packages\\chardet\\langgreekmodel.py',
   'PYMODULE'),
  ('chardet.langcyrillicmodel',
   'd:\\python37\\lib\\site-packages\\chardet\\langcyrillicmodel.py',
   'PYMODULE'),
  ('chardet.sbcharsetprober',
   'd:\\python37\\lib\\site-packages\\chardet\\sbcharsetprober.py',
   'PYMODULE'),
  ('chardet.mbcsgroupprober',
   'd:\\python37\\lib\\site-packages\\chardet\\mbcsgroupprober.py',
   'PYMODULE'),
  ('chardet.euctwprober',
   'd:\\python37\\lib\\site-packages\\chardet\\euctwprober.py',
   'PYMODULE'),
  ('chardet.mbcssm',
   'd:\\python37\\lib\\site-packages\\chardet\\mbcssm.py',
   'PYMODULE'),
  ('chardet.chardistribution',
   'd:\\python37\\lib\\site-packages\\chardet\\chardistribution.py',
   'PYMODULE'),
  ('chardet.jisfreq',
   'd:\\python37\\lib\\site-packages\\chardet\\jisfreq.py',
   'PYMODULE'),
  ('chardet.big5freq',
   'd:\\python37\\lib\\site-packages\\chardet\\big5freq.py',
   'PYMODULE'),
  ('chardet.gb2312freq',
   'd:\\python37\\lib\\site-packages\\chardet\\gb2312freq.py',
   'PYMODULE'),
  ('chardet.euckrfreq',
   'd:\\python37\\lib\\site-packages\\chardet\\euckrfreq.py',
   'PYMODULE'),
  ('chardet.euctwfreq',
   'd:\\python37\\lib\\site-packages\\chardet\\euctwfreq.py',
   'PYMODULE'),
  ('chardet.codingstatemachine',
   'd:\\python37\\lib\\site-packages\\chardet\\codingstatemachine.py',
   'PYMODULE'),
  ('chardet.mbcharsetprober',
   'd:\\python37\\lib\\site-packages\\chardet\\mbcharsetprober.py',
   'PYMODULE'),
  ('chardet.big5prober',
   'd:\\python37\\lib\\site-packages\\chardet\\big5prober.py',
   'PYMODULE'),
  ('chardet.cp949prober',
   'd:\\python37\\lib\\site-packages\\chardet\\cp949prober.py',
   'PYMODULE'),
  ('chardet.euckrprober',
   'd:\\python37\\lib\\site-packages\\chardet\\euckrprober.py',
   'PYMODULE'),
  ('chardet.gb2312prober',
   'd:\\python37\\lib\\site-packages\\chardet\\gb2312prober.py',
   'PYMODULE'),
  ('chardet.eucjpprober',
   'd:\\python37\\lib\\site-packages\\chardet\\eucjpprober.py',
   'PYMODULE'),
  ('chardet.jpcntx',
   'd:\\python37\\lib\\site-packages\\chardet\\jpcntx.py',
   'PYMODULE'),
  ('chardet.sjisprober',
   'd:\\python37\\lib\\site-packages\\chardet\\sjisprober.py',
   'PYMODULE'),
  ('chardet.utf8prober',
   'd:\\python37\\lib\\site-packages\\chardet\\utf8prober.py',
   'PYMODULE'),
  ('chardet.latin1prober',
   'd:\\python37\\lib\\site-packages\\chardet\\latin1prober.py',
   'PYMODULE'),
  ('chardet.escprober',
   'd:\\python37\\lib\\site-packages\\chardet\\escprober.py',
   'PYMODULE'),
  ('chardet.escsm',
   'd:\\python37\\lib\\site-packages\\chardet\\escsm.py',
   'PYMODULE'),
  ('chardet.enums',
   'd:\\python37\\lib\\site-packages\\chardet\\enums.py',
   'PYMODULE'),
  ('chardet.charsetgroupprober',
   'd:\\python37\\lib\\site-packages\\chardet\\charsetgroupprober.py',
   'PYMODULE'),
  ('chardet.compat',
   'd:\\python37\\lib\\site-packages\\chardet\\compat.py',
   'PYMODULE'),
  ('urllib3',
   'd:\\python37\\lib\\site-packages\\urllib3\\__init__.py',
   'PYMODULE'),
  ('urllib3._version',
   'd:\\python37\\lib\\site-packages\\urllib3\\_version.py',
   'PYMODULE'),
  ('json', 'd:\\python37\\lib\\json\\__init__.py', 'PYMODULE'),
  ('json.encoder', 'd:\\python37\\lib\\json\\encoder.py', 'PYMODULE'),
  ('json.decoder', 'd:\\python37\\lib\\json\\decoder.py', 'PYMODULE'),
  ('json.scanner', 'd:\\python37\\lib\\json\\scanner.py', 'PYMODULE')],
 [('api-ms-win-crt-locale-l1-1-0.dll',
   'C:\\WINDOWS\\system32\\api-ms-win-crt-locale-l1-1-0.dll',
   'BINARY'),
  ('api-ms-win-crt-heap-l1-1-0.dll',
   'C:\\WINDOWS\\system32\\api-ms-win-crt-heap-l1-1-0.dll',
   'BINARY'),
  ('api-ms-win-crt-math-l1-1-0.dll',
   'C:\\WINDOWS\\system32\\api-ms-win-crt-math-l1-1-0.dll',
   'BINARY'),
  ('VCRUNTIME140.dll', 'd:\\python37\\VCRUNTIME140.dll', 'BINARY'),
  ('python37.dll', 'd:\\python37\\python37.dll', 'BINARY'),
  ('api-ms-win-crt-runtime-l1-1-0.dll',
   'C:\\WINDOWS\\system32\\api-ms-win-crt-runtime-l1-1-0.dll',
   'BINARY'),
  ('api-ms-win-crt-stdio-l1-1-0.dll',
   'C:\\WINDOWS\\system32\\api-ms-win-crt-stdio-l1-1-0.dll',
   'BINARY'),
  ('ucrtbase.dll', 'C:\\WINDOWS\\system32\\ucrtbase.dll', 'BINARY'),
  ('api-ms-win-crt-string-l1-1-0.dll',
   'C:\\WINDOWS\\system32\\api-ms-win-crt-string-l1-1-0.dll',
   'BINARY'),
  ('api-ms-win-crt-convert-l1-1-0.dll',
   'C:\\WINDOWS\\system32\\api-ms-win-crt-convert-l1-1-0.dll',
   'BINARY'),
  ('api-ms-win-crt-conio-l1-1-0.dll',
   'C:\\WINDOWS\\system32\\api-ms-win-crt-conio-l1-1-0.dll',
   'BINARY'),
  ('api-ms-win-crt-process-l1-1-0.dll',
   'C:\\WINDOWS\\system32\\api-ms-win-crt-process-l1-1-0.dll',
   'BINARY'),
  ('api-ms-win-crt-environment-l1-1-0.dll',
   'C:\\WINDOWS\\system32\\api-ms-win-crt-environment-l1-1-0.dll',
   'BINARY'),
  ('api-ms-win-crt-time-l1-1-0.dll',
   'C:\\WINDOWS\\system32\\api-ms-win-crt-time-l1-1-0.dll',
   'BINARY'),
  ('api-ms-win-crt-filesystem-l1-1-0.dll',
   'C:\\WINDOWS\\system32\\api-ms-win-crt-filesystem-l1-1-0.dll',
   'BINARY'),
  ('api-ms-win-core-processthreads-l1-1-0.dll',
   'C:\\WINDOWS\\system32\\api-ms-win-core-processthreads-l1-1-0.dll',
   'BINARY'),
  ('api-ms-win-core-localization-l1-2-0.dll',
   'C:\\WINDOWS\\system32\\api-ms-win-core-localization-l1-2-0.dll',
   'BINARY'),
  ('api-ms-win-core-synch-l1-1-0.dll',
   'C:\\WINDOWS\\system32\\api-ms-win-core-synch-l1-1-0.dll',
   'BINARY'),
  ('api-ms-win-core-file-l2-1-0.dll',
   'C:\\WINDOWS\\system32\\api-ms-win-core-file-l2-1-0.dll',
   'BINARY'),
  ('api-ms-win-core-synch-l1-2-0.dll',
   'C:\\WINDOWS\\system32\\api-ms-win-core-synch-l1-2-0.dll',
   'BINARY'),
  ('api-ms-win-core-profile-l1-1-0.dll',
   'C:\\WINDOWS\\system32\\api-ms-win-core-profile-l1-1-0.dll',
   'BINARY'),
  ('api-ms-win-core-processenvironment-l1-1-0.dll',
   'C:\\WINDOWS\\system32\\api-ms-win-core-processenvironment-l1-1-0.dll',
   'BINARY'),
  ('api-ms-win-core-rtlsupport-l1-1-0.dll',
   'C:\\WINDOWS\\system32\\api-ms-win-core-rtlsupport-l1-1-0.dll',
   'BINARY'),
  ('api-ms-win-core-sysinfo-l1-1-0.dll',
   'C:\\WINDOWS\\system32\\api-ms-win-core-sysinfo-l1-1-0.dll',
   'BINARY'),
  ('api-ms-win-core-libraryloader-l1-1-0.dll',
   'C:\\WINDOWS\\system32\\api-ms-win-core-libraryloader-l1-1-0.dll',
   'BINARY'),
  ('api-ms-win-core-processthreads-l1-1-1.dll',
   'C:\\WINDOWS\\system32\\api-ms-win-core-processthreads-l1-1-1.dll',
   'BINARY'),
  ('api-ms-win-core-errorhandling-l1-1-0.dll',
   'C:\\WINDOWS\\system32\\api-ms-win-core-errorhandling-l1-1-0.dll',
   'BINARY'),
  ('api-ms-win-core-interlocked-l1-1-0.dll',
   'C:\\WINDOWS\\system32\\api-ms-win-core-interlocked-l1-1-0.dll',
   'BINARY'),
  ('api-ms-win-core-string-l1-1-0.dll',
   'C:\\WINDOWS\\system32\\api-ms-win-core-string-l1-1-0.dll',
   'BINARY'),
  ('api-ms-win-core-timezone-l1-1-0.dll',
   'C:\\WINDOWS\\system32\\api-ms-win-core-timezone-l1-1-0.dll',
   'BINARY'),
  ('api-ms-win-core-file-l1-2-0.dll',
   'C:\\WINDOWS\\system32\\api-ms-win-core-file-l1-2-0.dll',
   'BINARY'),
  ('api-ms-win-core-util-l1-1-0.dll',
   'C:\\WINDOWS\\system32\\api-ms-win-core-util-l1-1-0.dll',
   'BINARY'),
  ('api-ms-win-core-file-l1-1-0.dll',
   'C:\\WINDOWS\\system32\\api-ms-win-core-file-l1-1-0.dll',
   'BINARY'),
  ('api-ms-win-core-handle-l1-1-0.dll',
   'C:\\WINDOWS\\system32\\api-ms-win-core-handle-l1-1-0.dll',
   'BINARY'),
  ('api-ms-win-core-datetime-l1-1-0.dll',
   'C:\\WINDOWS\\system32\\api-ms-win-core-datetime-l1-1-0.dll',
   'BINARY'),
  ('api-ms-win-core-console-l1-1-0.dll',
   'C:\\WINDOWS\\system32\\api-ms-win-core-console-l1-1-0.dll',
   'BINARY'),
  ('api-ms-win-core-memory-l1-1-0.dll',
   'C:\\WINDOWS\\system32\\api-ms-win-core-memory-l1-1-0.dll',
   'BINARY'),
  ('api-ms-win-core-debug-l1-1-0.dll',
   'C:\\WINDOWS\\system32\\api-ms-win-core-debug-l1-1-0.dll',
   'BINARY'),
  ('api-ms-win-core-namedpipe-l1-1-0.dll',
   'C:\\WINDOWS\\system32\\api-ms-win-core-namedpipe-l1-1-0.dll',
   'BINARY'),
  ('api-ms-win-core-heap-l1-1-0.dll',
   'C:\\WINDOWS\\system32\\api-ms-win-core-heap-l1-1-0.dll',
   'BINARY'),
  ('select', 'd:\\python37\\DLLs\\select.pyd', 'EXTENSION'),
  ('_socket', 'd:\\python37\\DLLs\\_socket.pyd', 'EXTENSION'),
  ('_ssl', 'd:\\python37\\DLLs\\_ssl.pyd', 'EXTENSION'),
  ('unicodedata', 'd:\\python37\\DLLs\\unicodedata.pyd', 'EXTENSION'),
  ('_bz2', 'd:\\python37\\DLLs\\_bz2.pyd', 'EXTENSION'),
  ('_lzma', 'd:\\python37\\DLLs\\_lzma.pyd', 'EXTENSION'),
  ('_hashlib', 'd:\\python37\\DLLs\\_hashlib.pyd', 'EXTENSION'),
  ('pyexpat', 'd:\\python37\\DLLs\\pyexpat.pyd', 'EXTENSION'),
  ('_queue', 'd:\\python37\\DLLs\\_queue.pyd', 'EXTENSION'),
  ('_cffi_backend',
   'd:\\python37\\lib\\site-packages\\_cffi_backend.cp37-win_amd64.pyd',
   'EXTENSION'),
  ('cryptography.hazmat.bindings._openssl',
   'd:\\python37\\lib\\site-packages\\cryptography\\hazmat\\bindings\\_openssl.pyd',
   'EXTENSION'),
  ('_decimal', 'd:\\python37\\DLLs\\_decimal.pyd', 'EXTENSION'),
  ('libcrypto-1_1.dll', 'd:\\python37\\DLLs\\libcrypto-1_1.dll', 'BINARY'),
  ('libssl-1_1.dll', 'd:\\python37\\DLLs\\libssl-1_1.dll', 'BINARY'),
  ('api-ms-win-crt-utility-l1-1-0.dll',
   'C:\\WINDOWS\\system32\\api-ms-win-crt-utility-l1-1-0.dll',
   'BINARY'),
  ('python3.dll', 'd:\\python37\\python3.dll', 'BINARY')],
 [],
 [],
 [('base_library.zip',
   'D:\\Users\\Desktop\\脚本合集\\TT_check\\build\\Check_TT\\base_library.zip',
   'DATA'),
  ('cryptography-3.3.1-py3.7.egg-info\\top_level.txt',
   'd:\\python37\\lib\\site-packages\\cryptography-3.3.1.dist-info\\top_level.txt',
   'DATA'),
  ('cryptography-3.3.1-py3.7.egg-info\\LICENSE.PSF',
   'd:\\python37\\lib\\site-packages\\cryptography-3.3.1.dist-info\\LICENSE.PSF',
   'DATA'),
  ('cryptography-3.3.1-py3.7.egg-info\\LICENSE',
   'd:\\python37\\lib\\site-packages\\cryptography-3.3.1.dist-info\\LICENSE',
   'DATA'),
  ('cryptography-3.3.1-py3.7.egg-info\\LICENSE.APACHE',
   'd:\\python37\\lib\\site-packages\\cryptography-3.3.1.dist-info\\LICENSE.APACHE',
   'DATA'),
  ('cryptography-3.3.1-py3.7.egg-info\\INSTALLER',
   'd:\\python37\\lib\\site-packages\\cryptography-3.3.1.dist-info\\INSTALLER',
   'DATA'),
  ('cryptography-3.3.1-py3.7.egg-info\\WHEEL',
   'd:\\python37\\lib\\site-packages\\cryptography-3.3.1.dist-info\\WHEEL',
   'DATA'),
  ('cryptography-3.3.1-py3.7.egg-info\\RECORD',
   'd:\\python37\\lib\\site-packages\\cryptography-3.3.1.dist-info\\RECORD',
   'DATA'),
  ('Include\\pyconfig.h', 'd:\\python37\\Include\\pyconfig.h', 'DATA'),
  ('cryptography-3.3.1-py3.7.egg-info\\LICENSE.BSD',
   'd:\\python37\\lib\\site-packages\\cryptography-3.3.1.dist-info\\LICENSE.BSD',
   'DATA'),
  ('cryptography-3.3.1-py3.7.egg-info\\METADATA',
   'd:\\python37\\lib\\site-packages\\cryptography-3.3.1.dist-info\\METADATA',
   'DATA'),
  ('cryptography-3.3.1-py3.7.egg-info\\AUTHORS.rst',
   'd:\\python37\\lib\\site-packages\\cryptography-3.3.1.dist-info\\AUTHORS.rst',
   'DATA'),
  ('certifi\\cacert.pem',
   'd:\\python37\\lib\\site-packages\\certifi\\cacert.pem',
   'DATA')],
 [])
