('D:\\Users\\Desktop\\脚本合集\\TT_check\\build\\Check_TT\\PKG-00.pkg',
 {'BINARY': 1,
  'DATA': 1,
  'EXECUTABLE': 1,
  'EXTENSION': 1,
  'PYMODULE': 1,
  'PYSOURCE': 1,
  'PYZ': 0},
 [('PYZ-00.pyz',
   'D:\\Users\\Desktop\\脚本合集\\TT_check\\build\\Check_TT\\PYZ-00.pyz',
   'PYZ'),
  ('struct', 'd:\\python37\\lib\\struct.pyo', 'PYMODULE'),
  ('pyimod01_os_path',
   'd:\\python37\\lib\\site-packages\\PyInstaller\\loader\\pyimod01_os_path.pyc',
   'PYMODULE'),
  ('pyimod02_archive',
   'd:\\python37\\lib\\site-packages\\PyInstaller\\loader\\pyimod02_archive.pyc',
   'PYMODULE'),
  ('pyimod03_importers',
   'd:\\python37\\lib\\site-packages\\PyInstaller\\loader\\pyimod03_importers.pyc',
   'PYMODULE'),
  ('pyiboot01_bootstrap',
   'd:\\python37\\lib\\site-packages\\PyInstaller\\loader\\pyiboot01_bootstrap.py',
   'PYSOURCE'),
  ('pyi_rth_certifi',
   'd:\\python37\\lib\\site-packages\\PyInstaller\\loader\\rthooks\\pyi_rth_certifi.py',
   'PYSOURCE'),
  ('Check_TT', 'D:\\Users\\Desktop\\脚本合集\\TT_check\\Check_TT.py', 'PYSOURCE'),
  ('api-ms-win-crt-locale-l1-1-0.dll',
   'C:\\WINDOWS\\system32\\api-ms-win-crt-locale-l1-1-0.dll',
   'BINARY'),
  ('api-ms-win-crt-heap-l1-1-0.dll',
   'C:\\WINDOWS\\system32\\api-ms-win-crt-heap-l1-1-0.dll',
   'BINARY'),
  ('api-ms-win-crt-math-l1-1-0.dll',
   'C:\\WINDOWS\\system32\\api-ms-win-crt-math-l1-1-0.dll',
   'BINARY'),
  ('VCRUNTIME140.dll', 'd:\\python37\\VCRUNTIME140.dll', 'BINARY'),
  ('python37.dll', 'd:\\python37\\python37.dll', 'BINARY'),
  ('api-ms-win-crt-runtime-l1-1-0.dll',
   'C:\\WINDOWS\\system32\\api-ms-win-crt-runtime-l1-1-0.dll',
   'BINARY'),
  ('api-ms-win-crt-stdio-l1-1-0.dll',
   'C:\\WINDOWS\\system32\\api-ms-win-crt-stdio-l1-1-0.dll',
   'BINARY'),
  ('ucrtbase.dll', 'C:\\WINDOWS\\system32\\ucrtbase.dll', 'BINARY'),
  ('api-ms-win-crt-string-l1-1-0.dll',
   'C:\\WINDOWS\\system32\\api-ms-win-crt-string-l1-1-0.dll',
   'BINARY'),
  ('api-ms-win-crt-convert-l1-1-0.dll',
   'C:\\WINDOWS\\system32\\api-ms-win-crt-convert-l1-1-0.dll',
   'BINARY'),
  ('api-ms-win-crt-conio-l1-1-0.dll',
   'C:\\WINDOWS\\system32\\api-ms-win-crt-conio-l1-1-0.dll',
   'BINARY'),
  ('api-ms-win-crt-process-l1-1-0.dll',
   'C:\\WINDOWS\\system32\\api-ms-win-crt-process-l1-1-0.dll',
   'BINARY'),
  ('api-ms-win-crt-environment-l1-1-0.dll',
   'C:\\WINDOWS\\system32\\api-ms-win-crt-environment-l1-1-0.dll',
   'BINARY'),
  ('api-ms-win-crt-time-l1-1-0.dll',
   'C:\\WINDOWS\\system32\\api-ms-win-crt-time-l1-1-0.dll',
   'BINARY'),
  ('api-ms-win-crt-filesystem-l1-1-0.dll',
   'C:\\WINDOWS\\system32\\api-ms-win-crt-filesystem-l1-1-0.dll',
   'BINARY'),
  ('api-ms-win-core-processthreads-l1-1-0.dll',
   'C:\\WINDOWS\\system32\\api-ms-win-core-processthreads-l1-1-0.dll',
   'BINARY'),
  ('api-ms-win-core-localization-l1-2-0.dll',
   'C:\\WINDOWS\\system32\\api-ms-win-core-localization-l1-2-0.dll',
   'BINARY'),
  ('api-ms-win-core-synch-l1-1-0.dll',
   'C:\\WINDOWS\\system32\\api-ms-win-core-synch-l1-1-0.dll',
   'BINARY'),
  ('api-ms-win-core-file-l2-1-0.dll',
   'C:\\WINDOWS\\system32\\api-ms-win-core-file-l2-1-0.dll',
   'BINARY'),
  ('api-ms-win-core-synch-l1-2-0.dll',
   'C:\\WINDOWS\\system32\\api-ms-win-core-synch-l1-2-0.dll',
   'BINARY'),
  ('api-ms-win-core-profile-l1-1-0.dll',
   'C:\\WINDOWS\\system32\\api-ms-win-core-profile-l1-1-0.dll',
   'BINARY'),
  ('api-ms-win-core-processenvironment-l1-1-0.dll',
   'C:\\WINDOWS\\system32\\api-ms-win-core-processenvironment-l1-1-0.dll',
   'BINARY'),
  ('api-ms-win-core-rtlsupport-l1-1-0.dll',
   'C:\\WINDOWS\\system32\\api-ms-win-core-rtlsupport-l1-1-0.dll',
   'BINARY'),
  ('api-ms-win-core-sysinfo-l1-1-0.dll',
   'C:\\WINDOWS\\system32\\api-ms-win-core-sysinfo-l1-1-0.dll',
   'BINARY'),
  ('api-ms-win-core-libraryloader-l1-1-0.dll',
   'C:\\WINDOWS\\system32\\api-ms-win-core-libraryloader-l1-1-0.dll',
   'BINARY'),
  ('api-ms-win-core-processthreads-l1-1-1.dll',
   'C:\\WINDOWS\\system32\\api-ms-win-core-processthreads-l1-1-1.dll',
   'BINARY'),
  ('api-ms-win-core-errorhandling-l1-1-0.dll',
   'C:\\WINDOWS\\system32\\api-ms-win-core-errorhandling-l1-1-0.dll',
   'BINARY'),
  ('api-ms-win-core-interlocked-l1-1-0.dll',
   'C:\\WINDOWS\\system32\\api-ms-win-core-interlocked-l1-1-0.dll',
   'BINARY'),
  ('api-ms-win-core-string-l1-1-0.dll',
   'C:\\WINDOWS\\system32\\api-ms-win-core-string-l1-1-0.dll',
   'BINARY'),
  ('api-ms-win-core-timezone-l1-1-0.dll',
   'C:\\WINDOWS\\system32\\api-ms-win-core-timezone-l1-1-0.dll',
   'BINARY'),
  ('api-ms-win-core-file-l1-2-0.dll',
   'C:\\WINDOWS\\system32\\api-ms-win-core-file-l1-2-0.dll',
   'BINARY'),
  ('api-ms-win-core-util-l1-1-0.dll',
   'C:\\WINDOWS\\system32\\api-ms-win-core-util-l1-1-0.dll',
   'BINARY'),
  ('api-ms-win-core-file-l1-1-0.dll',
   'C:\\WINDOWS\\system32\\api-ms-win-core-file-l1-1-0.dll',
   'BINARY'),
  ('api-ms-win-core-handle-l1-1-0.dll',
   'C:\\WINDOWS\\system32\\api-ms-win-core-handle-l1-1-0.dll',
   'BINARY'),
  ('api-ms-win-core-datetime-l1-1-0.dll',
   'C:\\WINDOWS\\system32\\api-ms-win-core-datetime-l1-1-0.dll',
   'BINARY'),
  ('api-ms-win-core-console-l1-1-0.dll',
   'C:\\WINDOWS\\system32\\api-ms-win-core-console-l1-1-0.dll',
   'BINARY'),
  ('api-ms-win-core-memory-l1-1-0.dll',
   'C:\\WINDOWS\\system32\\api-ms-win-core-memory-l1-1-0.dll',
   'BINARY'),
  ('api-ms-win-core-debug-l1-1-0.dll',
   'C:\\WINDOWS\\system32\\api-ms-win-core-debug-l1-1-0.dll',
   'BINARY'),
  ('api-ms-win-core-namedpipe-l1-1-0.dll',
   'C:\\WINDOWS\\system32\\api-ms-win-core-namedpipe-l1-1-0.dll',
   'BINARY'),
  ('api-ms-win-core-heap-l1-1-0.dll',
   'C:\\WINDOWS\\system32\\api-ms-win-core-heap-l1-1-0.dll',
   'BINARY'),
  ('select', 'd:\\python37\\DLLs\\select.pyd', 'EXTENSION'),
  ('_socket', 'd:\\python37\\DLLs\\_socket.pyd', 'EXTENSION'),
  ('_ssl', 'd:\\python37\\DLLs\\_ssl.pyd', 'EXTENSION'),
  ('unicodedata', 'd:\\python37\\DLLs\\unicodedata.pyd', 'EXTENSION'),
  ('_bz2', 'd:\\python37\\DLLs\\_bz2.pyd', 'EXTENSION'),
  ('_lzma', 'd:\\python37\\DLLs\\_lzma.pyd', 'EXTENSION'),
  ('_hashlib', 'd:\\python37\\DLLs\\_hashlib.pyd', 'EXTENSION'),
  ('pyexpat', 'd:\\python37\\DLLs\\pyexpat.pyd', 'EXTENSION'),
  ('_queue', 'd:\\python37\\DLLs\\_queue.pyd', 'EXTENSION'),
  ('_cffi_backend',
   'd:\\python37\\lib\\site-packages\\_cffi_backend.cp37-win_amd64.pyd',
   'EXTENSION'),
  ('cryptography.hazmat.bindings._openssl',
   'd:\\python37\\lib\\site-packages\\cryptography\\hazmat\\bindings\\_openssl.pyd',
   'EXTENSION'),
  ('_decimal', 'd:\\python37\\DLLs\\_decimal.pyd', 'EXTENSION'),
  ('libcrypto-1_1.dll', 'd:\\python37\\DLLs\\libcrypto-1_1.dll', 'BINARY'),
  ('libssl-1_1.dll', 'd:\\python37\\DLLs\\libssl-1_1.dll', 'BINARY'),
  ('api-ms-win-crt-utility-l1-1-0.dll',
   'C:\\WINDOWS\\system32\\api-ms-win-crt-utility-l1-1-0.dll',
   'BINARY'),
  ('python3.dll', 'd:\\python37\\python3.dll', 'BINARY'),
  ('base_library.zip',
   'D:\\Users\\Desktop\\脚本合集\\TT_check\\build\\Check_TT\\base_library.zip',
   'DATA'),
  ('cryptography-3.3.1-py3.7.egg-info\\top_level.txt',
   'd:\\python37\\lib\\site-packages\\cryptography-3.3.1.dist-info\\top_level.txt',
   'DATA'),
  ('cryptography-3.3.1-py3.7.egg-info\\LICENSE.PSF',
   'd:\\python37\\lib\\site-packages\\cryptography-3.3.1.dist-info\\LICENSE.PSF',
   'DATA'),
  ('cryptography-3.3.1-py3.7.egg-info\\LICENSE',
   'd:\\python37\\lib\\site-packages\\cryptography-3.3.1.dist-info\\LICENSE',
   'DATA'),
  ('cryptography-3.3.1-py3.7.egg-info\\LICENSE.APACHE',
   'd:\\python37\\lib\\site-packages\\cryptography-3.3.1.dist-info\\LICENSE.APACHE',
   'DATA'),
  ('cryptography-3.3.1-py3.7.egg-info\\INSTALLER',
   'd:\\python37\\lib\\site-packages\\cryptography-3.3.1.dist-info\\INSTALLER',
   'DATA'),
  ('cryptography-3.3.1-py3.7.egg-info\\WHEEL',
   'd:\\python37\\lib\\site-packages\\cryptography-3.3.1.dist-info\\WHEEL',
   'DATA'),
  ('cryptography-3.3.1-py3.7.egg-info\\RECORD',
   'd:\\python37\\lib\\site-packages\\cryptography-3.3.1.dist-info\\RECORD',
   'DATA'),
  ('Include\\pyconfig.h', 'd:\\python37\\Include\\pyconfig.h', 'DATA'),
  ('cryptography-3.3.1-py3.7.egg-info\\LICENSE.BSD',
   'd:\\python37\\lib\\site-packages\\cryptography-3.3.1.dist-info\\LICENSE.BSD',
   'DATA'),
  ('cryptography-3.3.1-py3.7.egg-info\\METADATA',
   'd:\\python37\\lib\\site-packages\\cryptography-3.3.1.dist-info\\METADATA',
   'DATA'),
  ('cryptography-3.3.1-py3.7.egg-info\\AUTHORS.rst',
   'd:\\python37\\lib\\site-packages\\cryptography-3.3.1.dist-info\\AUTHORS.rst',
   'DATA'),
  ('certifi\\cacert.pem',
   'd:\\python37\\lib\\site-packages\\certifi\\cacert.pem',
   'DATA'),
  ('Check_TT.exe.manifest',
   'D:\\Users\\Desktop\\脚本合集\\TT_check\\build\\Check_TT\\Check_TT.exe.manifest',
   'BINARY'),
  ('pyi-windows-manifest-filename Check_TT.exe.manifest', '', 'OPTION')],
 False,
 False,
 False,
 [])
